{
    "spec": {
        "dataSchema": {
            "dataSource": "call_plan",
            "dimensionsSpec": {
                "dimensions": [
                    "Account Type",
                    "ACTVFLG",
                    "Additional Low Dec Target",
                    "Aligned",
                    "Alternet Name",
                    "APVPEDFLG",
                    "Area ID",
                    "Area Name",
                    "Call ID",
                    "Call Plan",
                    "Call Plan End Date",
                    "Call Plan Start Date",
                    "Call Plan Status Code",
                    "Call Plan Type Code",
                    "City",
                    "Company",
                    "Company ID",
                    "Complete Actual Call Product List",
                    "Contract procurement",
                    "Corrected Call Plan",
                    "COTRTRFLG",
                    "Country",
                    "Customer birth date",
                    "Customer birth year",
                    "Customer Category",
                    "Customer Contact number",
                    "Customer Department",
                    "Customer email",
                    "Customer GPO",
                    "Customer ID",
                    "Customer Name",
                    "Customer rating",
                    "Customer Subtype",
                    "Customer Subtype Code",
                    "Customer Super Type Code",
                    "Customer System",
                    "Customer Type",
                    "Customer Type Code",
                    "Customer Wholesaler",
                    "District",
                    "District Code",
                    "Duplicate Flag",
                    "Employee",
                    "Employee Name",
                    "Engage Willingness",
                    "FAX",
                    "First Name",
                    "FLGAMA",
                    "Gender",
                    "Graduation School",
                    "Graduation training",
                    "Graduation training end date",
                    "Graduation training start date",
                    "Graduation year",
                    "HO Reason",
                    "IMSID",
                    "KAISERFLG",
                    "Key opinion leader flag",
                    "Last Name",
                    "MDMID",
                    "Middle Name",
                    "NPINUM",
                    "Parent Customer",
                    "PDRP Flag",
                    "Preferred Mode of Engagement",
                    "Primary Specialty Code",
                    "Primary Specialty Group Code",
                    "Primary Specialty Group Name",
                    "Primary Specialty Name",
                    "Professional title",
                    "Region",
                    "Region Code",
                    "Region Company Code",
                    "Region Selling Division",
                    "Secondary Specialty Code",
                    "Secondary Specialty Name",
                    "Selling Division",
                    "Selling Division Code",
                    "SHAID",
                    "Speaker Flag",
                    "State",
                    "State Code",
                    "Suffix",
                    "Surveyed Flag",
                    "Target Status",
                    "Target Type",
                    "Territory ID",
                    "Territory Name",
                    "VEEVAID",
                    "Zip"
                ]
            },
            "timestampSpec": {
                "format": "auto",
                "column": "Transaction Date"
            },
            "granularitySpec": {
                "type": "uniform",
                "segmentGranularity": "week",
                "queryGranularity": "none",
                "intervals": [
                    "2019-03-24/2021-09-23"
                ],
                "rollup": false
            },
            "transformSpec": {},
            "metricsSpec": [
                {
                    "type": "doubleSum",
                    "name": "Call Plan Working Days Counter",
                    "fieldName": "Call Plan Working Days Counter"
                },
                {
                    "type": "doubleSum",
                    "name": "Call Goal",
                    "fieldName": "Call Goal"
                },
                {
                    "type": "doubleSum",
                    "name": "Sample quantity",
                    "fieldName": "Sample quantity"
                }
            ]
        },
        "ioConfig": {
            "type": "index_parallel",
            "appendToExisting": false,
            "inputSource": {
                "type": "local",
                "baseDir": "/opt/apache-druid-0.19.0/var/druid/airflow/dags/whizpy/framework/fieldanalytics/inputs/extracts/call_plan/",
                "filter": "*.csv"
            },
            "inputFormat": {
                "type": "tsv",
                "findColumnsFromHeader": true
            }
        },
        "tuningConfig": {
            "type": "index_parallel",
            "partitionsSpec": {
                "type": "dynamic"
            },
            "maxNumConcurrentSubTasks": 2
        }
    },
    "type": "index_parallel"
}