ID	CLASS	CODE	NAME	DESC	LEVEL	SYN1	SYN2	SYN3	SYN4	SYN5	SYN6	SYN7	SYN8	SYN9	SYN10	SYN11	SYN12	SYN13	SYN14
20210809342039221	Access Category	Covered Restricted	Covered Restricted	Covered Restricted	Access Category														
20210809342039222	Access Category	Not Covered	Not Covered	Not Covered	Access Category														
20210809342039223	Access Category	Covered Unrestricted	Covered Unrestricted	Covered Unrestricted	Access Category														
20210809342039224	Access Category	Unknown	Unknown	Unknown	Access Category														
