ID	CLASS	CODE	NAME	DESC	LEVEL	Category	Parent	SYN1	SYN2	SYN3	SYN4	SYN5	SYN6	SYN7	SYN8	SYN9	SYN10	SYN11	SYN12	SYN13	SYN14
1001	Metadata	Access Category	Access Category	Access Category	Dimension			Access Type	Access												
1002	Metadata	Account Type	Account Type	Account Type	Dimension																
1003	Metadata	ACTVFLG	Active Flag	ACTVFLG	Dimension			Status													
1004	Metadata	Additional Low Dec Target	Additional Low Dec Target	Additional Low Dec Target	Dimension																
1005	Metadata	Address	Address	Address	Dimension																
1006	Metadata	Administration Mode	Administration Mode	Administration Mode	Dimension			Administration	Admin												
1010	Metadata	Therapeutic Class	Therapeutic Class	Therapeutic Class	Dimension			TC													
1012	Metadata	Treatment Type	Treatment Type	Treatment Type	Dimension																
