ID	CLASS	CODE	NAME	DESC	LEVEL	SYN1	SYN2	SYN3	SYN4	SYN5	SYN6	SYN7	SYN8	SYN9	SYN10	SYN11	SYN12	SYN13	SYN14
20210813534934225	Customer System	Intermountain Healthcare	Intermountain Healthcare	Intermountain Healthcare	Customer System														
20210813534934226	Customer System	Jefferson Health	Jefferson Health	Jefferson Health	Customer System														
20210813534934227	Customer System	The Center For Cancer And Blood Disorders	The Center For Cancer And Blood Disorders	The Center For Cancer And Blood Disorders	Customer System														
20210813534934228	Customer System	Ashland Hospital Corp	Ashland Hospital Corp	Ashland Hospital Corp	Customer System														
20210813534934229	Customer System	Commonspirit Health	Commonspirit Health	Commonspirit Health	Customer System														
20210813534934230	Customer System	Northshore University Healthsystem	Northshore University Healthsystem	Northshore University Healthsystem	Customer System														
20210813534934231	Customer System	Saint Lukes Health System	Saint Lukes Health System	Saint Lukes Health System	Customer System														
20210813534934232	Customer System	Hackensack Meridian Health	Hackensack Meridian Health	Hackensack Meridian Health	Customer System														
20210813534934233	Customer System	Ohiohealth	Ohiohealth	Ohiohealth	Customer System														
20210813534934234	Customer System	Cornerstone Healthcare Group	Cornerstone Healthcare Group	Cornerstone Healthcare Group	Customer System														
20210813534934235	Customer System	Ochsner Health System	Ochsner Health System	Ochsner Health System	Customer System														
20210813534934236	Customer System	Froedtert And The Medical College Of Wisconsin	Froedtert And The Medical College Of Wisconsin	Froedtert And The Medical College Of Wisconsin	Customer System														
20210813534934237	Customer System	Deaconess Health System	Deaconess Health System	Deaconess Health System	Customer System														
20210813534934238	Customer System	Indiana University Health	Indiana University Health	Indiana University Health	Customer System														
20210813534934239	Customer System	Legacy Health	Legacy Health	Legacy Health	Customer System														
20210813534934240	Customer System	Ernest Health, Inc	Ernest Health, Inc	Ernest Health, Inc	Customer System														
20210813534934241	Customer System	The Metrohealth System	The Metrohealth System	The Metrohealth System	Customer System														
20210813534934242	Customer System	Select Medical Corp	Select Medical Corp	Select Medical Corp	Customer System														
20210813534934243	Customer System	Bellin Health Systems	Bellin Health Systems	Bellin Health Systems	Customer System														
20210813534934244	Customer System	Kindred Healthcare, Inc	Kindred Healthcare, Inc	Kindred Healthcare, Inc	Customer System														
20210813534934245	Customer System	Carson Tahoe Health	Carson Tahoe Health	Carson Tahoe Health	Customer System														
20210813534934246	Customer System	Unity Health	Unity Health	Unity Health	Customer System														
20210813534934247	Customer System	Henry Ford Health System	Henry Ford Health System	Henry Ford Health System	Customer System														
20210813534934248	Customer System	Yavapai Regional Medical Center	Yavapai Regional Medical Center	Yavapai Regional Medical Center	Customer System														
20210813534934249	Customer System	Northside Hospital, Inc	Northside Hospital, Inc	Northside Hospital, Inc	Customer System														
