ID	CLASS	CODE	NAME	DESC	LEVEL	SYN1	SYN2	SYN3	SYN4	SYN5	SYN6	SYN7	SYN8	SYN9	SYN10	SYN11	SYN12	SYN13	SYN14
20210813714935225	PBM	Selecthealth Prescriptions	Selecthealth Prescriptions	Selecthealth Prescriptions	PBM														
20210813714935226	PBM	Kroger Pbm	Kroger Pbm	Kroger Pbm	PBM														
20210813714935227	PBM	Baylor Scott & White Prescription Services	Baylor Scott & White Prescription Services	Baylor Scott & White Prescription Services	PBM														
20210813714935228	PBM	Pharmacy Benefit Dimensions	Pharmacy Benefit Dimensions	Pharmacy Benefit Dimensions	PBM														
20210813714935229	PBM	Castiarx	Castiarx	Castiarx	PBM														
20210813714935230	PBM	Washington State Rx Services	Washington State Rx Services	Washington State Rx Services	PBM														
20210813714935231	PBM	Express Scripts Pbm	Express Scripts Pbm	Express Scripts Pbm	PBM														
20210813714935232	PBM	Magellan Rx Management	Magellan Rx Management	Magellan Rx Management	PBM														
20210813714935233	PBM	Envisionrx	Envisionrx	Envisionrx	PBM														
20210813714935234	PBM	Optumrx	Optumrx	Optumrx	PBM														
20210813714935235	PBM	Cvs Caremark Rx	Cvs Caremark Rx	Cvs Caremark Rx	PBM														
20210813714935236	PBM	Prime Therapeutics	Prime Therapeutics	Prime Therapeutics	PBM														
20210813714935237	PBM	Citizens Rx	Citizens Rx	Citizens Rx	PBM														
20210813714935238	PBM	Script Care Pbm	Script Care Pbm	Script Care Pbm	PBM														
20210813714935239	PBM	Welldynerx	Welldynerx	Welldynerx	PBM														
20210813714935240	PBM	Abarca Health	Abarca Health	Abarca Health	PBM														
20210813714935241	PBM	Navitus Health Solutions Pbm	Navitus Health Solutions Pbm	Navitus Health Solutions Pbm	PBM														
20210813714935242	PBM	None	None	None	PBM														
20210813714935243	PBM	Processor	Processor	Processor	PBM														
20210813714935244	PBM	Benecard Services	Benecard Services	Benecard Services	PBM														
20210813714935245	PBM	Ingeniorx	Ingeniorx	Ingeniorx	PBM														
20210813714935246	PBM	Humana Pbm	Humana Pbm	Humana Pbm	PBM														
20210813714935247	PBM	Clearscript Pbm	Clearscript Pbm	Clearscript Pbm	PBM														
20210813714935248	PBM	Flrx	Flrx	Flrx	PBM														
20210813714935249	PBM	Cigna Pbm	Cigna Pbm	Cigna Pbm	PBM														
20210813714935250	PBM	Mc-Rx	Mc-Rx	Mc-Rx	PBM														
20210813714935251	PBM	Medimpact Healthcare Systems. Inc.	Medimpact Healthcare Systems. Inc.	Medimpact Healthcare Systems. Inc.	PBM														
20210813714935252	PBM	Envolve Pharmacy Solutions	Envolve Pharmacy Solutions	Envolve Pharmacy Solutions	PBM														
