ID	CLASS	CODE	NAME	DESC	LEVEL	SYN1	SYN2	SYN3	SYN4	SYN5	SYN6	SYN7	SYN8	SYN9	SYN10	SYN11	SYN12	SYN13	SYN14
20210813774935225	Primary Specialty Name	Nurse Practitioner	Nurse Practitioner	Nurse Practitioner	Primary Specialty Name														
20210813774935226	Primary Specialty Name	Family Medicine	Family Medicine	Family Medicine	Primary Specialty Name														
20210813774935227	Primary Specialty Name	Internal Medicine	Internal Medicine	Internal Medicine	Primary Specialty Name														
20210813774935228	Primary Specialty Name	Cardiovascular Diseases	Cardiovascular Diseases	Cardiovascular Diseases	Primary Specialty Name														
20210813774935229	Primary Specialty Name	Rheumatology	Rheumatology	Rheumatology	Primary Specialty Name														
20210813774935230	Primary Specialty Name	Family Practice - Sports Medicine	Family Practice - Sports Medicine	Family Practice - Sports Medicine	Primary Specialty Name														
20210813774935231	Primary Specialty Name	Physician Assistant	Physician Assistant	Physician Assistant	Primary Specialty Name														
20210813774935232	Primary Specialty Name	Interventional Cardiology	Interventional Cardiology	Interventional Cardiology	Primary Specialty Name														
20210813774935233	Primary Specialty Name	Hematology/Oncology	Hematology/Oncology	Hematology/Oncology	Primary Specialty Name														
20210813774935234	Primary Specialty Name	Vascular Surgery	Vascular Surgery	Vascular Surgery	Primary Specialty Name														
20210813774935235	Primary Specialty Name	Internal Medicine - Pediatrics	Internal Medicine - Pediatrics	Internal Medicine - Pediatrics	Primary Specialty Name														
20210813774935236	Primary Specialty Name	Public Health And General Preventive Med	Public Health And General Preventive Med	Public Health And General Preventive Med	Primary Specialty Name														
20210813774935237	Primary Specialty Name	Nephrology	Nephrology	Nephrology	Primary Specialty Name														
20210813774935238	Primary Specialty Name	Cardiac Electrophysiology	Cardiac Electrophysiology	Cardiac Electrophysiology	Primary Specialty Name														
20210813774935239	Primary Specialty Name	General Surgery	General Surgery	General Surgery	Primary Specialty Name														
20210813774935240	Primary Specialty Name	Family Practice - Geriatric Medicine	Family Practice - Geriatric Medicine	Family Practice - Geriatric Medicine	Primary Specialty Name														
20210813774935241	Primary Specialty Name	Pulmonary Disease	Pulmonary Disease	Pulmonary Disease	Primary Specialty Name														
20210813774935242	Primary Specialty Name	Clinical Nurse Specialist	Clinical Nurse Specialist	Clinical Nurse Specialist	Primary Specialty Name														
20210813774935243	Primary Specialty Name	Oncology	Oncology	Oncology	Primary Specialty Name														
20210813774935244	Primary Specialty Name	Vascular And Interven Radiology	Vascular And Interven Radiology	Vascular And Interven Radiology	Primary Specialty Name														
20210813774935245	Primary Specialty Name	Internal Medicine - Geriatric Medicine	Internal Medicine - Geriatric Medicine	Internal Medicine - Geriatric Medicine	Primary Specialty Name														
20210813774935246	Primary Specialty Name	General Practice	General Practice	General Practice	Primary Specialty Name														
20210813774935247	Primary Specialty Name	Endocrinology	Endocrinology	Endocrinology	Primary Specialty Name														
20210813774935248	Primary Specialty Name	Thoracic Surgery	Thoracic Surgery	Thoracic Surgery	Primary Specialty Name														
20210813774935249	Primary Specialty Name	Emergency Medicine	Emergency Medicine	Emergency Medicine	Primary Specialty Name														
20210813774935250	Primary Specialty Name	Neurology	Neurology	Neurology	Primary Specialty Name														
20210813774935251	Primary Specialty Name	Pharmacist	Pharmacist	Pharmacist	Primary Specialty Name														
20210813774935252	Primary Specialty Name	Internal Medicine - Family Practice	Internal Medicine - Family Practice	Internal Medicine - Family Practice	Primary Specialty Name														
20210813774935253	Primary Specialty Name	Vascular Medicine	Vascular Medicine	Vascular Medicine	Primary Specialty Name														
20210813774935254	Primary Specialty Name	Pulmonary Critical Care	Pulmonary Critical Care	Pulmonary Critical Care	Primary Specialty Name														
20210813774935255	Primary Specialty Name	Diagnostic Radiology	Diagnostic Radiology	Diagnostic Radiology	Primary Specialty Name														
20210813774935256	Primary Specialty Name	Hematology - Im	Hematology - Im	Hematology - Im	Primary Specialty Name														
20210813774935257	Primary Specialty Name	Neuroradiology	Neuroradiology	Neuroradiology	Primary Specialty Name														
