ID	CLASS	CODE	NAME	DESC	LEVEL	SYN1	SYN2	SYN3	SYN4	SYN5	SYN6	SYN7	SYN8	SYN9	SYN10	SYN11	SYN12	SYN13	SYN14
20210813784935225	Product Decile Group	Not Avaliable	Not Avaliable	Not Avaliable	Product Decile Group														
20210813784935226	Product Decile Group	Medium Decile	Medium Decile	Medium Decile	Product Decile Group														
20210813784935227	Product Decile Group	Low decile	Low decile	Low decile	Product Decile Group														
20210813784935228	Product Decile Group	High Decile	High Decile	High Decile	Product Decile Group														
