ID	CLASS	CODE	NAME	DESC	LEVEL	SYN1	SYN2	SYN3	SYN4	SYN5	SYN6	SYN7	SYN8	SYN9	SYN10	SYN11	SYN12	SYN13	SYN14
20210813844935225	Region Selling Division	Red Team	Red Team	Red Team	Region Selling Division														
20210813844935226	Region Selling Division	Yellow Team	Yellow Team	Yellow Team	Region Selling Division														
20210813844935227	Region Selling Division	Purple Team	Purple Team	Purple Team	Region Selling Division														
