ID	CLASS	CODE	NAME	DESC	LEVEL	SYN1	SYN2	SYN3	SYN4	SYN5	SYN6	SYN7	SYN8	SYN9	SYN10	SYN11	SYN12	SYN13	SYN14
20210813874935225	State	Indiana	Indiana	Indiana	State														
20210813874935226	State	New York	New York	New York	State														
20210813874935227	State	Virginia	Virginia	Virginia	State														
20210813874935228	State	Oklahoma	Oklahoma	Oklahoma	State														
20210813874935229	State	Tennessee	Tennessee	Tennessee	State														
20210813874935230	State	Nevada	Nevada	Nevada	State														
20210813874935231	State	Mississippi	Mississippi	Mississippi	State														
20210813874935232	State	Colorado	Colorado	Colorado	State														
20210813874935233	State	Delaware	Delaware	Delaware	State														
20210813874935234	State	Kansas	Kansas	Kansas	State														
20210813874935235	State	District of Columbia	District of Columbia	District of Columbia	State														
20210813874935236	State	Kentucky	Kentucky	Kentucky	State														
20210813874935237	State	West Virginia	West Virginia	West Virginia	State														
20210813874935238	State	Ohio	Ohio	Ohio	State														
20210813874935239	State	Oregon	Oregon	Oregon	State														
20210813874935240	State	Alabama	Alabama	Alabama	State														
20210813874935241	State	Iowa	Iowa	Iowa	State														
20210813874935242	State	Georgia	Georgia	Georgia	State														
20210813874935243	State	Vermont	Vermont	Vermont	State														
20210813874935244	State	New Mexico	New Mexico	New Mexico	State														
20210813874935245	State	Massachusetts	Massachusetts	Massachusetts	State														
20210813874935246	State	South Carolina	South Carolina	South Carolina	State														
20210813874935247	State	Arizona	Arizona	Arizona	State														
20210813874935248	State	Alaska	Alaska	Alaska	State														
20210813874935249	State	North Carolina	North Carolina	North Carolina	State														
20210813874935250	State	Montana	Montana	Montana	State														
20210813874935251	State	South Dakota	South Dakota	South Dakota	State														
20210813874935252	State	Texas	Texas	Texas	State														
20210813874935253	State	Utah	Utah	Utah	State														
20210813874935254	State	Missouri	Missouri	Missouri	State														
20210813874935255	State	Minnesota	Minnesota	Minnesota	State														
20210813874935256	State	California	California	California	State														
20210813874935257	State	Wisconsin	Wisconsin	Wisconsin	State														
20210813874935258	State	New Jersey	New Jersey	New Jersey	State														
20210813874935259	State	Pennsylvania	Pennsylvania	Pennsylvania	State														
20210813874935260	State	Louisiana	Louisiana	Louisiana	State														
20210813874935261	State	Nebraska	Nebraska	Nebraska	State														
20210813874935262	State	Connecticut	Connecticut	Connecticut	State														
20210813874935263	State	Arkansas	Arkansas	Arkansas	State														
20210813874935264	State	Maryland	Maryland	Maryland	State														
20210813874935265	State	Idaho	Idaho	Idaho	State														
20210813874935266	State	Rhode Island	Rhode Island	Rhode Island	State														
20210813874935267	State	Florida	Florida	Florida	State														
20210813874935268	State	Michigan	Michigan	Michigan	State														
20210813874935269	State	Illinois	Illinois	Illinois	State														
20210813874935270	State	New Hampshire	New Hampshire	New Hampshire	State														
20210813874935271	State	Washington	Washington	Washington	State														
20210813874935272	State	North Dakota	North Dakota	North Dakota	State														
20210813874935273	State	Hawaii	Hawaii	Hawaii	State														
20210813874935274	State	Maine	Maine	Maine	State														
