ID	CLASS	CODE	NAME	DESC	LEVEL	SYN1	SYN2	SYN3	SYN4	SYN5	SYN6	SYN7	SYN8	SYN9	SYN10	SYN11	SYN12	SYN13	SYN14
20210813894935225	Surveyed Flag	Non-Target	Non-Target	Non-Target	Surveyed Flag														
20210813894935226	Surveyed Flag	Surveyed	Surveyed	Surveyed	Surveyed Flag														
20210813894935227	Surveyed Flag	Not Surveyed	Not Surveyed	Not Surveyed	Surveyed Flag														
20210813894935228	Surveyed Flag	Not Applicable	Not Applicable	Not Applicable	Surveyed Flag														
