ID	CLASS	CODE	NAME	DESC	LEVEL	SYN1	SYN2	SYN3	SYN4	SYN5	SYN6	SYN7	SYN8	SYN9	SYN10	SYN11	SYN12	SYN13	SYN14
20210811350705223	access category	Covered Unrestricted	Covered Unrestricted	Covered Unrestricted	access category														
20210811350705224	access category	Unknown	Unknown	Unknown	access category														
20210811350705225	access category	Not Covered	Not Covered	Not Covered	access category														
20210811350705226	access category	Covered Restricted	Covered Restricted	Covered Restricted	access category														
