ID	CLASS	CODE	NAME	DESC	LEVEL	SYN1	SYN2	SYN3	SYN4	SYN5	SYN6	SYN7	SYN8	SYN9	SYN10	SYN11	SYN12	SYN13	SYN14
20210811390705223	administration mode	Injectable	Injectable	Injectable	administration mode														
20210811390705224	administration mode	Oral	Oral	Oral	administration mode														
