ID	CLASS	CODE	NAME	DESC	LEVEL	SYN1	SYN2	SYN3	SYN4	SYN5	SYN6	SYN7	SYN8	SYN9	SYN10	SYN11	SYN12	SYN13	SYN14
20210811400705223	area name	Red Team	Red Team	Red Team	area name														
20210811400705224	area name	Purple Team	Purple Team	Purple Team	area name														
20210811400705225	area name	Yellow Team	Yellow Team	Yellow Team	area name														
