ID	CLASS	CODE	NAME	DESC	LEVEL	SYN1	SYN2	SYN3	SYN4	SYN5	SYN6	SYN7	SYN8	SYN9	SYN10	SYN11	SYN12	SYN13	SYN14
20210811540706223	customer wholesaler	Amerisourcebergen Corporation	Amerisourcebergen Corporation	Amerisourcebergen Corporation	customer wholesaler														
20210811540706224	customer wholesaler	Mckesson Corporation Headquarters	Mckesson Corporation Headquarters	Mckesson Corporation Headquarters	customer wholesaler														
20210811540706225	customer wholesaler	Not Available	Not Available	Not Available	customer wholesaler														
20210811540706226	customer wholesaler	Oncology Supply Company	Oncology Supply Company	Oncology Supply Company	customer wholesaler														
20210811540706227	customer wholesaler	Cardinal Health, Inc	Cardinal Health, Inc	Cardinal Health, Inc	customer wholesaler														
