ID	CLASS	CODE	NAME	DESC	LEVEL	SYN1	SYN2	SYN3	SYN4	SYN5	SYN6	SYN7	SYN8	SYN9	SYN10	SYN11	SYN12	SYN13	SYN14
20210811580706223	formulary status	Not Covered	Not Covered	Not Covered	formulary status														
20210811580706224	formulary status	Tier 2	Tier 2	Tier 2	formulary status														
20210811580706225	formulary status	Unknown	Unknown	Unknown	formulary status														
20210811580706226	formulary status	Preferred	Preferred	Preferred	formulary status														
20210811580706227	formulary status	Tier 4	Tier 4	Tier 4	formulary status														
20210811580706228	formulary status	Tier 3	Tier 3	Tier 3	formulary status														
20210811580706229	formulary status	Tier 1	Tier 1	Tier 1	formulary status														
