ID	CLASS	CODE	NAME	DESC	LEVEL	SYN1	SYN2	SYN3	SYN4	SYN5	SYN6	SYN7	SYN8	SYN9	SYN10	SYN11	SYN12	SYN13	SYN14
20210811620706223	key opinion leader flag	Not Key Influncer	Not Key Influncer	Not Key Influncer	key opinion leader flag														
20210811620706224	key opinion leader flag	Key Influncer	Key Influncer	Key Influncer	key opinion leader flag														
