ID	CLASS	CODE	NAME	DESC	LEVEL	SYN1	SYN2	SYN3	SYN4	SYN5	SYN6	SYN7	SYN8	SYN9	SYN10	SYN11	SYN12	SYN13	SYN14
20210811780706223	product group	My Brand	My Brand	My Brand	product group														
20210811780706224	product group	Competitor	Competitor	Competitor	product group														
