ID	CLASS	CODE	NAME	DESC	LEVEL	SYN1	SYN2	SYN3	SYN4	SYN5	SYN6	SYN7	SYN8	SYN9	SYN10	SYN11	SYN12	SYN13	SYN14
20210811810707223	region	West	West	West	region														
20210811810707224	region	Mid-Central	Mid-Central	Mid-Central	region														
20210811810707225	region	Mid-Atlantic	Mid-Atlantic	Mid-Atlantic	region														
20210811810707226	region	Northeast	Northeast	Northeast	region														
20210811810707227	region	Midwest	Midwest	Midwest	region														
20210811810707228	region	Southwest	Southwest	Southwest	region														
20210811810707229	region	Southeast	Southeast	Southeast	region														
