ID	CLASS	CODE	NAME	DESC	LEVEL	SYN1	SYN2	SYN3	SYN4	SYN5	SYN6	SYN7	SYN8	SYN9	SYN10	SYN11	SYN12	SYN13	SYN14
20210811830707223	region selling division	Red Team	Red Team	Red Team	region selling division														
20210811830707224	region selling division	Purple Team	Purple Team	Purple Team	region selling division														
20210811830707225	region selling division	Yellow Team	Yellow Team	Yellow Team	region selling division														
