ID	CLASS	CODE	NAME	DESC	LEVEL	SYN1	SYN2	SYN3	SYN4	SYN5	SYN6	SYN7	SYN8	SYN9	SYN10	SYN11	SYN12	SYN13	SYN14
20210811950707223	zip	60048	60048	60048	zip														
20210811950707224	zip	19605	19605	19605	zip														
20210811950707225	zip	58740	58740	58740	zip														
20210811950707226	zip	33023	33023	33023	zip														
20210811950707227	zip	53132	53132	53132	zip														
20210811950707228	zip	92093	92093	92093	zip														
20210811950707229	zip	98370	98370	98370	zip														
20210811950707230	zip	38310	38310	38310	zip														
20210811950707231	zip	17042	17042	17042	zip														
20210811950707232	zip	32053	32053	32053	zip														
20210811950707233	zip	33174	33174	33174	zip														
20210811950707234	zip	33150	33150	33150	zip														
20210811950707235	zip	48706	48706	48706	zip														
20210811950707236	zip	2863	2863	2863	zip														
20210811950707237	zip	60010	60010	60010	zip														
20210811950707238	zip	1952	1952	1952	zip														
20210811950707239	zip	6716	6716	6716	zip														
20210811950707240	zip	68642	68642	68642	zip														
20210811950707241	zip	73120	73120	73120	zip														
20210811950707242	zip	30467	30467	30467	zip														
20210811950707243	zip	59701	59701	59701	zip														
20210811950707244	zip	32209	32209	32209	zip														
20210811950707245	zip	31803	31803	31803	zip														
20210811950707246	zip	8742	8742	8742	zip														
20210811950707247	zip	72120	72120	72120	zip														
20210811950707248	zip	19023	19023	19023	zip														
20210811950707249	zip	33027	33027	33027	zip														
20210811950707250	zip	34117	34117	34117	zip														
20210811950707251	zip	3862	3862	3862	zip														
20210811950707252	zip	75041	75041	75041	zip														
20210811950707253	zip	27344	27344	27344	zip														
20210811950707254	zip	21054	21054	21054	zip														
20210811950707255	zip	85608	85608	85608	zip														
20210811950707256	zip	60954	60954	60954	zip														
20210811950707257	zip	18914	18914	18914	zip														
20210811950707258	zip	10502	10502	10502	zip														
20210811950707259	zip	32901	32901	32901	zip														
20210811950707260	zip	33024	33024	33024	zip														
20210811950707261	zip	33914	33914	33914	zip														
20210811950707262	zip	17847	17847	17847	zip														
20210811950707263	zip	85718	85718	85718	zip														
20210811950707264	zip	98199	98199	98199	zip														
20210811950707265	zip	81090	81090	81090	zip														
20210811950707266	zip	32764	32764	32764	zip														
20210811950707267	zip	68507	68507	68507	zip														
20210811950707268	zip	89010	89010	89010	zip														
20210811950707269	zip	5446	5446	5446	zip														
20210811950707270	zip	17103	17103	17103	zip														
20210811950707271	zip	11751	11751	11751	zip														
20210811950707272	zip	45044	45044	45044	zip														
20210811950707273	zip	48306	48306	48306	zip														
20210811950707274	zip	21784	21784	21784	zip														
20210811950707275	zip	54409	54409	54409	zip														
20210811950707276	zip	60131	60131	60131	zip														
20210811950707277	zip	30338	30338	30338	zip														
20210811950707278	zip	44125	44125	44125	zip														
20210811950707279	zip	77859	77859	77859	zip														
20210811950707280	zip	80015	80015	80015	zip														
20210811950707281	zip	99675	99675	99675	zip														
20210811950707282	zip	24317	24317	24317	zip														
20210811950707283	zip	74301	74301	74301	zip														
20210811950707284	zip	7063	7063	7063	zip														
20210811950707285	zip	19403	19403	19403	zip														
20210811950707286	zip	99016	99016	99016	zip														
20210811950707287	zip	6615	6615	6615	zip														
20210811950707288	zip	92373	92373	92373	zip														
20210811950707289	zip	30214	30214	30214	zip														
20210811950707290	zip	43469	43469	43469	zip														
20210811950707291	zip	42431	42431	42431	zip														
20210811950707292	zip	54629	54629	54629	zip														
20210811950707293	zip	46807	46807	46807	zip														
20210811950707294	zip	84058	84058	84058	zip														
20210811950707295	zip	29576	29576	29576	zip														
20210811950707296	zip	49331	49331	49331	zip														
20210811950707297	zip	64501	64501	64501	zip														
20210811950707298	zip	15136	15136	15136	zip														
20210811950707299	zip	78634	78634	78634	zip														
20210811950707300	zip	22827	22827	22827	zip														
20210811950707301	zip	41048	41048	41048	zip														
20210811950707302	zip	94931	94931	94931	zip														
20210811950707303	zip	37083	37083	37083	zip														
20210811950707304	zip	28146	28146	28146	zip														
20210811950707305	zip	79107	79107	79107	zip														
20210811950707306	zip	28009	28009	28009	zip														
20210811950707307	zip	37110	37110	37110	zip														
20210811950707308	zip	60544	60544	60544	zip														
20210811950707309	zip	93433	93433	93433	zip														
20210811950707310	zip	80104	80104	80104	zip														
20210811950707311	zip	8060	8060	8060	zip														
20210811950707312	zip	10011	10011	10011	zip														
20210811950707313	zip	8551	8551	8551	zip														
20210811950707314	zip	46208	46208	46208	zip														
20210811950707315	zip	44618	44618	44618	zip														
20210811950707316	zip	75773	75773	75773	zip														
20210811950707317	zip	28104	28104	28104	zip														
20210811950707318	zip	26230	26230	26230	zip														
20210811950707319	zip	62557	62557	62557	zip														
20210811950707320	zip	2180	2180	2180	zip														
20210811950707321	zip	77331	77331	77331	zip														
20210811950707322	zip	93635	93635	93635	zip														
20210811950707323	zip	8036	8036	8036	zip														
20210811950707324	zip	48768	48768	48768	zip														
20210811950707325	zip	39110	39110	39110	zip														
20210811950707326	zip	93908	93908	93908	zip														
20210811950707327	zip	51041	51041	51041	zip														
20210811950707328	zip	70447	70447	70447	zip														
20210811950707329	zip	45371	45371	45371	zip														
20210811950707330	zip	78028	78028	78028	zip														
20210811950707331	zip	3903	3903	3903	zip														
20210811950707332	zip	46406	46406	46406	zip														
20210811950707333	zip	71360	71360	71360	zip														
20210811950707334	zip	29646	29646	29646	zip														
20210811950707335	zip	37701	37701	37701	zip														
20210811950707336	zip	19061	19061	19061	zip														
20210811950707337	zip	39211	39211	39211	zip														
20210811950707338	zip	17508	17508	17508	zip														
20210811950707339	zip	28273	28273	28273	zip														
20210811950707340	zip	78676	78676	78676	zip														
20210811950707341	zip	64128	64128	64128	zip														
20210811950707342	zip	23229	23229	23229	zip														
20210811950707343	zip	33441	33441	33441	zip														
20210811950707344	zip	93720	93720	93720	zip														
20210811950707345	zip	99654	99654	99654	zip														
20210811950707346	zip	35576	35576	35576	zip														
20210811950707347	zip	55976	55976	55976	zip														
20210811950707348	zip	27534	27534	27534	zip														
20210811950707349	zip	75241	75241	75241	zip														
20210811950707350	zip	49305	49305	49305	zip														
20210811950707351	zip	92122	92122	92122	zip														
20210811950707352	zip	83669	83669	83669	zip														
20210811950707353	zip	48837	48837	48837	zip														
20210811950707354	zip	37932	37932	37932	zip														
20210811950707355	zip	48473	48473	48473	zip														
20210811950707356	zip	79009	79009	79009	zip														
20210811950707357	zip	89074	89074	89074	zip														
20210811950707358	zip	77539	77539	77539	zip														
20210811950707359	zip	60615	60615	60615	zip														
20210811950707360	zip	55107	55107	55107	zip														
20210811950707361	zip	30125	30125	30125	zip														
20210811950707362	zip	38621	38621	38621	zip														
20210811950707363	zip	44111	44111	44111	zip														
20210811950707364	zip	94952	94952	94952	zip														
20210811950707365	zip	52208	52208	52208	zip														
20210811950707366	zip	35801	35801	35801	zip														
20210811950707367	zip	74818	74818	74818	zip														
20210811950707368	zip	49055	49055	49055	zip														
20210811950707369	zip	13778	13778	13778	zip														
20210811950707370	zip	65635	65635	65635	zip														
20210811950707371	zip	8054	8054	8054	zip														
20210811950707372	zip	19711	19711	19711	zip														
20210811950707373	zip	33325	33325	33325	zip														
20210811950707374	zip	73053	73053	73053	zip														
20210811950707375	zip	14005	14005	14005	zip														
20210811950707376	zip	44512	44512	44512	zip														
20210811950707377	zip	31807	31807	31807	zip														
20210811950707378	zip	34990	34990	34990	zip														
20210811950707379	zip	40828	40828	40828	zip														
20210811950707380	zip	33025	33025	33025	zip														
20210811950707381	zip	75032	75032	75032	zip														
20210811950707382	zip	35175	35175	35175	zip														
20210811950707383	zip	11520	11520	11520	zip														
20210811950707384	zip	31333	31333	31333	zip														
20210811950707385	zip	37317	37317	37317	zip														
20210811950707386	zip	36867	36867	36867	zip														
20210811950707387	zip	91103	91103	91103	zip														
20210811950707388	zip	16415	16415	16415	zip														
20210811950707389	zip	38572	38572	38572	zip														
20210811950707390	zip	5156	5156	5156	zip														
20210811950707391	zip	37722	37722	37722	zip														
20210811950707392	zip	72201	72201	72201	zip														
20210811950707393	zip	45420	45420	45420	zip														
20210811950707394	zip	4989	4989	4989	zip														
20210811950707395	zip	91316	91316	91316	zip														
20210811950707396	zip	37743	37743	37743	zip														
20210811950707397	zip	77864	77864	77864	zip														
20210811950707398	zip	11788	11788	11788	zip														
20210811950707399	zip	70639	70639	70639	zip														
20210811950707400	zip	28340	28340	28340	zip														
20210811950707401	zip	76266	76266	76266	zip														
20210811950707402	zip	25140	25140	25140	zip														
20210811950707403	zip	17241	17241	17241	zip														
20210811950707404	zip	24588	24588	24588	zip														
20210811950707405	zip	44028	44028	44028	zip														
20210811950707406	zip	40440	40440	40440	zip														
20210811950707407	zip	8904	8904	8904	zip														
20210811950707408	zip	12122	12122	12122	zip														
20210811950707409	zip	61542	61542	61542	zip														
20210811950707410	zip	27542	27542	27542	zip														
20210811950707411	zip	97836	97836	97836	zip														
20210811950707412	zip	64482	64482	64482	zip														
20210811950707413	zip	28128	28128	28128	zip														
20210811950707414	zip	29569	29569	29569	zip														
20210811950707415	zip	34231	34231	34231	zip														
20210811950707416	zip	62016	62016	62016	zip														
20210811950707417	zip	48336	48336	48336	zip														
20210811950707418	zip	43542	43542	43542	zip														
20210811950707419	zip	44118	44118	44118	zip														
20210811950707420	zip	63351	63351	63351	zip														
20210811950707421	zip	17331	17331	17331	zip														
20210811950707422	zip	73802	73802	73802	zip														
20210811950707423	zip	6870	6870	6870	zip														
20210811950707424	zip	81006	81006	81006	zip														
20210811950707425	zip	10460	10460	10460	zip														
20210811950707426	zip	64505	64505	64505	zip														
20210811950707427	zip	21629	21629	21629	zip														
20210811950707428	zip	92101	92101	92101	zip														
20210811950707429	zip	53012	53012	53012	zip														
20210811950707430	zip	77066	77066	77066	zip														
20210811950707431	zip	14526	14526	14526	zip														
20210811950707432	zip	42441	42441	42441	zip														
20210811950707433	zip	28584	28584	28584	zip														
20210811950707434	zip	48334	48334	48334	zip														
20210811950707435	zip	75496	75496	75496	zip														
20210811950707436	zip	78576	78576	78576	zip														
20210811950707437	zip	12919	12919	12919	zip														
20210811950707438	zip	15443	15443	15443	zip														
20210811950707439	zip	19406	19406	19406	zip														
20210811950707440	zip	2740	2740	2740	zip														
20210811950707441	zip	62626	62626	62626	zip														
20210811950707442	zip	78837	78837	78837	zip														
20210811950707443	zip	34205	34205	34205	zip														
20210811950707444	zip	67502	67502	67502	zip														
20210811950707445	zip	94547	94547	94547	zip														
20210811950707446	zip	37419	37419	37419	zip														
20210811950707447	zip	95112	95112	95112	zip														
20210811950707448	zip	75638	75638	75638	zip														
20210811950707449	zip	32696	32696	32696	zip														
20210811950707450	zip	89801	89801	89801	zip														
20210811950707451	zip	20745	20745	20745	zip														
20210811950707452	zip	60564	60564	60564	zip														
20210811950707453	zip	91331	91331	91331	zip														
20210811950707454	zip	81301	81301	81301	zip														
20210811950707455	zip	74112	74112	74112	zip														
20210811950707456	zip	5343	5343	5343	zip														
20210811950707457	zip	19127	19127	19127	zip														
20210811950707458	zip	75044	75044	75044	zip														
20210811950707459	zip	94903	94903	94903	zip														
20210811950707460	zip	39305	39305	39305	zip														
20210811950707461	zip	27106	27106	27106	zip														
20210811950707462	zip	11732	11732	11732	zip														
20210811950707463	zip	65338	65338	65338	zip														
20210811950707464	zip	60453	60453	60453	zip														
20210811950707465	zip	23435	23435	23435	zip														
20210811950707466	zip	41774	41774	41774	zip														
20210811950707467	zip	61060	61060	61060	zip														
20210811950707468	zip	99114	99114	99114	zip														
20210811950707469	zip	2885	2885	2885	zip														
20210811950707470	zip	14221	14221	14221	zip														
20210811950707471	zip	19151	19151	19151	zip														
20210811950707472	zip	28040	28040	28040	zip														
20210811950707473	zip	6513	6513	6513	zip														
20210811950707474	zip	45150	45150	45150	zip														
20210811950707475	zip	59711	59711	59711	zip														
20210811950707476	zip	98155	98155	98155	zip														
20210811950707477	zip	85730	85730	85730	zip														
20210811950707478	zip	84532	84532	84532	zip														
20210811950707479	zip	76518	76518	76518	zip														
20210811950707480	zip	48809	48809	48809	zip														
20210811950707481	zip	91367	91367	91367	zip														
20210811950707482	zip	79845	79845	79845	zip														
20210811950707483	zip	36874	36874	36874	zip														
20210811950707484	zip	71937	71937	71937	zip														
20210811950707485	zip	85040	85040	85040	zip														
20210811950707486	zip	55718	55718	55718	zip														
20210811950707487	zip	76063	76063	76063	zip														
20210811950707488	zip	60073	60073	60073	zip														
20210811950707489	zip	95452	95452	95452	zip														
20210811950707490	zip	37403	37403	37403	zip														
20210811950707491	zip	77386	77386	77386	zip														
20210811950707492	zip	79110	79110	79110	zip														
20210811950707493	zip	51458	51458	51458	zip														
20210811950707494	zip	42352	42352	42352	zip														
20210811950707495	zip	80916	80916	80916	zip														
20210811950707496	zip	57039	57039	57039	zip														
20210811950707497	zip	99403	99403	99403	zip														
20210811950707498	zip	44423	44423	44423	zip														
20210811950707499	zip	63146	63146	63146	zip														
20210811950707500	zip	62001	62001	62001	zip														
20210811950707501	zip	46126	46126	46126	zip														
20210811950707502	zip	72751	72751	72751	zip														
20210811950707503	zip	45693	45693	45693	zip														
20210811950707504	zip	77632	77632	77632	zip														
20210811950707505	zip	13642	13642	13642	zip														
20210811950707506	zip	63017	63017	63017	zip														
20210811950707507	zip	13219	13219	13219	zip														
20210811950707508	zip	61104	61104	61104	zip														
20210811950707509	zip	13206	13206	13206	zip														
20210811950707510	zip	41274	41274	41274	zip														
20210811950707511	zip	16617	16617	16617	zip														
20210811950707512	zip	56167	56167	56167	zip														
20210811950707513	zip	78403	78403	78403	zip														
20210811950707514	zip	34478	34478	34478	zip														
20210811950707515	zip	22043	22043	22043	zip														
20210811950707516	zip	49103	49103	49103	zip														
20210811950707517	zip	75760	75760	75760	zip														
20210811950707518	zip	16504	16504	16504	zip														
20210811950707519	zip	46936	46936	46936	zip														
20210811950707520	zip	85347	85347	85347	zip														
20210811950707521	zip	96022	96022	96022	zip														
20210811950707522	zip	83672	83672	83672	zip														
20210811950707523	zip	19968	19968	19968	zip														
20210811950707524	zip	30058	30058	30058	zip														
20210811950707525	zip	60470	60470	60470	zip														
20210811950707526	zip	21154	21154	21154	zip														
20210811950707527	zip	75802	75802	75802	zip														
20210811950707528	zip	75125	75125	75125	zip														
20210811950707529	zip	97636	97636	97636	zip														
20210811950707530	zip	71354	71354	71354	zip														
20210811950707531	zip	91106	91106	91106	zip														
20210811950707532	zip	89141	89141	89141	zip														
20210811950707533	zip	30044	30044	30044	zip														
20210811950707534	zip	38127	38127	38127	zip														
20210811950707535	zip	70563	70563	70563	zip														
20210811950707536	zip	23513	23513	23513	zip														
20210811950707537	zip	30817	30817	30817	zip														
20210811950707538	zip	37026	37026	37026	zip														
20210811950707539	zip	14469	14469	14469	zip														
20210811950707540	zip	22901	22901	22901	zip														
20210811950707541	zip	29455	29455	29455	zip														
20210811950707542	zip	15203	15203	15203	zip														
20210811950707543	zip	6518	6518	6518	zip														
20210811950707544	zip	40511	40511	40511	zip														
20210811950707545	zip	94941	94941	94941	zip														
20210811950707546	zip	76528	76528	76528	zip														
20210811950707547	zip	63028	63028	63028	zip														
20210811950707548	zip	70056	70056	70056	zip														
20210811950707549	zip	94572	94572	94572	zip														
20210811950707550	zip	84020	84020	84020	zip														
20210811950707551	zip	11772	11772	11772	zip														
20210811950707552	zip	78738	78738	78738	zip														
20210811950707553	zip	53209	53209	53209	zip														
20210811950707554	zip	20736	20736	20736	zip														
20210811950707555	zip	37918	37918	37918	zip														
20210811950707556	zip	20755	20755	20755	zip														
20210811950707557	zip	16866	16866	16866	zip														
20210811950707558	zip	44278	44278	44278	zip														
20210811950707559	zip	6335	6335	6335	zip														
20210811950707560	zip	28101	28101	28101	zip														
20210811950707561	zip	27845	27845	27845	zip														
20210811950707562	zip	11368	11368	11368	zip														
20210811950707563	zip	71639	71639	71639	zip														
20210811950707564	zip	52349	52349	52349	zip														
20210811950707565	zip	33141	33141	33141	zip														
20210811950707566	zip	47834	47834	47834	zip														
20210811950707567	zip	97630	97630	97630	zip														
20210811950707568	zip	32219	32219	32219	zip														
20210811950707569	zip	32966	32966	32966	zip														
20210811950707570	zip	2143	2143	2143	zip														
20210811950707571	zip	99115	99115	99115	zip														
20210811950707572	zip	80461	80461	80461	zip														
20210811950707573	zip	80305	80305	80305	zip														
20210811950707574	zip	50021	50021	50021	zip														
20210811950707575	zip	91320	91320	91320	zip														
20210811950707576	zip	46319	46319	46319	zip														
20210811950707577	zip	11105	11105	11105	zip														
20210811950707578	zip	65712	65712	65712	zip														
20210811950707579	zip	91773	91773	91773	zip														
20210811950707580	zip	36401	36401	36401	zip														
20210811950707581	zip	56081	56081	56081	zip														
20210811950707582	zip	75024	75024	75024	zip														
20210811950707583	zip	77957	77957	77957	zip														
20210811950707584	zip	78606	78606	78606	zip														
20210811950707585	zip	19344	19344	19344	zip														
20210811950707586	zip	95521	95521	95521	zip														
20210811950707587	zip	64130	64130	64130	zip														
20210811950707588	zip	14901	14901	14901	zip														
20210811950707589	zip	1940	1940	1940	zip														
20210811950707590	zip	85344	85344	85344	zip														
20210811950707591	zip	56441	56441	56441	zip														
20210811950707592	zip	30205	30205	30205	zip														
20210811950707593	zip	45879	45879	45879	zip														
20210811950707594	zip	80219	80219	80219	zip														
20210811950707595	zip	22405	22405	22405	zip														
20210811950707596	zip	48065	48065	48065	zip														
20210811950707597	zip	60630	60630	60630	zip														
20210811950707598	zip	91604	91604	91604	zip														
20210811950707599	zip	10044	10044	10044	zip														
20210811950707600	zip	37152	37152	37152	zip														
20210811950707601	zip	55060	55060	55060	zip														
20210811950707602	zip	18964	18964	18964	zip														
20210811950707603	zip	64105	64105	64105	zip														
20210811950707604	zip	78258	78258	78258	zip														
20210811950707605	zip	97051	97051	97051	zip														
20210811950707606	zip	35040	35040	35040	zip														
20210811950707607	zip	70739	70739	70739	zip														
20210811950707608	zip	35019	35019	35019	zip														
20210811950707609	zip	55025	55025	55025	zip														
20210811950707610	zip	92882	92882	92882	zip														
20210811950707611	zip	1520	1520	1520	zip														
20210811950707612	zip	90094	90094	90094	zip														
20210811950707613	zip	17319	17319	17319	zip														
20210811950707614	zip	48612	48612	48612	zip														
20210811950707615	zip	94541	94541	94541	zip														
20210811950707616	zip	28610	28610	28610	zip														
20210811950707617	zip	34688	34688	34688	zip														
20210811950707618	zip	30253	30253	30253	zip														
20210811950707619	zip	11741	11741	11741	zip														
20210811950707620	zip	35444	35444	35444	zip														
20210811950707621	zip	47348	47348	47348	zip														
20210811950707622	zip	44123	44123	44123	zip														
20210811950707623	zip	78014	78014	78014	zip														
20210811950707624	zip	85342	85342	85342	zip														
20210811950707625	zip	39828	39828	39828	zip														
20210811950707626	zip	7642	7642	7642	zip														
20210811950707627	zip	97635	97635	97635	zip														
20210811950707628	zip	33950	33950	33950	zip														
20210811950707629	zip	17842	17842	17842	zip														
20210811950707630	zip	14580	14580	14580	zip														
20210811950707631	zip	60191	60191	60191	zip														
20210811950707632	zip	30141	30141	30141	zip														
20210811950707633	zip	54901	54901	54901	zip														
20210811950707634	zip	56469	56469	56469	zip														
20210811950707635	zip	93240	93240	93240	zip														
20210811950707636	zip	11103	11103	11103	zip														
20210811950707637	zip	50622	50622	50622	zip														
20210811950707638	zip	60091	60091	60091	zip														
20210811950707639	zip	75081	75081	75081	zip														
20210811950707640	zip	93441	93441	93441	zip														
20210811950707641	zip	42724	42724	42724	zip														
20210811950707642	zip	7032	7032	7032	zip														
20210811950707643	zip	21053	21053	21053	zip														
20210811950707644	zip	36312	36312	36312	zip														
20210811950707645	zip	55302	55302	55302	zip														
20210811950707646	zip	33607	33607	33607	zip														
20210811950707647	zip	55807	55807	55807	zip														
20210811950707648	zip	60070	60070	60070	zip														
20210811950707649	zip	8088	8088	8088	zip														
20210811950707650	zip	19013	19013	19013	zip														
20210811950707651	zip	48111	48111	48111	zip														
20210811950707652	zip	33618	33618	33618	zip														
20210811950707653	zip	33875	33875	33875	zip														
20210811950707654	zip	58733	58733	58733	zip														
20210811950707655	zip	75203	75203	75203	zip														
20210811950707656	zip	33957	33957	33957	zip														
20210811950707657	zip	54729	54729	54729	zip														
20210811950707658	zip	38230	38230	38230	zip														
20210811950707659	zip	56003	56003	56003	zip														
20210811950707660	zip	11433	11433	11433	zip														
20210811950707661	zip	47951	47951	47951	zip														
20210811950707662	zip	49406	49406	49406	zip														
20210811950707663	zip	19141	19141	19141	zip														
20210811950707664	zip	52064	52064	52064	zip														
20210811950707665	zip	13118	13118	13118	zip														
20210811950707666	zip	11417	11417	11417	zip														
20210811950707667	zip	15312	15312	15312	zip														
20210811950707668	zip	54615	54615	54615	zip														
20210811950707669	zip	40108	40108	40108	zip														
20210811950707670	zip	11225	11225	11225	zip														
20210811950707671	zip	37664	37664	37664	zip														
20210811950707672	zip	91201	91201	91201	zip														
20210811950707673	zip	84095	84095	84095	zip														
20210811950707674	zip	40456	40456	40456	zip														
20210811950707675	zip	92026	92026	92026	zip														
20210811950707676	zip	60404	60404	60404	zip														
20210811950707677	zip	30457	30457	30457	zip														
20210811950707678	zip	22604	22604	22604	zip														
20210811950707679	zip	5077	5077	5077	zip														
20210811950707680	zip	62814	62814	62814	zip														
20210811950707681	zip	33498	33498	33498	zip														
20210811950707682	zip	28204	28204	28204	zip														
20210811950707683	zip	25958	25958	25958	zip														
20210811950707684	zip	16508	16508	16508	zip														
20210811950707685	zip	49686	49686	49686	zip														
20210811950707686	zip	64062	64062	64062	zip														
20210811950707687	zip	4579	4579	4579	zip														
20210811950707688	zip	44817	44817	44817	zip														
20210811950707689	zip	49519	49519	49519	zip														
20210811950707690	zip	62002	62002	62002	zip														
20210811950707691	zip	99140	99140	99140	zip														
20210811950707692	zip	56554	56554	56554	zip														
20210811950707693	zip	45245	45245	45245	zip														
20210811950707694	zip	26354	26354	26354	zip														
20210811950707695	zip	18062	18062	18062	zip														
20210811950707696	zip	45211	45211	45211	zip														
20210811950707697	zip	66411	66411	66411	zip														
20210811950707698	zip	19730	19730	19730	zip														
20210811950707699	zip	38011	38011	38011	zip														
20210811950707700	zip	7076	7076	7076	zip														
20210811950707701	zip	74735	74735	74735	zip														
20210811950707702	zip	48642	48642	48642	zip														
20210811950707703	zip	16870	16870	16870	zip														
20210811950707704	zip	78147	78147	78147	zip														
20210811950707705	zip	38769	38769	38769	zip														
20210811950707706	zip	23451	23451	23451	zip														
20210811950707707	zip	5821	5821	5821	zip														
20210811950707708	zip	78212	78212	78212	zip														
20210811950707709	zip	1949	1949	1949	zip														
20210811950707710	zip	57201	57201	57201	zip														
20210811950707711	zip	88020	88020	88020	zip														
20210811950707712	zip	32626	32626	32626	zip														
20210811950707713	zip	48393	48393	48393	zip														
20210811950707714	zip	41005	41005	41005	zip														
20210811950707715	zip	30170	30170	30170	zip														
20210811950707716	zip	19063	19063	19063	zip														
20210811950707717	zip	46311	46311	46311	zip														
20210811950707718	zip	35120	35120	35120	zip														
20210811950707719	zip	30040	30040	30040	zip														
20210811950707720	zip	48879	48879	48879	zip														
20210811950707721	zip	34472	34472	34472	zip														
20210811950707722	zip	75969	75969	75969	zip														
20210811950707723	zip	30442	30442	30442	zip														
20210811950707724	zip	92581	92581	92581	zip														
20210811950707725	zip	65682	65682	65682	zip														
20210811950707726	zip	36455	36455	36455	zip														
20210811950707727	zip	94539	94539	94539	zip														
20210811950707728	zip	17601	17601	17601	zip														
20210811950707729	zip	90048	90048	90048	zip														
20210811950707730	zip	4694	4694	4694	zip														
20210811950707731	zip	29003	29003	29003	zip														
20210811950707732	zip	93306	93306	93306	zip														
20210811950707733	zip	20111	20111	20111	zip														
20210811950707734	zip	11749	11749	11749	zip														
20210811950707735	zip	16641	16641	16641	zip														
20210811950707736	zip	44667	44667	44667	zip														
20210811950707737	zip	13407	13407	13407	zip														
20210811950707738	zip	64424	64424	64424	zip														
20210811950707739	zip	80537	80537	80537	zip														
20210811950707740	zip	92562	92562	92562	zip														
20210811950707741	zip	36618	36618	36618	zip														
20210811950707742	zip	47260	47260	47260	zip														
20210811950707743	zip	7054	7054	7054	zip														
20210811950707744	zip	64057	64057	64057	zip														
20210811950707745	zip	54448	54448	54448	zip														
20210811950707746	zip	6855	6855	6855	zip														
20210811950707747	zip	95120	95120	95120	zip														
20210811950707748	zip	38501	38501	38501	zip														
20210811950707749	zip	62226	62226	62226	zip														
20210811950707750	zip	33029	33029	33029	zip														
20210811950707751	zip	38305	38305	38305	zip														
20210811950707752	zip	26250	26250	26250	zip														
20210811950707753	zip	33511	33511	33511	zip														
20210811950707754	zip	76856	76856	76856	zip														
20210811950707755	zip	46825	46825	46825	zip														
20210811950707756	zip	33056	33056	33056	zip														
20210811950707757	zip	48416	48416	48416	zip														
20210811950707758	zip	11710	11710	11710	zip														
20210811950707759	zip	76118	76118	76118	zip														
20210811950707760	zip	46368	46368	46368	zip														
20210811950707761	zip	57577	57577	57577	zip														
20210811950707762	zip	15228	15228	15228	zip														
20210811950707763	zip	50322	50322	50322	zip														
20210811950707764	zip	55045	55045	55045	zip														
20210811950707765	zip	53565	53565	53565	zip														
20210811950707766	zip	60633	60633	60633	zip														
20210811950707767	zip	75757	75757	75757	zip														
20210811950707768	zip	30025	30025	30025	zip														
20210811950707769	zip	96797	96797	96797	zip														
20210811950707770	zip	97005	97005	97005	zip														
20210811950707771	zip	49221	49221	49221	zip														
20210811950707772	zip	63501	63501	63501	zip														
20210811950707773	zip	17020	17020	17020	zip														
20210811950707774	zip	67216	67216	67216	zip														
20210811950707775	zip	27577	27577	27577	zip														
20210811950707776	zip	15137	15137	15137	zip														
20210811950707777	zip	95355	95355	95355	zip														
20210811950707778	zip	68760	68760	68760	zip														
20210811950707779	zip	15147	15147	15147	zip														
20210811950707780	zip	79329	79329	79329	zip														
20210811950707781	zip	23405	23405	23405	zip														
20210811950707782	zip	64080	64080	64080	zip														
20210811950707783	zip	75063	75063	75063	zip														
20210811950707784	zip	33172	33172	33172	zip														
20210811950707785	zip	73115	73115	73115	zip														
20210811950707786	zip	16153	16153	16153	zip														
20210811950707787	zip	29801	29801	29801	zip														
20210811950707788	zip	8210	8210	8210	zip														
20210811950707789	zip	75844	75844	75844	zip														
20210811950707790	zip	46818	46818	46818	zip														
20210811950707791	zip	7626	7626	7626	zip														
20210811950707792	zip	60176	60176	60176	zip														
20210811950707793	zip	11777	11777	11777	zip														
20210811950707794	zip	89425	89425	89425	zip														
20210811950707795	zip	97002	97002	97002	zip														
20210811950707796	zip	33704	33704	33704	zip														
20210811950707797	zip	89429	89429	89429	zip														
20210811950707798	zip	90001	90001	90001	zip														
20210811950707799	zip	74878	74878	74878	zip														
20210811950707800	zip	57276	57276	57276	zip														
20210811950707801	zip	63109	63109	63109	zip														
20210811950707802	zip	2908	2908	2908	zip														
20210811950707803	zip	2026	2026	2026	zip														
20210811950707804	zip	86312	86312	86312	zip														
20210811950707805	zip	73127	73127	73127	zip														
20210811950707806	zip	49271	49271	49271	zip														
20210811950707807	zip	44641	44641	44641	zip														
20210811950707808	zip	92376	92376	92376	zip														
20210811950707809	zip	71108	71108	71108	zip														
20210811950707810	zip	11223	11223	11223	zip														
20210811950707811	zip	27253	27253	27253	zip														
20210811950707812	zip	19021	19021	19021	zip														
20210811950707813	zip	78114	78114	78114	zip														
20210811950707814	zip	68743	68743	68743	zip														
20210811950707815	zip	79357	79357	79357	zip														
20210811950707816	zip	40216	40216	40216	zip														
20210811950707817	zip	40347	40347	40347	zip														
20210811950707818	zip	70363	70363	70363	zip														
20210811950707819	zip	60451	60451	60451	zip														
20210811950707820	zip	71049	71049	71049	zip														
20210811950707821	zip	94603	94603	94603	zip														
20210811950707822	zip	40258	40258	40258	zip														
20210811950707823	zip	11766	11766	11766	zip														
20210811950707824	zip	98245	98245	98245	zip														
20210811950707825	zip	32824	32824	32824	zip														
20210811950707826	zip	52567	52567	52567	zip														
20210811950707827	zip	8830	8830	8830	zip														
20210811950707828	zip	58540	58540	58540	zip														
20210811950707829	zip	38117	38117	38117	zip														
20210811950707830	zip	17970	17970	17970	zip														
20210811950707831	zip	63445	63445	63445	zip														
20210811950707832	zip	83464	83464	83464	zip														
20210811950707833	zip	75077	75077	75077	zip														
20210811950707834	zip	52159	52159	52159	zip														
20210811950707835	zip	61550	61550	61550	zip														
20210811950707836	zip	28145	28145	28145	zip														
20210811950707837	zip	93711	93711	93711	zip														
20210811950707838	zip	33183	33183	33183	zip														
20210811950707839	zip	66512	66512	66512	zip														
20210811950707840	zip	30008	30008	30008	zip														
20210811950707841	zip	60154	60154	60154	zip														
20210811950707842	zip	60491	60491	60491	zip														
20210811950707843	zip	40504	40504	40504	zip														
20210811950707844	zip	13669	13669	13669	zip														
20210811950707845	zip	34996	34996	34996	zip														
20210811950707846	zip	60707	60707	60707	zip														
20210811950707847	zip	28704	28704	28704	zip														
20210811950707848	zip	26330	26330	26330	zip														
20210811950707849	zip	7502	7502	7502	zip														
20210811950707850	zip	55117	55117	55117	zip														
20210811950707851	zip	11545	11545	11545	zip														
20210811950707852	zip	87002	87002	87002	zip														
20210811950707853	zip	39440	39440	39440	zip														
20210811950707854	zip	78628	78628	78628	zip														
20210811950707855	zip	53115	53115	53115	zip														
20210811950707856	zip	19601	19601	19601	zip														
20210811950707857	zip	66043	66043	66043	zip														
20210811950707858	zip	33308	33308	33308	zip														
20210811950707859	zip	33765	33765	33765	zip														
20210811950707860	zip	78220	78220	78220	zip														
20210811950707861	zip	18439	18439	18439	zip														
20210811950707862	zip	11550	11550	11550	zip														
20210811950707863	zip	29020	29020	29020	zip														
20210811950707864	zip	36610	36610	36610	zip														
20210811950707865	zip	74851	74851	74851	zip														
20210811950707866	zip	85131	85131	85131	zip														
20210811950707867	zip	60501	60501	60501	zip														
20210811950707868	zip	32707	32707	32707	zip														
20210811950707869	zip	60160	60160	60160	zip														
20210811950707870	zip	8107	8107	8107	zip														
20210811950707871	zip	32809	32809	32809	zip														
20210811950707872	zip	72562	72562	72562	zip														
20210811950707873	zip	32177	32177	32177	zip														
20210811950707874	zip	89424	89424	89424	zip														
20210811950707875	zip	31022	31022	31022	zip														
20210811950707876	zip	19067	19067	19067	zip														
20210811950707877	zip	33907	33907	33907	zip														
20210811950707878	zip	43236	43236	43236	zip														
20210811950707879	zip	91731	91731	91731	zip														
20210811950707880	zip	17603	17603	17603	zip														
20210811950707881	zip	45679	45679	45679	zip														
20210811950707882	zip	31093	31093	31093	zip														
20210811950707883	zip	32433	32433	32433	zip														
20210811950707884	zip	95136	95136	95136	zip														
20210811950707885	zip	78757	78757	78757	zip														
20210811950707886	zip	61109	61109	61109	zip														
20210811950707887	zip	20747	20747	20747	zip														
20210811950707888	zip	40215	40215	40215	zip														
20210811950707889	zip	70047	70047	70047	zip														
20210811950707890	zip	78336	78336	78336	zip														
20210811950707891	zip	48442	48442	48442	zip														
20210811950707892	zip	37203	37203	37203	zip														
20210811950707893	zip	77040	77040	77040	zip														
20210811950707894	zip	90255	90255	90255	zip														
20210811950707895	zip	63133	63133	63133	zip														
20210811950707896	zip	35117	35117	35117	zip														
20210811950707897	zip	8203	8203	8203	zip														
20210811950707898	zip	97227	97227	97227	zip														
20210811950707899	zip	44201	44201	44201	zip														
20210811950707900	zip	10950	10950	10950	zip														
20210811950707901	zip	7040	7040	7040	zip														
20210811950707902	zip	44661	44661	44661	zip														
20210811950707903	zip	17764	17764	17764	zip														
20210811950707904	zip	20906	20906	20906	zip														
20210811950707905	zip	2721	2721	2721	zip														
20210811950707906	zip	29511	29511	29511	zip														
20210811950707907	zip	33326	33326	33326	zip														
20210811950707908	zip	51601	51601	51601	zip														
20210811950707909	zip	6333	6333	6333	zip														
20210811950707910	zip	3054	3054	3054	zip														
20210811950707911	zip	78043	78043	78043	zip														
20210811950707912	zip	33461	33461	33461	zip														
20210811950707913	zip	45417	45417	45417	zip														
20210811950707914	zip	55454	55454	55454	zip														
20210811950707915	zip	56431	56431	56431	zip														
20210811950707916	zip	24983	24983	24983	zip														
20210811950707917	zip	60007	60007	60007	zip														
20210811950707918	zip	3242	3242	3242	zip														
20210811950707919	zip	33612	33612	33612	zip														
20210811950707920	zip	95503	95503	95503	zip														
20210811950707921	zip	98403	98403	98403	zip														
20210811950707922	zip	7079	7079	7079	zip														
20210811950707923	zip	30904	30904	30904	zip														
20210811950707924	zip	61054	61054	61054	zip														
20210811950707925	zip	49274	49274	49274	zip														
20210811950707926	zip	89460	89460	89460	zip														
20210811950707927	zip	8070	8070	8070	zip														
20210811950707928	zip	28613	28613	28613	zip														
20210811950707929	zip	77550	77550	77550	zip														
20210811950707930	zip	43316	43316	43316	zip														
20210811950707931	zip	84740	84740	84740	zip														
20210811950707932	zip	78802	78802	78802	zip														
20210811950707933	zip	27023	27023	27023	zip														
20210811950707934	zip	48912	48912	48912	zip														
20210811950707935	zip	49946	49946	49946	zip														
20210811950707936	zip	67356	67356	67356	zip														
20210811950707937	zip	49099	49099	49099	zip														
20210811950707938	zip	69130	69130	69130	zip														
20210811950707939	zip	46123	46123	46123	zip														
20210811950707940	zip	6082	6082	6082	zip														
20210811950707941	zip	15332	15332	15332	zip														
20210811950707942	zip	2056	2056	2056	zip														
20210811950707943	zip	15317	15317	15317	zip														
20210811950707944	zip	53188	53188	53188	zip														
20210811950707945	zip	46614	46614	46614	zip														
20210811950707946	zip	38580	38580	38580	zip														
20210811950707947	zip	35904	35904	35904	zip														
20210811950707948	zip	56359	56359	56359	zip														
20210811950707949	zip	8341	8341	8341	zip														
20210811950707950	zip	47421	47421	47421	zip														
20210811950707951	zip	27401	27401	27401	zip														
20210811950707952	zip	53703	53703	53703	zip														
20210811950707953	zip	60419	60419	60419	zip														
20210811950707954	zip	77358	77358	77358	zip														
20210811950707955	zip	86432	86432	86432	zip														
20210811950707956	zip	12953	12953	12953	zip														
20210811950707957	zip	64118	64118	64118	zip														
20210811950707958	zip	84075	84075	84075	zip														
20210811950707959	zip	54854	54854	54854	zip														
20210811950707960	zip	40118	40118	40118	zip														
20210811950707961	zip	33647	33647	33647	zip														
20210811950707962	zip	8610	8610	8610	zip														
20210811950707963	zip	27265	27265	27265	zip														
20210811950707964	zip	14072	14072	14072	zip														
20210811950707965	zip	21216	21216	21216	zip														
20210811950707966	zip	28513	28513	28513	zip														
20210811950707967	zip	34608	34608	34608	zip														
20210811950707968	zip	61820	61820	61820	zip														
20210811950707969	zip	36276	36276	36276	zip														
20210811950707970	zip	39180	39180	39180	zip														
20210811950707971	zip	35442	35442	35442	zip														
20210811950707972	zip	62674	62674	62674	zip														
20210811950707973	zip	33579	33579	33579	zip														
20210811950707974	zip	53033	53033	53033	zip														
20210811950707975	zip	76177	76177	76177	zip														
20210811950707976	zip	43221	43221	43221	zip														
20210811950707977	zip	70558	70558	70558	zip														
20210811950707978	zip	14171	14171	14171	zip														
20210811950707979	zip	95694	95694	95694	zip														
20210811950707980	zip	36360	36360	36360	zip														
20210811950707981	zip	80904	80904	80904	zip														
20210811950707982	zip	13808	13808	13808	zip														
20210811950707983	zip	74421	74421	74421	zip														
20210811950707984	zip	70821	70821	70821	zip														
20210811950707985	zip	94129	94129	94129	zip														
20210811950707986	zip	40229	40229	40229	zip														
20210811950707987	zip	73110	73110	73110	zip														
20210811950707988	zip	96731	96731	96731	zip														
20210811950707989	zip	44827	44827	44827	zip														
20210811950707990	zip	34951	34951	34951	zip														
20210811950707991	zip	33936	33936	33936	zip														
20210811950707992	zip	85353	85353	85353	zip														
20210811950707993	zip	71763	71763	71763	zip														
20210811950707994	zip	71351	71351	71351	zip														
20210811950707995	zip	27051	27051	27051	zip														
20210811950707996	zip	29940	29940	29940	zip														
20210811950707997	zip	2815	2815	2815	zip														
20210811950707998	zip	91364	91364	91364	zip														
20210811950707999	zip	66853	66853	66853	zip														
20210811950708000	zip	38672	38672	38672	zip														
20210811950708001	zip	11355	11355	11355	zip														
20210811950708002	zip	8723	8723	8723	zip														
20210811950708003	zip	78411	78411	78411	zip														
20210811950708004	zip	34207	34207	34207	zip														
20210811950708005	zip	7871	7871	7871	zip														
20210811950708006	zip	61876	61876	61876	zip														
20210811950708007	zip	31716	31716	31716	zip														
20210811950708008	zip	72472	72472	72472	zip														
20210811950708009	zip	13326	13326	13326	zip														
20210811950708010	zip	16061	16061	16061	zip														
20210811950708011	zip	60401	60401	60401	zip														
20210811950708012	zip	23602	23602	23602	zip														
20210811950708013	zip	14606	14606	14606	zip														
20210811950708014	zip	49022	49022	49022	zip														
20210811950708015	zip	53129	53129	53129	zip														
20210811950708016	zip	74848	74848	74848	zip														
20210811950708017	zip	2052	2052	2052	zip														
20210811950708018	zip	80446	80446	80446	zip														
20210811950708019	zip	32112	32112	32112	zip														
20210811950708020	zip	79382	79382	79382	zip														
20210811950708021	zip	28120	28120	28120	zip														
20210811950708022	zip	10461	10461	10461	zip														
20210811950708023	zip	88240	88240	88240	zip														
20210811950708024	zip	6089	6089	6089	zip														
20210811950708025	zip	91403	91403	91403	zip														
20210811950708026	zip	29544	29544	29544	zip														
20210811950708027	zip	75554	75554	75554	zip														
20210811950708028	zip	78257	78257	78257	zip														
20210811950708029	zip	19444	19444	19444	zip														
20210811950708030	zip	70665	70665	70665	zip														
20210811950708031	zip	28088	28088	28088	zip														
20210811950708032	zip	54667	54667	54667	zip														
20210811950708033	zip	78242	78242	78242	zip														
20210811950708034	zip	85622	85622	85622	zip														
20210811950708035	zip	25314	25314	25314	zip														
20210811950708036	zip	2920	2920	2920	zip														
20210811950708037	zip	33948	33948	33948	zip														
20210811950708038	zip	72521	72521	72521	zip														
20210811950708039	zip	34785	34785	34785	zip														
20210811950708040	zip	93514	93514	93514	zip														
20210811950708041	zip	4430	4430	4430	zip														
20210811950708042	zip	48507	48507	48507	zip														
20210811950708043	zip	85086	85086	85086	zip														
20210811950708044	zip	14212	14212	14212	zip														
20210811950708045	zip	3264	3264	3264	zip														
20210811950708046	zip	90007	90007	90007	zip														
20210811950708047	zip	89423	89423	89423	zip														
20210811950708048	zip	94591	94591	94591	zip														
20210811950708049	zip	46322	46322	46322	zip														
20210811950708050	zip	71232	71232	71232	zip														
20210811950708051	zip	1230	1230	1230	zip														
20210811950708052	zip	15824	15824	15824	zip														
20210811950708053	zip	44140	44140	44140	zip														
20210811950708054	zip	41017	41017	41017	zip														
20210811950708055	zip	70726	70726	70726	zip														
20210811950708056	zip	94560	94560	94560	zip														
20210811950708057	zip	95472	95472	95472	zip														
20210811950708058	zip	21620	21620	21620	zip														
20210811950708059	zip	77022	77022	77022	zip														
20210811950708060	zip	20901	20901	20901	zip														
20210811950708061	zip	28461	28461	28461	zip														
20210811950708062	zip	4294	4294	4294	zip														
20210811950708063	zip	78633	78633	78633	zip														
20210811950708064	zip	57078	57078	57078	zip														
20210811950708065	zip	34974	34974	34974	zip														
20210811950708066	zip	30097	30097	30097	zip														
20210811950708067	zip	77373	77373	77373	zip														
20210811950708068	zip	19150	19150	19150	zip														
20210811950708069	zip	95043	95043	95043	zip														
20210811950708070	zip	33319	33319	33319	zip														
20210811950708071	zip	30281	30281	30281	zip														
20210811950708072	zip	45807	45807	45807	zip														
20210811950708073	zip	90062	90062	90062	zip														
20210811950708074	zip	45889	45889	45889	zip														
20210811950708075	zip	60042	60042	60042	zip														
20210811950708076	zip	35763	35763	35763	zip														
20210811950708077	zip	27356	27356	27356	zip														
20210811950708078	zip	38343	38343	38343	zip														
20210811950708079	zip	55379	55379	55379	zip														
20210811950708080	zip	48075	48075	48075	zip														
20210811950708081	zip	14471	14471	14471	zip														
20210811950708082	zip	36275	36275	36275	zip														
20210811950708083	zip	85297	85297	85297	zip														
20210811950708084	zip	16830	16830	16830	zip														
20210811950708085	zip	2021	2021	2021	zip														
20210811950708086	zip	48888	48888	48888	zip														
20210811950708087	zip	49084	49084	49084	zip														
20210811950708088	zip	10457	10457	10457	zip														
20210811950708089	zip	46256	46256	46256	zip														
20210811950708090	zip	55330	55330	55330	zip														
20210811950708091	zip	48023	48023	48023	zip														
20210811950708092	zip	27048	27048	27048	zip														
20210811950708093	zip	23970	23970	23970	zip														
20210811950708094	zip	8505	8505	8505	zip														
20210811950708095	zip	30030	30030	30030	zip														
20210811950708096	zip	23301	23301	23301	zip														
20210811950708097	zip	25504	25504	25504	zip														
20210811950708098	zip	49228	49228	49228	zip														
20210811950708099	zip	33478	33478	33478	zip														
20210811950708100	zip	47648	47648	47648	zip														
20210811950708101	zip	29210	29210	29210	zip														
20210811950708102	zip	76252	76252	76252	zip														
20210811950708103	zip	28390	28390	28390	zip														
20210811950708104	zip	33133	33133	33133	zip														
20210811950708105	zip	98201	98201	98201	zip														
20210811950708106	zip	70123	70123	70123	zip														
20210811950708107	zip	47987	47987	47987	zip														
20210811950708108	zip	48419	48419	48419	zip														
20210811950708109	zip	48362	48362	48362	zip														
20210811950708110	zip	28697	28697	28697	zip														
20210811950708111	zip	29728	29728	29728	zip														
20210811950708112	zip	12170	12170	12170	zip														
20210811950708113	zip	35235	35235	35235	zip														
20210811950708114	zip	1801	1801	1801	zip														
20210811950708115	zip	28671	28671	28671	zip														
20210811950708116	zip	17074	17074	17074	zip														
20210811950708117	zip	15627	15627	15627	zip														
20210811950708118	zip	58801	58801	58801	zip														
20210811950708119	zip	11762	11762	11762	zip														
20210811950708120	zip	72943	72943	72943	zip														
20210811950708121	zip	4096	4096	4096	zip														
20210811950708122	zip	29369	29369	29369	zip														
20210811950708123	zip	21776	21776	21776	zip														
20210811950708124	zip	37922	37922	37922	zip														
20210811950708125	zip	98042	98042	98042	zip														
20210811950708126	zip	27932	27932	27932	zip														
20210811950708127	zip	23120	23120	23120	zip														
20210811950708128	zip	15084	15084	15084	zip														
20210811950708129	zip	48066	48066	48066	zip														
20210811950708130	zip	23605	23605	23605	zip														
20210811950708131	zip	91950	91950	91950	zip														
20210811950708132	zip	71740	71740	71740	zip														
20210811950708133	zip	44319	44319	44319	zip														
20210811950708134	zip	62084	62084	62084	zip														
20210811950708135	zip	77479	77479	77479	zip														
20210811950708136	zip	59725	59725	59725	zip														
20210811950708137	zip	80903	80903	80903	zip														
20210811950708138	zip	6076	6076	6076	zip														
20210811950708139	zip	33707	33707	33707	zip														
20210811950708140	zip	62454	62454	62454	zip														
20210811950708141	zip	71303	71303	71303	zip														
20210811950708142	zip	63670	63670	63670	zip														
20210811950708143	zip	13502	13502	13502	zip														
20210811950708144	zip	37150	37150	37150	zip														
20210811950708145	zip	25045	25045	25045	zip														
20210811950708146	zip	39169	39169	39169	zip														
20210811950708147	zip	37128	37128	37128	zip														
20210811950708148	zip	52302	52302	52302	zip														
20210811950708149	zip	85041	85041	85041	zip														
20210811950708150	zip	29306	29306	29306	zip														
20210811950708151	zip	86314	86314	86314	zip														
20210811950708152	zip	3079	3079	3079	zip														
20210811950708153	zip	7844	7844	7844	zip														
20210811950708154	zip	7439	7439	7439	zip														
20210811950708155	zip	24256	24256	24256	zip														
20210811950708156	zip	47341	47341	47341	zip														
20210811950708157	zip	97055	97055	97055	zip														
20210811950708158	zip	61107	61107	61107	zip														
20210811950708159	zip	33437	33437	33437	zip														
20210811950708160	zip	10466	10466	10466	zip														
20210811950708161	zip	27317	27317	27317	zip														
20210811950708162	zip	72126	72126	72126	zip														
20210811950708163	zip	8034	8034	8034	zip														
20210811950708164	zip	56358	56358	56358	zip														
20210811950708165	zip	43952	43952	43952	zip														
20210811950708166	zip	18018	18018	18018	zip														
20210811950708167	zip	24312	24312	24312	zip														
20210811950708168	zip	77020	77020	77020	zip														
20210811950708169	zip	44021	44021	44021	zip														
20210811950708170	zip	10039	10039	10039	zip														
20210811950708171	zip	37350	37350	37350	zip														
20210811950708172	zip	85231	85231	85231	zip														
20210811950708173	zip	54656	54656	54656	zip														
20210811950708174	zip	29302	29302	29302	zip														
20210811950708175	zip	7446	7446	7446	zip														
20210811950708176	zip	39476	39476	39476	zip														
20210811950708177	zip	30501	30501	30501	zip														
20210811950708178	zip	59230	59230	59230	zip														
20210811950708179	zip	47334	47334	47334	zip														
20210811950708180	zip	64093	64093	64093	zip														
20210811950708181	zip	30805	30805	30805	zip														
20210811950708182	zip	40311	40311	40311	zip														
20210811950708183	zip	3062	3062	3062	zip														
20210811950708184	zip	30152	30152	30152	zip														
20210811950708185	zip	2019	2019	2019	zip														
20210811950708186	zip	77656	77656	77656	zip														
20210811950708187	zip	7652	7652	7652	zip														
20210811950708188	zip	14706	14706	14706	zip														
20210811950708189	zip	99021	99021	99021	zip														
20210811950708190	zip	43947	43947	43947	zip														
20210811950708191	zip	91706	91706	91706	zip														
20210811950708192	zip	26147	26147	26147	zip														
20210811950708193	zip	49010	49010	49010	zip														
20210811950708194	zip	6820	6820	6820	zip														
20210811950708195	zip	86043	86043	86043	zip														
20210811950708196	zip	6810	6810	6810	zip														
20210811950708197	zip	72701	72701	72701	zip														
20210811950708198	zip	52033	52033	52033	zip														
20210811950708199	zip	15530	15530	15530	zip														
20210811950708200	zip	22701	22701	22701	zip														
20210811950708201	zip	70737	70737	70737	zip														
20210811950708202	zip	33440	33440	33440	zip														
20210811950708203	zip	36869	36869	36869	zip														
20210811950708204	zip	39645	39645	39645	zip														
20210811950708205	zip	76119	76119	76119	zip														
20210811950708206	zip	96789	96789	96789	zip														
20210811950708207	zip	61759	61759	61759	zip														
20210811950708208	zip	1906	1906	1906	zip														
20210811950708209	zip	91763	91763	91763	zip														
20210811950708210	zip	90270	90270	90270	zip														
20210811950708211	zip	58356	58356	58356	zip														
20210811950708212	zip	7751	7751	7751	zip														
20210811950708213	zip	32141	32141	32141	zip														
20210811950708214	zip	63740	63740	63740	zip														
20210811950708215	zip	32169	32169	32169	zip														
20210811950708216	zip	64802	64802	64802	zip														
20210811950708217	zip	92502	92502	92502	zip														
20210811950708218	zip	60616	60616	60616	zip														
20210811950708219	zip	14467	14467	14467	zip														
20210811950708220	zip	19958	19958	19958	zip														
20210811950708221	zip	33146	33146	33146	zip														
20210811950708222	zip	6877	6877	6877	zip														
20210811950708223	zip	95111	95111	95111	zip														
20210811950708224	zip	92704	92704	92704	zip														
20210811950708225	zip	6902	6902	6902	zip														
20210811950708226	zip	24874	24874	24874	zip														
20210811950708227	zip	38119	38119	38119	zip														
20210811950708228	zip	39069	39069	39069	zip														
20210811950708229	zip	15646	15646	15646	zip														
20210811950708230	zip	66436	66436	66436	zip														
20210811950708231	zip	45159	45159	45159	zip														
20210811950708232	zip	11716	11716	11716	zip														
20210811950708233	zip	27894	27894	27894	zip														
20210811950708234	zip	68022	68022	68022	zip														
