ID	CLASS	CODE	NAME	DESC	LEVEL	SYN1	SYN2	SYN3	SYN4	SYN5	SYN6	SYN7	SYN8	SYN9	SYN10	SYN11	SYN12	SYN13	SYN14
20210813364933225	Access Category	Covered Unrestricted	Covered Unrestricted	Covered Unrestricted	Access Category														
20210813364933226	Access Category	Unknown	Unknown	Unknown	Access Category														
20210813364933227	Access Category	Not Covered	Not Covered	Not Covered	Access Category														
20210813364933228	Access Category	Covered Restricted	Covered Restricted	Covered Restricted	Access Category														
