ID	CLASS	CODE	NAME	DESC	PARENT	LEVEL	SYN1	SYN2	SYN3	SYN4	SYN5	SYN6	SYN7	SYN8	SYN9	SYN10	SYN11	SYN12	SYN13	SYN14
20210813974936225						child														
20210813974936226						parent														
20210813974936227						child														
20210813974936228						parent														
20210813974936229	Attribute	Non Restricted	Non Restricted	Non Restricted	Customer Name	PDRP Flag														
20210813974936230	Attribute	Restricted	Restricted	Restricted	Customer Name	PDRP Flag														
20210813974936231	Attribute	Nurse Practitioner	Nurse Practitioner	Nurse Practitioner	Customer Name	Primary Specialty Name														
20210813974936232	Attribute	Family Medicine	Family Medicine	Family Medicine	Customer Name	Primary Specialty Name														
20210813974936233	Attribute	Internal Medicine	Internal Medicine	Internal Medicine	Customer Name	Primary Specialty Name														
20210813974936234	Attribute	Cardiovascular Diseases	Cardiovascular Diseases	Cardiovascular Diseases	Customer Name	Primary Specialty Name														
20210813974936235	Attribute	Rheumatology	Rheumatology	Rheumatology	Customer Name	Primary Specialty Name														
20210813974936236	Attribute	Family Practice - Sports Medicine	Family Practice - Sports Medicine	Family Practice - Sports Medicine	Customer Name	Primary Specialty Name														
20210813974936237	Attribute	Physician Assistant	Physician Assistant	Physician Assistant	Customer Name	Primary Specialty Name														
20210813974936238	Attribute	Interventional Cardiology	Interventional Cardiology	Interventional Cardiology	Customer Name	Primary Specialty Name														
20210813974936239	Attribute	Hematology/Oncology	Hematology/Oncology	Hematology/Oncology	Customer Name	Primary Specialty Name														
20210813974936240	Attribute	Vascular Surgery	Vascular Surgery	Vascular Surgery	Customer Name	Primary Specialty Name														
20210813974936241	Attribute	Internal Medicine - Pediatrics	Internal Medicine - Pediatrics	Internal Medicine - Pediatrics	Customer Name	Primary Specialty Name														
20210813974936242	Attribute	Public Health And General Preventive Med	Public Health And General Preventive Med	Public Health And General Preventive Med	Customer Name	Primary Specialty Name														
20210813974936243	Attribute	Nephrology	Nephrology	Nephrology	Customer Name	Primary Specialty Name														
20210813974936244	Attribute	Cardiac Electrophysiology	Cardiac Electrophysiology	Cardiac Electrophysiology	Customer Name	Primary Specialty Name														
20210813974936245	Attribute	General Surgery	General Surgery	General Surgery	Customer Name	Primary Specialty Name														
20210813974936246	Attribute	Family Practice - Geriatric Medicine	Family Practice - Geriatric Medicine	Family Practice - Geriatric Medicine	Customer Name	Primary Specialty Name														
20210813974936247	Attribute	Pulmonary Disease	Pulmonary Disease	Pulmonary Disease	Customer Name	Primary Specialty Name														
20210813974936248	Attribute	Clinical Nurse Specialist	Clinical Nurse Specialist	Clinical Nurse Specialist	Customer Name	Primary Specialty Name														
20210813974936249	Attribute	Oncology	Oncology	Oncology	Customer Name	Primary Specialty Name														
20210813974936250	Attribute	Vascular And Interven Radiology	Vascular And Interven Radiology	Vascular And Interven Radiology	Customer Name	Primary Specialty Name														
20210813974936251	Attribute	Internal Medicine - Geriatric Medicine	Internal Medicine - Geriatric Medicine	Internal Medicine - Geriatric Medicine	Customer Name	Primary Specialty Name														
20210813974936252	Attribute	General Practice	General Practice	General Practice	Customer Name	Primary Specialty Name														
20210813974936253	Attribute	Endocrinology	Endocrinology	Endocrinology	Customer Name	Primary Specialty Name														
20210813974936254	Attribute	Thoracic Surgery	Thoracic Surgery	Thoracic Surgery	Customer Name	Primary Specialty Name														
20210813974936255	Attribute	Emergency Medicine	Emergency Medicine	Emergency Medicine	Customer Name	Primary Specialty Name														
20210813974936256	Attribute	Neurology	Neurology	Neurology	Customer Name	Primary Specialty Name														
20210813974936257	Attribute	Pharmacist	Pharmacist	Pharmacist	Customer Name	Primary Specialty Name														
20210813974936258	Attribute	Internal Medicine - Family Practice	Internal Medicine - Family Practice	Internal Medicine - Family Practice	Customer Name	Primary Specialty Name														
20210813974936259	Attribute	Vascular Medicine	Vascular Medicine	Vascular Medicine	Customer Name	Primary Specialty Name														
20210813974936260	Attribute	Pulmonary Critical Care	Pulmonary Critical Care	Pulmonary Critical Care	Customer Name	Primary Specialty Name														
20210813974936261	Attribute	Diagnostic Radiology	Diagnostic Radiology	Diagnostic Radiology	Customer Name	Primary Specialty Name														
20210813974936262	Attribute	Hematology - Im	Hematology - Im	Hematology - Im	Customer Name	Primary Specialty Name														
20210813974936263	Attribute	Neuroradiology	Neuroradiology	Neuroradiology	Customer Name	Primary Specialty Name														
20210813974936264	Attribute	Target	Target	Target	Customer Name	Target Status														
20210813974936265	Attribute	Non-Target	Non-Target	Non-Target	Customer Name	Target Status														
