ID	CLASS	CODE	NAME	DESC	LEVEL	SYN1	SYN2	SYN3	SYN4	SYN5	SYN6	SYN7	SYN8	SYN9	SYN10	SYN11	SYN12	SYN13	SYN14
20210813584934225	Engage Willingness	Non-Target	Non-Target	Non-Target	Engage Willingness														
20210813584934226	Engage Willingness	No Response	No Response	No Response	Engage Willingness														
20210813584934227	Engage Willingness	Wiling	Wiling	Wiling	Engage Willingness														
20210813584934228	Engage Willingness	Not Surveyed	Not Surveyed	Not Surveyed	Engage Willingness														
20210813584934229	Engage Willingness	Not Willing	Not Willing	Not Willing	Engage Willingness														
