ID	CLASS	CODE	NAME	DESC	LEVEL	SYN1	SYN2	SYN3	SYN4	SYN5	SYN6	SYN7	SYN8	SYN9	SYN10	SYN11	SYN12	SYN13	SYN14
20210813604934225	Franchise	Medical HFA	Medical HFA	Medical HFA	Franchise														
20210813604934226	Franchise	Medical Institution	Medical Institution	Medical Institution	Franchise														
20210813604934227	Franchise	Medical Puerto Rico	Medical Puerto Rico	Medical Puerto Rico	Franchise														
20210813604934228	Franchise	Medical CVI	Medical CVI	Medical CVI	Franchise														
20210813604934229	Franchise	Medical PCP	Medical PCP	Medical PCP	Franchise														
20210813604934230	Franchise	Medical PCP CSO	Medical PCP CSO	Medical PCP CSO	Franchise														
20210813604934231	Franchise	Medical Institution AF	Medical Institution AF	Medical Institution AF	Franchise														
20210813604934232	Franchise	Medical Vascular Team	Medical Vascular Team	Medical Vascular Team	Franchise														
20210813604934233	Franchise	APCA	APCA	APCA	Franchise														
