ID	CLASS	CODE	NAME	DESC	LEVEL	SYN1	SYN2	SYN3	SYN4	SYN5	SYN6	SYN7	SYN8	SYN9	SYN10	SYN11	SYN12	SYN13	SYN14
20210813624934225	IDN name	Kettering Health Network	Kettering Health Network	Kettering Health Network	IDN name														
20210813624934226	IDN name	South Central Regional Medical Center (System)	South Central Regional Medical Center (System)	South Central Regional Medical Center (System)	IDN name														
20210813624934227	IDN name	Keck Medicine of USC (USC Health)	Keck Medicine of USC (USC Health)	Keck Medicine of USC (USC Health)	IDN name														
20210813624934228	IDN name	Champlain Valley Physicians Hospital	Champlain Valley Physicians Hospital	Champlain Valley Physicians Hospital	IDN name														
20210813624934229	IDN name	Griffin Health Services Corp	Griffin Health Services Corp	Griffin Health Services Corp	IDN name														
20210813624934230	IDN name	St Johns Riverside Health System	St Johns Riverside Health System	St Johns Riverside Health System	IDN name														
20210813624934231	IDN name	Loma Linda University Health	Loma Linda University Health	Loma Linda University Health	IDN name														
20210813624934232	IDN name	Bon Secours Health System	Bon Secours Health System	Bon Secours Health System	IDN name														
20210813624934233	IDN name	Greater Baltimore Medical Center	Greater Baltimore Medical Center	Greater Baltimore Medical Center	IDN name														
20210813624934234	IDN name	Firelands Regional Medical Center	Firelands Regional Medical Center	Firelands Regional Medical Center	IDN name														
20210813624934235	IDN name	Peninsula Regional Medical Center	Peninsula Regional Medical Center	Peninsula Regional Medical Center	IDN name														
20210813624934236	IDN name	Wellforce	Wellforce	Wellforce	IDN name														
20210813624934237	IDN name	Blount Memorial Hospital (System)	Blount Memorial Hospital (System)	Blount Memorial Hospital (System)	IDN name														
20210813624934238	IDN name	UVA Health System (University Of Virginia Health System)	UVA Health System (University Of Virginia Health System)	UVA Health System (University Of Virginia Health System)	IDN name														
20210813624934239	IDN name	Commonwealth Health Corporation	Commonwealth Health Corporation	Commonwealth Health Corporation	IDN name														
20210813624934240	IDN name	Lafayette General Medical Center System	Lafayette General Medical Center System	Lafayette General Medical Center System	IDN name														
20210813624934241	IDN name	East Alabama Medical Center	East Alabama Medical Center	East Alabama Medical Center	IDN name														
20210813624934242	IDN name	Suny Upstate Medical University	Suny Upstate Medical University	Suny Upstate Medical University	IDN name														
20210813624934243	IDN name	Great River Health Systems	Great River Health Systems	Great River Health Systems	IDN name														
20210813624934244	IDN name	Union General Hospital	Union General Hospital	Union General Hospital	IDN name														
20210813624934245	IDN name	Rush Health Systems	Rush Health Systems	Rush Health Systems	IDN name														
20210813624934246	IDN name	Kaweah Delta Health Care District	Kaweah Delta Health Care District	Kaweah Delta Health Care District	IDN name														
20210813624934247	IDN name	Mount Nittany Health System	Mount Nittany Health System	Mount Nittany Health System	IDN name														
20210813624934248	IDN name	Cooper University Health Care	Cooper University Health Care	Cooper University Health Care	IDN name														
20210813624934249	IDN name	Honorhealth	Honorhealth	Honorhealth	IDN name														
20210813624934250	IDN name	Covenant Health	Covenant Health	Covenant Health	IDN name														
20210813624934251	IDN name	Adventist Health	Adventist Health	Adventist Health	IDN name														
20210813624934252	IDN name	Baptist Health (KY)	Baptist Health (KY)	Baptist Health (KY)	IDN name														
20210813624934253	IDN name	Finger Lakes Health	Finger Lakes Health	Finger Lakes Health	IDN name														
20210813624934254	IDN name	Rush Health	Rush Health	Rush Health	IDN name														
20210813624934255	IDN name	Boston Children Hospital (System)	Boston Children Hospital (System)	Boston Children Hospital (System)	IDN name														
20210813624934256	IDN name	Peacehealth	Peacehealth	Peacehealth	IDN name														
20210813624934257	IDN name	Jefferson Health	Jefferson Health	Jefferson Health	IDN name														
20210813624934258	IDN name	Carle Health System	Carle Health System	Carle Health System	IDN name														
20210813624934259	IDN name	Christus Health	Christus Health	Christus Health	IDN name														
20210813624934260	IDN name	University Hospitals Health System	University Hospitals Health System	University Hospitals Health System	IDN name														
20210813624934261	IDN name	Verity Health System	Verity Health System	Verity Health System	IDN name														
20210813624934262	IDN name	Mount Sinai Health System	Mount Sinai Health System	Mount Sinai Health System	IDN name														
20210813624934263	IDN name	Central Maine Healthcare	Central Maine Healthcare	Central Maine Healthcare	IDN name														
20210813624934264	IDN name	Aurora Health Care	Aurora Health Care	Aurora Health Care	IDN name														
20210813624934265	IDN name	HealthPartners	HealthPartners	HealthPartners	IDN name														
20210813624934266	IDN name	Catawba Valley Medical Center	Catawba Valley Medical Center	Catawba Valley Medical Center	IDN name														
20210813624934267	IDN name	Mosaic Life Care	Mosaic Life Care	Mosaic Life Care	IDN name														
20210813624934268	IDN name	University Of California (UC) Health	University Of California (UC) Health	University Of California (UC) Health	IDN name														
20210813624934269	IDN name	UnityPoint Health	UnityPoint Health	UnityPoint Health	IDN name														
20210813624934270	IDN name	OSF Healthcare System	OSF Healthcare System	OSF Healthcare System	IDN name														
20210813624934271	IDN name	Community Health System (CHS)	Community Health System (CHS)	Community Health System (CHS)	IDN name														
20210813624934272	IDN name	Mount Sinai Medical Center (FL)	Mount Sinai Medical Center (FL)	Mount Sinai Medical Center (FL)	IDN name														
20210813624934273	IDN name	Ephraim Mcdowell Health	Ephraim Mcdowell Health	Ephraim Mcdowell Health	IDN name														
20210813624934274	IDN name	UAB Medicine (University Of Alabama Birmingham Health System)	UAB Medicine (University Of Alabama Birmingham Health System)	UAB Medicine (University Of Alabama Birmingham Health System)	IDN name														
20210813624934275	IDN name	Oklahoma Surgical Hospital (System)	Oklahoma Surgical Hospital (System)	Oklahoma Surgical Hospital (System)	IDN name														
20210813624934276	IDN name	Memorial Hermann Health System	Memorial Hermann Health System	Memorial Hermann Health System	IDN name														
20210813624934277	IDN name	Exeter Health Resources Care	Exeter Health Resources Care	Exeter Health Resources Care	IDN name														
20210813624934278	IDN name	NueHealth	NueHealth	NueHealth	IDN name														
20210813624934279	IDN name	University Of North Carolina (UNC) Health Care	University Of North Carolina (UNC) Health Care	University Of North Carolina (UNC) Health Care	IDN name														
20210813624934280	IDN name	Universal Health Services	Universal Health Services	Universal Health Services	IDN name														
20210813624934281	IDN name	Agnesian Healthcare	Agnesian Healthcare	Agnesian Healthcare	IDN name														
20210813624934282	IDN name	Presbyterian Healthcare Services	Presbyterian Healthcare Services	Presbyterian Healthcare Services	IDN name														
20210813624934283	IDN name	Boston Medical Center System	Boston Medical Center System	Boston Medical Center System	IDN name														
20210813624934284	IDN name	Tanner Medical Center	Tanner Medical Center	Tanner Medical Center	IDN name														
20210813624934285	IDN name	Kuakini Health System	Kuakini Health System	Kuakini Health System	IDN name														
20210813624934286	IDN name	Northwestern Medicine	Northwestern Medicine	Northwestern Medicine	IDN name														
20210813624934287	IDN name	SSM Health Care	SSM Health Care	SSM Health Care	IDN name														
20210813624934288	IDN name	Consolidated Supply Chain Services	Consolidated Supply Chain Services	Consolidated Supply Chain Services	IDN name														
20210813624934289	IDN name	Mercy Health Corporation	Mercy Health Corporation	Mercy Health Corporation	IDN name														
20210813624934290	IDN name	Berkshire Health System	Berkshire Health System	Berkshire Health System	IDN name														
20210813624934291	IDN name	Fairview Health Services	Fairview Health Services	Fairview Health Services	IDN name														
20210813624934292	IDN name	Adventist Health System	Adventist Health System	Adventist Health System	IDN name														
20210813624934293	IDN name	Banner Health	Banner Health	Banner Health	IDN name														
20210813624934294	IDN name	Catholic Health Initiatives (CHI)	Catholic Health Initiatives (CHI)	Catholic Health Initiatives (CHI)	IDN name														
20210813624934295	IDN name	University Of Rochester Medical Center	University Of Rochester Medical Center	University Of Rochester Medical Center	IDN name														
20210813624934296	IDN name	Mercy Health System	Mercy Health System	Mercy Health System	IDN name														
20210813624934297	IDN name	Southcoast Health	Southcoast Health	Southcoast Health	IDN name														
20210813624934298	IDN name	Kennedy Health System	Kennedy Health System	Kennedy Health System	IDN name														
20210813624934299	IDN name	Surgery Partners	Surgery Partners	Surgery Partners	IDN name														
20210813624934300	IDN name	Lexington Medical Center (System)	Lexington Medical Center (System)	Lexington Medical Center (System)	IDN name														
20210813624934301	IDN name	Cincinnati Children's Hospital Medical Center (System)	Cincinnati Children's Hospital Medical Center (System)	Cincinnati Children's Hospital Medical Center (System)	IDN name														
20210813624934302	IDN name	Umass Memorial Health Care	Umass Memorial Health Care	Umass Memorial Health Care	IDN name														
20210813624934303	IDN name	Inova Health (System)	Inova Health (System)	Inova Health (System)	IDN name														
20210813624934304	IDN name	Ellis Medicine	Ellis Medicine	Ellis Medicine	IDN name														
20210813624934305	IDN name	RWJ Barnabas Health	RWJ Barnabas Health	RWJ Barnabas Health	IDN name														
20210813624934306	IDN name	Atlantic General Hospital	Atlantic General Hospital	Atlantic General Hospital	IDN name														
20210813624934307	IDN name	Laughlin Memorial Hospital	Laughlin Memorial Hospital	Laughlin Memorial Hospital	IDN name														
20210813624934308	IDN name	Avera Health	Avera Health	Avera Health	IDN name														
20210813624934309	IDN name	Enloe Health Systems	Enloe Health Systems	Enloe Health Systems	IDN name														
20210813624934310	IDN name	Lifebridge Health	Lifebridge Health	Lifebridge Health	IDN name														
20210813624934311	IDN name	University of Texas System (UT System)	University of Texas System (UT System)	University of Texas System (UT System)	IDN name														
20210813624934312	IDN name	MHS Purchasing	MHS Purchasing	MHS Purchasing	IDN name														
20210813624934313	IDN name	St Lawrence Health System	St Lawrence Health System	St Lawrence Health System	IDN name														
20210813624934314	IDN name	Forrest Health	Forrest Health	Forrest Health	IDN name														
20210813624934315	IDN name	Montefiore Health System	Montefiore Health System	Montefiore Health System	IDN name														
20210813624934316	IDN name	Crisp Regional Health Services	Crisp Regional Health Services	Crisp Regional Health Services	IDN name														
20210813624934317	IDN name	Riverside Health System	Riverside Health System	Riverside Health System	IDN name														
20210813624934318	IDN name	Davis Medical Center	Davis Medical Center	Davis Medical Center	IDN name														
20210813624934319	IDN name	Mainehealth	Mainehealth	Mainehealth	IDN name														
20210813624934320	IDN name	Gaston Memorial Hospital	Gaston Memorial Hospital	Gaston Memorial Hospital	IDN name														
20210813624934321	IDN name	Tufts Medical Center Health System	Tufts Medical Center Health System	Tufts Medical Center Health System	IDN name														
20210813624934322	IDN name	No IDN	No IDN	No IDN	IDN name														
20210813624934323	IDN name	Billings Clinic	Billings Clinic	Billings Clinic	IDN name														
20210813624934324	IDN name	Centegra Health System	Centegra Health System	Centegra Health System	IDN name														
20210813624934325	IDN name	Yale New Haven Health System	Yale New Haven Health System	Yale New Haven Health System	IDN name														
20210813624934326	IDN name	Memorial Healthcare System (FL)	Memorial Healthcare System (FL)	Memorial Healthcare System (FL)	IDN name														
20210813624934327	IDN name	Sinai Health System	Sinai Health System	Sinai Health System	IDN name														
20210813624934328	IDN name	McLaren Health Care	McLaren Health Care	McLaren Health Care	IDN name														
20210813624934329	IDN name	General Health System	General Health System	General Health System	IDN name														
20210813624934330	IDN name	Kaleida Health	Kaleida Health	Kaleida Health	IDN name														
20210813624934331	IDN name	Comprehensive Pharmacy Services	Comprehensive Pharmacy Services	Comprehensive Pharmacy Services	IDN name														
20210813624934332	IDN name	Us Department Of Veterans Affairs (Veterans Health Administration)	Us Department Of Veterans Affairs (Veterans Health Administration)	Us Department Of Veterans Affairs (Veterans Health Administration)	IDN name														
20210813624934333	IDN name	Memorial Health University Medical Center	Memorial Health University Medical Center	Memorial Health University Medical Center	IDN name														
20210813624934334	IDN name	Centracare Health System	Centracare Health System	Centracare Health System	IDN name														
20210813624934335	IDN name	Midmichigan Health	Midmichigan Health	Midmichigan Health	IDN name														
20210813624934336	IDN name	Ochsner Health System	Ochsner Health System	Ochsner Health System	IDN name														
20210813624934337	IDN name	Mission Health System	Mission Health System	Mission Health System	IDN name														
20210813624934338	IDN name	Southeast Alabama Medical Center	Southeast Alabama Medical Center	Southeast Alabama Medical Center	IDN name														
20210813624934339	IDN name	West Virginia United Health System	West Virginia United Health System	West Virginia United Health System	IDN name														
20210813624934340	IDN name	Anne Arundel Health (System)	Anne Arundel Health (System)	Anne Arundel Health (System)	IDN name														
20210813624934341	IDN name	White River Health System	White River Health System	White River Health System	IDN name														
20210813624934342	IDN name	Partners Healthcare	Partners Healthcare	Partners Healthcare	IDN name														
20210813624934343	IDN name	Geisinger Health System	Geisinger Health System	Geisinger Health System	IDN name														
20210813624934344	IDN name	Cumberland County Hospital (System)	Cumberland County Hospital (System)	Cumberland County Hospital (System)	IDN name														
20210813624934345	IDN name	Carilion Clinic	Carilion Clinic	Carilion Clinic	IDN name														
20210813624934346	IDN name	Carolinas Healthcare System	Carolinas Healthcare System	Carolinas Healthcare System	IDN name														
20210813624934347	IDN name	Albert Einstein Healthcare Network	Albert Einstein Healthcare Network	Albert Einstein Healthcare Network	IDN name														
20210813624934348	IDN name	King'S Daughters Medical Center	King'S Daughters Medical Center	King'S Daughters Medical Center	IDN name														
20210813624934349	IDN name	Interfaith Medical Center (System)	Interfaith Medical Center (System)	Interfaith Medical Center (System)	IDN name														
20210813624934350	IDN name	Appalachian Regional Healthcare	Appalachian Regional Healthcare	Appalachian Regional Healthcare	IDN name														
20210813624934351	IDN name	Baystate Health	Baystate Health	Baystate Health	IDN name														
20210813624934352	IDN name	Cabell Huntington Hospital Health System	Cabell Huntington Hospital Health System	Cabell Huntington Hospital Health System	IDN name														
20210813624934353	IDN name	Allina Health	Allina Health	Allina Health	IDN name														
20210813624934354	IDN name	Murray-Calloway County Hospital	Murray-Calloway County Hospital	Murray-Calloway County Hospital	IDN name														
20210813624934355	IDN name	Prime Healthcare Services	Prime Healthcare Services	Prime Healthcare Services	IDN name														
20210813624934356	IDN name	St Josephs / Candler	St Josephs / Candler	St Josephs / Candler	IDN name														
20210813624934357	IDN name	Hartford Healthcare	Hartford Healthcare	Hartford Healthcare	IDN name														
20210813624934358	IDN name	University Of Maryland Medical System	University Of Maryland Medical System	University Of Maryland Medical System	IDN name														
20210813624934359	IDN name	NYC Health and Hospitals	NYC Health and Hospitals	NYC Health and Hospitals	IDN name														
20210813624934360	IDN name	Success Healthcare	Success Healthcare	Success Healthcare	IDN name														
20210813624934361	IDN name	Lrghealthcare	Lrghealthcare	Lrghealthcare	IDN name														
20210813624934362	IDN name	Thomas Health System	Thomas Health System	Thomas Health System	IDN name														
20210813624934363	IDN name	Baptist Health (Jacksonville Fl)	Baptist Health (Jacksonville Fl)	Baptist Health (Jacksonville Fl)	IDN name														
20210813624934364	IDN name	Trinity Health	Trinity Health	Trinity Health	IDN name														
20210813624934365	IDN name	Saint Francis Hospital (System)	Saint Francis Hospital (System)	Saint Francis Hospital (System)	IDN name														
20210813624934366	IDN name	Harris Health System	Harris Health System	Harris Health System	IDN name														
20210813624934367	IDN name	Miami Children's Health System	Miami Children's Health System	Miami Children's Health System	IDN name														
20210813624934368	IDN name	Mountain States Health Alliance	Mountain States Health Alliance	Mountain States Health Alliance	IDN name														
20210813624934369	IDN name	Summa Health System	Summa Health System	Summa Health System	IDN name														
20210813624934370	IDN name	Lahey Health	Lahey Health	Lahey Health	IDN name														
20210813624934371	IDN name	Oklahoma Heart Hospital Health System	Oklahoma Heart Hospital Health System	Oklahoma Heart Hospital Health System	IDN name														
20210813624934372	IDN name	Stanford Medicine	Stanford Medicine	Stanford Medicine	IDN name														
20210813624934373	IDN name	Western Maryland Health System	Western Maryland Health System	Western Maryland Health System	IDN name														
20210813624934374	IDN name	Catholic Health System	Catholic Health System	Catholic Health System	IDN name														
20210813624934375	IDN name	Methodist Hospital System	Methodist Hospital System	Methodist Hospital System	IDN name														
20210813624934376	IDN name	The Johns Hopkins Health System	The Johns Hopkins Health System	The Johns Hopkins Health System	IDN name														
20210813624934377	IDN name	Louisiana Children’s Medical Center	Louisiana Children’s Medical Center	Louisiana Children’s Medical Center	IDN name														
20210813624934378	IDN name	Norton Healthcare	Norton Healthcare	Norton Healthcare	IDN name														
20210813624934379	IDN name	Larkin Community Hospital Health System	Larkin Community Hospital Health System	Larkin Community Hospital Health System	IDN name														
20210813624934380	IDN name	Providence St Joseph Health	Providence St Joseph Health	Providence St Joseph Health	IDN name														
20210813624934381	IDN name	Henry Ford Health System	Henry Ford Health System	Henry Ford Health System	IDN name														
20210813624934382	IDN name	Dignity Health	Dignity Health	Dignity Health	IDN name														
