ID	CLASS	CODE	NAME	DESC	LEVEL	Parent	SYN1	SYN2	SYN3	SYN4	SYN5	SYN6	SYN7	SYN8	SYN9	SYN10	SYN11	SYN12	SYN13	SYN14
1082	Metrics	Equivalent Units	Equivalent Units	Equivalent Units	Base															
1126	Metrics	NRx	NRx	NRx	Base		new prescriptions													
1127	Metrics	NRx Units	NRx Units	NRx Units	Base															
1135	Metrics	PDOT	PDOT	PDOT	Base															
1206	Metrics	TRx	TRx	Number of prescriptions sold	Base		Sales	Volume	Total Prescriptions	Sale										
