ID	CLASS	CODE	NAME	DESC	LEVEL	SYN1	SYN2	SYN3	SYN4	SYN5	SYN6	SYN7	SYN8	SYN9	SYN10	SYN11	SYN12	SYN13	SYN14
20210813674935225	Never Called Flag	Never Called	Never Called	Never Called	Never Called Flag														
20210813674935226	Never Called Flag	Called	Called	Called	Never Called Flag														
