ID	CLASS	CODE	NAME	DESC	LEVEL	SYN1	SYN2	SYN3	SYN4	SYN5	SYN6	SYN7	SYN8	SYN9	SYN10	SYN11	SYN12	SYN13	SYN14
20210813764935225	Primary Specialty Group Name	Primary Care	Primary Care	Primary Care	Primary Specialty Group Name														
20210813764935226	Primary Specialty Group Name	Cvi Specialist	Cvi Specialist	Cvi Specialist	Primary Specialty Group Name														
20210813764935227	Primary Specialty Group Name	Cardiology	Cardiology	Cardiology	Primary Specialty Group Name														
20210813764935228	Primary Specialty Group Name	Mid Level	Mid Level	Mid Level	Primary Specialty Group Name														
20210813764935229	Primary Specialty Group Name	Other	Other	Other	Primary Specialty Group Name														
20210813764935230	Primary Specialty Group Name	Diabetes	Diabetes	Diabetes	Primary Specialty Group Name														
20210813764935231	Primary Specialty Group Name	Nephrology	Nephrology	Nephrology	Primary Specialty Group Name														
