ID	CLASS	CODE	NAME	DESC	LEVEL	SYN1	SYN2	SYN3	SYN4	SYN5	SYN6	SYN7	SYN8	SYN9	SYN10	SYN11	SYN12	SYN13	SYN14
20210813804935225	Product Name	Emarun	Emarun	Emarun	Product Name														
20210813804935226	Product Name	Atruzidine	Atruzidine	Atruzidine	Product Name														
20210813804935227	Product Name	Atulfidine EN-Tabs	Atulfidine EN-Tabs	Atulfidine EN-Tabs	Product Name														
20210813804935228	Product Name	Ofasan	Ofasan	Ofasan	Product Name														
20210813804935229	Product Name	Rheumatrin	Rheumatrin	Rheumatrin	Product Name														
20210813804935230	Product Name	Arobi	Arobi	Arobi	Product Name														
20210813804935231	Product Name	Septasalazine	Septasalazine	Septasalazine	Product Name														
20210813804935232	Product Name	Tablunomide	Tablunomide	Tablunomide	Product Name														
20210813804935233	Product Name	Tychoxychloroquine	Tychoxychloroquine	Tychoxychloroquine	Product Name														
20210813804935234	Product Name	Methodrex	Methodrex	Methodrex	Product Name														
20210813804935235	Product Name	Trexine	Trexine	Trexine	Product Name														
20210813804935236	Product Name	Ovretux	Ovretux	Ovretux	Product Name														
20210813804935237	Product Name	Rasault	Rasault	Rasault	Product Name														
20210813804935238	Product Name	Plabenil	Plabenil	Plabenil	Product Name														
