ID	CLASS	CODE	NAME	DESC	LEVEL	SYN1	SYN2	SYN3	SYN4	SYN5	SYN6	SYN7	SYN8	SYN9	SYN10	SYN11	SYN12	SYN13	SYN14
20210813854935225	Secondary Specialty Name	General Surgery	General Surgery	General Surgery	Secondary Specialty Name														
20210813854935226	Secondary Specialty Name	Emergency Medicine	Emergency Medicine	Emergency Medicine	Secondary Specialty Name														
20210813854935227	Secondary Specialty Name	Internal Medicine - Pediatrics	Internal Medicine - Pediatrics	Internal Medicine - Pediatrics	Secondary Specialty Name														
20210813854935228	Secondary Specialty Name	Pediatrics	Pediatrics	Pediatrics	Secondary Specialty Name														
20210813854935229	Secondary Specialty Name	Legal Medicine	Legal Medicine	Legal Medicine	Secondary Specialty Name														
20210813854935230	Secondary Specialty Name	Advance Heart Failure And Transplant Cardiology	Advance Heart Failure And Transplant Cardiology	Advance Heart Failure And Transplant Cardiology	Secondary Specialty Name														
20210813854935231	Secondary Specialty Name	Public Health And General Preventive Med	Public Health And General Preventive Med	Public Health And General Preventive Med	Secondary Specialty Name														
20210813854935232	Secondary Specialty Name	Head And Neck Surgery	Head And Neck Surgery	Head And Neck Surgery	Secondary Specialty Name														
20210813854935233	Secondary Specialty Name	Unspecified	Unspecified	Unspecified	Secondary Specialty Name														
20210813854935234	Secondary Specialty Name	Registered Nurse	Registered Nurse	Registered Nurse	Secondary Specialty Name														
20210813854935235	Secondary Specialty Name	Allergy	Allergy	Allergy	Secondary Specialty Name														
20210813854935236	Secondary Specialty Name	Advanced Nurse	Advanced Nurse	Advanced Nurse	Secondary Specialty Name														
20210813854935237	Secondary Specialty Name	Gastroenterology	Gastroenterology	Gastroenterology	Secondary Specialty Name														
20210813854935238	Secondary Specialty Name	Obstetrics/Gynecology	Obstetrics/Gynecology	Obstetrics/Gynecology	Secondary Specialty Name														
20210813854935239	Secondary Specialty Name	Osteo Manipulative Medicine	Osteo Manipulative Medicine	Osteo Manipulative Medicine	Secondary Specialty Name														
20210813854935240	Secondary Specialty Name	Phelbology	Phelbology	Phelbology	Secondary Specialty Name														
20210813854935241	Secondary Specialty Name	Nuclear Medicine	Nuclear Medicine	Nuclear Medicine	Secondary Specialty Name														
20210813854935242	Secondary Specialty Name	Endocrinology	Endocrinology	Endocrinology	Secondary Specialty Name														
20210813854935243	Secondary Specialty Name	Cardiovascular Surgery	Cardiovascular Surgery	Cardiovascular Surgery	Secondary Specialty Name														
20210813854935244	Secondary Specialty Name	Pulmonary Critical Care	Pulmonary Critical Care	Pulmonary Critical Care	Secondary Specialty Name														
20210813854935245	Secondary Specialty Name	HospPalliative Med-Obstetrics  Gyn	HospPalliative Med-Obstetrics  Gyn	HospPalliative Med-Obstetrics  Gyn	Secondary Specialty Name														
20210813854935246	Secondary Specialty Name	Obstetrics	Obstetrics	Obstetrics	Secondary Specialty Name														
20210813854935247	Secondary Specialty Name	Adolescent Medicine	Adolescent Medicine	Adolescent Medicine	Secondary Specialty Name														
20210813854935248	Secondary Specialty Name	General Preventive Medicine	General Preventive Medicine	General Preventive Medicine	Secondary Specialty Name														
20210813854935249	Secondary Specialty Name	Vascular Surgery	Vascular Surgery	Vascular Surgery	Secondary Specialty Name														
20210813854935250	Secondary Specialty Name	Proctology	Proctology	Proctology	Secondary Specialty Name														
20210813854935251	Secondary Specialty Name	Pediatric Radiology	Pediatric Radiology	Pediatric Radiology	Secondary Specialty Name														
20210813854935252	Secondary Specialty Name	Adolescent Medicine - Im	Adolescent Medicine - Im	Adolescent Medicine - Im	Secondary Specialty Name														
20210813854935253	Secondary Specialty Name	Addiction Medicine	Addiction Medicine	Addiction Medicine	Secondary Specialty Name														
20210813854935254	Secondary Specialty Name	Clinical Nurse Specialist	Clinical Nurse Specialist	Clinical Nurse Specialist	Secondary Specialty Name														
20210813854935255	Secondary Specialty Name	Physical Medicine And Rehab	Physical Medicine And Rehab	Physical Medicine And Rehab	Secondary Specialty Name														
20210813854935256	Secondary Specialty Name	HospPalliative Med-Internal Med	HospPalliative Med-Internal Med	HospPalliative Med-Internal Med	Secondary Specialty Name														
20210813854935257	Secondary Specialty Name	Occupational Medicine	Occupational Medicine	Occupational Medicine	Secondary Specialty Name														
20210813854935258	Secondary Specialty Name	Medical Genetics	Medical Genetics	Medical Genetics	Secondary Specialty Name														
20210813854935259	Secondary Specialty Name	Interventional Cardiology	Interventional Cardiology	Interventional Cardiology	Secondary Specialty Name														
20210813854935260	Secondary Specialty Name	Vascular Medicine	Vascular Medicine	Vascular Medicine	Secondary Specialty Name														
20210813854935261	Secondary Specialty Name	Other Specialty	Other Specialty	Other Specialty	Secondary Specialty Name														
20210813854935262	Secondary Specialty Name	Nephrology	Nephrology	Nephrology	Secondary Specialty Name														
20210813854935263	Secondary Specialty Name	Oncology	Oncology	Oncology	Secondary Specialty Name														
20210813854935264	Secondary Specialty Name	Palliative Medicine	Palliative Medicine	Palliative Medicine	Secondary Specialty Name														
20210813854935265	Secondary Specialty Name	Aerospace Medicine	Aerospace Medicine	Aerospace Medicine	Secondary Specialty Name														
20210813854935266	Secondary Specialty Name	Orthopedic Surgery	Orthopedic Surgery	Orthopedic Surgery	Secondary Specialty Name														
20210813854935267	Secondary Specialty Name	Internal Medicine	Internal Medicine	Internal Medicine	Secondary Specialty Name														
20210813854935268	Secondary Specialty Name	Pharmacist	Pharmacist	Pharmacist	Secondary Specialty Name														
20210813854935269	Secondary Specialty Name	Hematology/Oncology	Hematology/Oncology	Hematology/Oncology	Secondary Specialty Name														
20210813854935270	Secondary Specialty Name	Internal Medicine - Geriatric Medicine	Internal Medicine - Geriatric Medicine	Internal Medicine - Geriatric Medicine	Secondary Specialty Name														
20210813854935271	Secondary Specialty Name	Pulmonary Disease	Pulmonary Disease	Pulmonary Disease	Secondary Specialty Name														
20210813854935272	Secondary Specialty Name	Nurse Midwife	Nurse Midwife	Nurse Midwife	Secondary Specialty Name														
20210813854935273	Secondary Specialty Name	Hematology - Im	Hematology - Im	Hematology - Im	Secondary Specialty Name														
20210813854935274	Secondary Specialty Name	Critical Care Medicine - Im	Critical Care Medicine - Im	Critical Care Medicine - Im	Secondary Specialty Name														
20210813854935275	Secondary Specialty Name	Internal Medicine - Family Practice	Internal Medicine - Family Practice	Internal Medicine - Family Practice	Secondary Specialty Name														
20210813854935276	Secondary Specialty Name	Thoracic Surgery	Thoracic Surgery	Thoracic Surgery	Secondary Specialty Name														
20210813854935277	Secondary Specialty Name	Emergency Medicine - Medical Toxicology	Emergency Medicine - Medical Toxicology	Emergency Medicine - Medical Toxicology	Secondary Specialty Name														
20210813854935278	Secondary Specialty Name	General Practice	General Practice	General Practice	Secondary Specialty Name														
20210813854935279	Secondary Specialty Name	Radiology	Radiology	Radiology	Secondary Specialty Name														
20210813854935280	Secondary Specialty Name	Diabetes	Diabetes	Diabetes	Secondary Specialty Name														
20210813854935281	Secondary Specialty Name	Family Practice - Sports Medicine	Family Practice - Sports Medicine	Family Practice - Sports Medicine	Secondary Specialty Name														
20210813854935282	Secondary Specialty Name	Optometrist	Optometrist	Optometrist	Secondary Specialty Name														
20210813854935283	Secondary Specialty Name	Clinical/Lab Immunology - Im	Clinical/Lab Immunology - Im	Clinical/Lab Immunology - Im	Secondary Specialty Name														
20210813854935284	Secondary Specialty Name	Certified Nurse Anesthetist	Certified Nurse Anesthetist	Certified Nurse Anesthetist	Secondary Specialty Name														
20210813854935285	Secondary Specialty Name	Pain Mgmt, Physical Med & Rehab	Pain Mgmt, Physical Med & Rehab	Pain Mgmt, Physical Med & Rehab	Secondary Specialty Name														
20210813854935286	Secondary Specialty Name	Anatomic/Clinical Pathology	Anatomic/Clinical Pathology	Anatomic/Clinical Pathology	Secondary Specialty Name														
20210813854935287	Secondary Specialty Name	Family Medicine	Family Medicine	Family Medicine	Secondary Specialty Name														
20210813854935288	Secondary Specialty Name	Cardiovascular Diseases	Cardiovascular Diseases	Cardiovascular Diseases	Secondary Specialty Name														
20210813854935289	Secondary Specialty Name	Hospitalist	Hospitalist	Hospitalist	Secondary Specialty Name														
20210813854935290	Secondary Specialty Name	Cardiac Electrophysiology	Cardiac Electrophysiology	Cardiac Electrophysiology	Secondary Specialty Name														
20210813854935291	Secondary Specialty Name	Family Practice - Geriatric Medicine	Family Practice - Geriatric Medicine	Family Practice - Geriatric Medicine	Secondary Specialty Name														
20210813854935292	Secondary Specialty Name	Rheumatology	Rheumatology	Rheumatology	Secondary Specialty Name														
20210813854935293	Secondary Specialty Name	Sleep Medicine	Sleep Medicine	Sleep Medicine	Secondary Specialty Name														
20210813854935294	Secondary Specialty Name	Infectious Diseases - Im	Infectious Diseases - Im	Infectious Diseases - Im	Secondary Specialty Name														
20210813854935295	Secondary Specialty Name	Anesthesiology	Anesthesiology	Anesthesiology	Secondary Specialty Name														
20210813854935296	Secondary Specialty Name	Nuclear Cardiology	Nuclear Cardiology	Nuclear Cardiology	Secondary Specialty Name														
