ID	CLASS	CODE	NAME	DESC	LEVEL	SYN1	SYN2	SYN3	SYN4	SYN5	SYN6	SYN7	SYN8	SYN9	SYN10	SYN11	SYN12	SYN13	SYN14
20210813964936225	Zip	53188	53188	53188	Zip														
20210813964936226	Zip	8070	8070	8070	Zip														
20210813964936227	Zip	5343	5343	5343	Zip														
20210813964936228	Zip	37932	37932	37932	Zip														
20210813964936229	Zip	78220	78220	78220	Zip														
20210813964936230	Zip	15317	15317	15317	Zip														
20210813964936231	Zip	73802	73802	73802	Zip														
20210813964936232	Zip	33875	33875	33875	Zip														
20210813964936233	Zip	33029	33029	33029	Zip														
20210813964936234	Zip	56359	56359	56359	Zip														
20210813964936235	Zip	24874	24874	24874	Zip														
20210813964936236	Zip	64802	64802	64802	Zip														
20210813964936237	Zip	46322	46322	46322	Zip														
20210813964936238	Zip	61060	61060	61060	Zip														
20210813964936239	Zip	19141	19141	19141	Zip														
20210813964936240	Zip	36874	36874	36874	Zip														
20210813964936241	Zip	70639	70639	70639	Zip														
20210813964936242	Zip	45807	45807	45807	Zip														
20210813964936243	Zip	44028	44028	44028	Zip														
20210813964936244	Zip	33647	33647	33647	Zip														
20210813964936245	Zip	67152	67152	67152	Zip														
20210813964936246	Zip	6082	6082	6082	Zip														
20210813964936247	Zip	59701	59701	59701	Zip														
20210813964936248	Zip	37203	37203	37203	Zip														
20210813964936249	Zip	6902	6902	6902	Zip														
20210813964936250	Zip	12953	12953	12953	Zip														
20210813964936251	Zip	75041	75041	75041	Zip														
20210813964936252	Zip	60010	60010	60010	Zip														
20210813964936253	Zip	72472	72472	72472	Zip														
20210813964936254	Zip	19127	19127	19127	Zip														
20210813964936255	Zip	81301	81301	81301	Zip														
20210813964936256	Zip	23120	23120	23120	Zip														
20210813964936257	Zip	76177	76177	76177	Zip														
20210813964936258	Zip	80537	80537	80537	Zip														
20210813964936259	Zip	32177	32177	32177	Zip														
20210813964936260	Zip	19150	19150	19150	Zip														
20210813964936261	Zip	98042	98042	98042	Zip														
20210813964936262	Zip	71639	71639	71639	Zip														
20210813964936263	Zip	36312	36312	36312	Zip														
20210813964936264	Zip	30170	30170	30170	Zip														
20210813964936265	Zip	60615	60615	60615	Zip														
20210813964936266	Zip	53703	53703	53703	Zip														
20210813964936267	Zip	35120	35120	35120	Zip														
20210813964936268	Zip	55454	55454	55454	Zip														
20210813964936269	Zip	2908	2908	2908	Zip														
20210813964936270	Zip	14428	14428	14428	Zip														
20210813964936271	Zip	37026	37026	37026	Zip														
20210813964936272	Zip	7063	7063	7063	Zip														
20210813964936273	Zip	13778	13778	13778	Zip														
20210813964936274	Zip	29801	29801	29801	Zip														
20210813964936275	Zip	37317	37317	37317	Zip														
20210813964936276	Zip	46123	46123	46123	Zip														
20210813964936277	Zip	35040	35040	35040	Zip														
20210813964936278	Zip	73110	73110	73110	Zip														
20210813964936279	Zip	58740	58740	58740	Zip														
20210813964936280	Zip	38305	38305	38305	Zip														
20210813964936281	Zip	40108	40108	40108	Zip														
20210813964936282	Zip	17103	17103	17103	Zip														
20210813964936283	Zip	85231	85231	85231	Zip														
20210813964936284	Zip	91706	91706	91706	Zip														
20210813964936285	Zip	58356	58356	58356	Zip														
20210813964936286	Zip	64482	64482	64482	Zip														
20210813964936287	Zip	52208	52208	52208	Zip														
20210813964936288	Zip	23301	23301	23301	Zip														
20210813964936289	Zip	78212	78212	78212	Zip														
20210813964936290	Zip	8054	8054	8054	Zip														
20210813964936291	Zip	46825	46825	46825	Zip														
20210813964936292	Zip	94941	94941	94941	Zip														
20210813964936293	Zip	78014	78014	78014	Zip														
20210813964936294	Zip	15530	15530	15530	Zip														
20210813964936295	Zip	80219	80219	80219	Zip														
20210813964936296	Zip	4694	4694	4694	Zip														
20210813964936297	Zip	28009	28009	28009	Zip														
20210813964936298	Zip	43947	43947	43947	Zip														
20210813964936299	Zip	49221	49221	49221	Zip														
20210813964936300	Zip	24317	24317	24317	Zip														
20210813964936301	Zip	89074	89074	89074	Zip														
20210813964936302	Zip	79845	79845	79845	Zip														
20210813964936303	Zip	28040	28040	28040	Zip														
20210813964936304	Zip	15203	15203	15203	Zip														
20210813964936305	Zip	2021	2021	2021	Zip														
20210813964936306	Zip	50622	50622	50622	Zip														
20210813964936307	Zip	19344	19344	19344	Zip														
20210813964936308	Zip	17970	17970	17970	Zip														
20210813964936309	Zip	70737	70737	70737	Zip														
20210813964936310	Zip	61550	61550	61550	Zip														
20210813964936311	Zip	24256	24256	24256	Zip														
20210813964936312	Zip	48362	48362	48362	Zip														
20210813964936313	Zip	31022	31022	31022	Zip														
20210813964936314	Zip	46952	46952	46952	Zip														
20210813964936315	Zip	75496	75496	75496	Zip														
20210813964936316	Zip	2143	2143	2143	Zip														
20210813964936317	Zip	49686	49686	49686	Zip														
20210813964936318	Zip	7751	7751	7751	Zip														
20210813964936319	Zip	36360	36360	36360	Zip														
20210813964936320	Zip	78242	78242	78242	Zip														
20210813964936321	Zip	85347	85347	85347	Zip														
20210813964936322	Zip	71303	71303	71303	Zip														
20210813964936323	Zip	85027	85027	85027	Zip														
20210813964936324	Zip	16617	16617	16617	Zip														
20210813964936325	Zip	17020	17020	17020	Zip														
20210813964936326	Zip	14526	14526	14526	Zip														
20210813964936327	Zip	72701	72701	72701	Zip														
20210813964936328	Zip	84532	84532	84532	Zip														
20210813964936329	Zip	77539	77539	77539	Zip														
20210813964936330	Zip	49406	49406	49406	Zip														
20210813964936331	Zip	51458	51458	51458	Zip														
20210813964936332	Zip	46311	46311	46311	Zip														
20210813964936333	Zip	95136	95136	95136	Zip														
20210813964936334	Zip	1949	1949	1949	Zip														
20210813964936335	Zip	27894	27894	27894	Zip														
20210813964936336	Zip	17847	17847	17847	Zip														
20210813964936337	Zip	36618	36618	36618	Zip														
20210813964936338	Zip	91950	91950	91950	Zip														
20210813964936339	Zip	81090	81090	81090	Zip														
20210813964936340	Zip	98201	98201	98201	Zip														
20210813964936341	Zip	64424	64424	64424	Zip														
20210813964936342	Zip	55107	55107	55107	Zip														
20210813964936343	Zip	10466	10466	10466	Zip														
20210813964936344	Zip	78837	78837	78837	Zip														
20210813964936345	Zip	89010	89010	89010	Zip														
20210813964936346	Zip	11741	11741	11741	Zip														
20210813964936347	Zip	97636	97636	97636	Zip														
20210813964936348	Zip	15627	15627	15627	Zip														
20210813964936349	Zip	39305	39305	39305	Zip														
20210813964936350	Zip	19063	19063	19063	Zip														
20210813964936351	Zip	16153	16153	16153	Zip														
20210813964936352	Zip	85040	85040	85040	Zip														
20210813964936353	Zip	71360	71360	71360	Zip														
20210813964936354	Zip	98371	98371	98371	Zip														
20210813964936355	Zip	78403	78403	78403	Zip														
20210813964936356	Zip	75802	75802	75802	Zip														
20210813964936357	Zip	92704	92704	92704	Zip														
20210813964936358	Zip	75032	75032	75032	Zip														
20210813964936359	Zip	77665	77665	77665	Zip														
20210813964936360	Zip	97002	97002	97002	Zip														
20210813964936361	Zip	99675	99675	99675	Zip														
20210813964936362	Zip	3862	3862	3862	Zip														
20210813964936363	Zip	30044	30044	30044	Zip														
20210813964936364	Zip	6716	6716	6716	Zip														
20210813964936365	Zip	28104	28104	28104	Zip														
20210813964936366	Zip	89429	89429	89429	Zip														
20210813964936367	Zip	27317	27317	27317	Zip														
20210813964936368	Zip	8610	8610	8610	Zip														
20210813964936369	Zip	2740	2740	2740	Zip														
20210813964936370	Zip	30058	30058	30058	Zip														
20210813964936371	Zip	78043	78043	78043	Zip														
20210813964936372	Zip	75760	75760	75760	Zip														
20210813964936373	Zip	49519	49519	49519	Zip														
20210813964936374	Zip	94572	94572	94572	Zip														
20210813964936375	Zip	74851	74851	74851	Zip														
20210813964936376	Zip	33618	33618	33618	Zip														
20210813964936377	Zip	19711	19711	19711	Zip														
20210813964936378	Zip	92093	92093	92093	Zip														
20210813964936379	Zip	55025	55025	55025	Zip														
20210813964936380	Zip	85086	85086	85086	Zip														
20210813964936381	Zip	27320	27320	27320	Zip														
20210813964936382	Zip	24983	24983	24983	Zip														
20210813964936383	Zip	33024	33024	33024	Zip														
20210813964936384	Zip	37918	37918	37918	Zip														
20210813964936385	Zip	54656	54656	54656	Zip														
20210813964936386	Zip	63445	63445	63445	Zip														
20210813964936387	Zip	71763	71763	71763	Zip														
20210813964936388	Zip	92882	92882	92882	Zip														
20210813964936389	Zip	59711	59711	59711	Zip														
20210813964936390	Zip	90007	90007	90007	Zip														
20210813964936391	Zip	8107	8107	8107	Zip														
20210813964936392	Zip	93243	93243	93243	Zip														
20210813964936393	Zip	93908	93908	93908	Zip														
20210813964936394	Zip	65338	65338	65338	Zip														
20210813964936395	Zip	60191	60191	60191	Zip														
20210813964936396	Zip	40216	40216	40216	Zip														
20210813964936397	Zip	41048	41048	41048	Zip														
20210813964936398	Zip	92101	92101	92101	Zip														
20210813964936399	Zip	33765	33765	33765	Zip														
20210813964936400	Zip	60091	60091	60091	Zip														
20210813964936401	Zip	74112	74112	74112	Zip														
20210813964936402	Zip	30214	30214	30214	Zip														
20210813964936403	Zip	60048	60048	60048	Zip														
20210813964936404	Zip	44288	44288	44288	Zip														
20210813964936405	Zip	1230	1230	1230	Zip														
20210813964936406	Zip	7054	7054	7054	Zip														
20210813964936407	Zip	38501	38501	38501	Zip														
20210813964936408	Zip	19406	19406	19406	Zip														
20210813964936409	Zip	54629	54629	54629	Zip														
20210813964936410	Zip	61759	61759	61759	Zip														
20210813964936411	Zip	28146	28146	28146	Zip														
20210813964936412	Zip	11710	11710	11710	Zip														
20210813964936413	Zip	21154	21154	21154	Zip														
20210813964936414	Zip	34221	34221	34221	Zip														
20210813964936415	Zip	49331	49331	49331	Zip														
20210813964936416	Zip	43440	43440	43440	Zip														
20210813964936417	Zip	28170	28170	28170	Zip														
20210813964936418	Zip	42431	42431	42431	Zip														
20210813964936419	Zip	40118	40118	40118	Zip														
20210813964936420	Zip	77705	77705	77705	Zip														
20210813964936421	Zip	20745	20745	20745	Zip														
20210813964936422	Zip	40218	40218	40218	Zip														
20210813964936423	Zip	2815	2815	2815	Zip														
20210813964936424	Zip	78028	78028	78028	Zip														
20210813964936425	Zip	78336	78336	78336	Zip														
20210813964936426	Zip	1801	1801	1801	Zip														
20210813964936427	Zip	62034	62034	62034	Zip														
20210813964936428	Zip	21776	21776	21776	Zip														
20210813964936429	Zip	43221	43221	43221	Zip														
20210813964936430	Zip	21216	21216	21216	Zip														
20210813964936431	Zip	1940	1940	1940	Zip														
20210813964936432	Zip	22827	22827	22827	Zip														
20210813964936433	Zip	44865	44865	44865	Zip														
20210813964936434	Zip	30338	30338	30338	Zip														
20210813964936435	Zip	80904	80904	80904	Zip														
20210813964936436	Zip	13502	13502	13502	Zip														
20210813964936437	Zip	48075	48075	48075	Zip														
20210813964936438	Zip	7844	7844	7844	Zip														
20210813964936439	Zip	84095	84095	84095	Zip														
20210813964936440	Zip	79110	79110	79110	Zip														
20210813964936441	Zip	34974	34974	34974	Zip														
20210813964936442	Zip	11355	11355	11355	Zip														
20210813964936443	Zip	47260	47260	47260	Zip														
20210813964936444	Zip	95043	95043	95043	Zip														
20210813964936445	Zip	80461	80461	80461	Zip														
20210813964936446	Zip	60419	60419	60419	Zip														
20210813964936447	Zip	30281	30281	30281	Zip														
20210813964936448	Zip	49022	49022	49022	Zip														
20210813964936449	Zip	60470	60470	60470	Zip														
20210813964936450	Zip	29569	29569	29569	Zip														
20210813964936451	Zip	48419	48419	48419	Zip														
20210813964936452	Zip	32764	32764	32764	Zip														
20210813964936453	Zip	47341	47341	47341	Zip														
20210813964936454	Zip	19061	19061	19061	Zip														
20210813964936455	Zip	32219	32219	32219	Zip														
20210813964936456	Zip	77550	77550	77550	Zip														
20210813964936457	Zip	43542	43542	43542	Zip														
20210813964936458	Zip	77386	77386	77386	Zip														
20210813964936459	Zip	58540	58540	58540	Zip														
20210813964936460	Zip	33319	33319	33319	Zip														
20210813964936461	Zip	30205	30205	30205	Zip														
20210813964936462	Zip	32626	32626	32626	Zip														
20210813964936463	Zip	61054	61054	61054	Zip														
20210813964936464	Zip	59725	59725	59725	Zip														
20210813964936465	Zip	65712	65712	65712	Zip														
20210813964936466	Zip	14901	14901	14901	Zip														
20210813964936467	Zip	99140	99140	99140	Zip														
20210813964936468	Zip	47348	47348	47348	Zip														
20210813964936469	Zip	88240	88240	88240	Zip														
20210813964936470	Zip	93711	93711	93711	Zip														
20210813964936471	Zip	53132	53132	53132	Zip														
20210813964936472	Zip	48336	48336	48336	Zip														
20210813964936473	Zip	38310	38310	38310	Zip														
20210813964936474	Zip	3903	3903	3903	Zip														
20210813964936475	Zip	97836	97836	97836	Zip														
20210813964936476	Zip	2056	2056	2056	Zip														
20210813964936477	Zip	11223	11223	11223	Zip														
20210813964936478	Zip	55302	55302	55302	Zip														
20210813964936479	Zip	34487	34487	34487	Zip														
20210813964936480	Zip	19023	19023	19023	Zip														
20210813964936481	Zip	28204	28204	28204	Zip														
20210813964936482	Zip	91316	91316	91316	Zip														
20210813964936483	Zip	67216	67216	67216	Zip														
20210813964936484	Zip	60491	60491	60491	Zip														
20210813964936485	Zip	80015	80015	80015	Zip														
20210813964936486	Zip	49946	49946	49946	Zip														
20210813964936487	Zip	35444	35444	35444	Zip														
20210813964936488	Zip	11788	11788	11788	Zip														
20210813964936489	Zip	52064	52064	52064	Zip														
20210813964936490	Zip	70363	70363	70363	Zip														
20210813964936491	Zip	10502	10502	10502	Zip														
20210813964936492	Zip	29020	29020	29020	Zip														
20210813964936493	Zip	30030	30030	30030	Zip														
20210813964936494	Zip	4579	4579	4579	Zip														
20210813964936495	Zip	64118	64118	64118	Zip														
20210813964936496	Zip	63670	63670	63670	Zip														
20210813964936497	Zip	40347	40347	40347	Zip														
20210813964936498	Zip	70123	70123	70123	Zip														
20210813964936499	Zip	11716	11716	11716	Zip														
20210813964936500	Zip	75024	75024	75024	Zip														
20210813964936501	Zip	45159	45159	45159	Zip														
20210813964936502	Zip	37150	37150	37150	Zip														
20210813964936503	Zip	28513	28513	28513	Zip														
20210813964936504	Zip	77358	77358	77358	Zip														
20210813964936505	Zip	15824	15824	15824	Zip														
20210813964936506	Zip	93441	93441	93441	Zip														
20210813964936507	Zip	34117	34117	34117	Zip														
20210813964936508	Zip	11545	11545	11545	Zip														
20210813964936509	Zip	35801	35801	35801	Zip														
20210813964936510	Zip	54409	54409	54409	Zip														
20210813964936511	Zip	62557	62557	62557	Zip														
20210813964936512	Zip	65635	65635	65635	Zip														
20210813964936513	Zip	93635	93635	93635	Zip														
20210813964936514	Zip	32901	32901	32901	Zip														
20210813964936515	Zip	36867	36867	36867	Zip														
20210813964936516	Zip	83669	83669	83669	Zip														
20210813964936517	Zip	17241	17241	17241	Zip														
20210813964936518	Zip	17508	17508	17508	Zip														
20210813964936519	Zip	37664	37664	37664	Zip														
20210813964936520	Zip	26330	26330	26330	Zip														
20210813964936521	Zip	46818	46818	46818	Zip														
20210813964936522	Zip	60404	60404	60404	Zip														
20210813964936523	Zip	77864	77864	77864	Zip														
20210813964936524	Zip	5156	5156	5156	Zip														
20210813964936525	Zip	33907	33907	33907	Zip														
20210813964936526	Zip	54729	54729	54729	Zip														
20210813964936527	Zip	63028	63028	63028	Zip														
20210813964936528	Zip	33612	33612	33612	Zip														
20210813964936529	Zip	27401	27401	27401	Zip														
20210813964936530	Zip	64080	64080	64080	Zip														
20210813964936531	Zip	27265	27265	27265	Zip														
20210813964936532	Zip	2920	2920	2920	Zip														
20210813964936533	Zip	56358	56358	56358	Zip														
20210813964936534	Zip	32169	32169	32169	Zip														
20210813964936535	Zip	61114	61114	61114	Zip														
20210813964936536	Zip	58801	58801	58801	Zip														
20210813964936537	Zip	52302	52302	52302	Zip														
20210813964936538	Zip	7040	7040	7040	Zip														
20210813964936539	Zip	33326	33326	33326	Zip														
20210813964936540	Zip	28613	28613	28613	Zip														
20210813964936541	Zip	33027	33027	33027	Zip														
20210813964936542	Zip	28671	28671	28671	Zip														
20210813964936543	Zip	8505	8505	8505	Zip														
20210813964936544	Zip	62084	62084	62084	Zip														
20210813964936545	Zip	78634	78634	78634	Zip														
20210813964936546	Zip	17601	17601	17601	Zip														
20210813964936547	Zip	60707	60707	60707	Zip														
20210813964936548	Zip	91331	91331	91331	Zip														
20210813964936549	Zip	38572	38572	38572	Zip														
20210813964936550	Zip	40456	40456	40456	Zip														
20210813964936551	Zip	11520	11520	11520	Zip														
20210813964936552	Zip	6333	6333	6333	Zip														
20210813964936553	Zip	34990	34990	34990	Zip														
20210813964936554	Zip	6615	6615	6615	Zip														
20210813964936555	Zip	21054	21054	21054	Zip														
20210813964936556	Zip	60154	60154	60154	Zip														
20210813964936557	Zip	7502	7502	7502	Zip														
20210813964936558	Zip	43316	43316	43316	Zip														
20210813964936559	Zip	38621	38621	38621	Zip														
20210813964936560	Zip	2180	2180	2180	Zip														
20210813964936561	Zip	89801	89801	89801	Zip														
20210813964936562	Zip	69130	69130	69130	Zip														
20210813964936563	Zip	27577	27577	27577	Zip														
20210813964936564	Zip	98155	98155	98155	Zip														
20210813964936565	Zip	33174	33174	33174	Zip														
20210813964936566	Zip	91364	91364	91364	Zip														
20210813964936567	Zip	4430	4430	4430	Zip														
20210813964936568	Zip	77066	77066	77066	Zip														
20210813964936569	Zip	53209	53209	53209	Zip														
20210813964936570	Zip	46614	46614	46614	Zip														
20210813964936571	Zip	2885	2885	2885	Zip														
20210813964936572	Zip	44423	44423	44423	Zip														
20210813964936573	Zip	96731	96731	96731	Zip														
20210813964936574	Zip	34951	34951	34951	Zip														
20210813964936575	Zip	78258	78258	78258	Zip														
20210813964936576	Zip	56003	56003	56003	Zip														
20210813964936577	Zip	14469	14469	14469	Zip														
20210813964936578	Zip	74421	74421	74421	Zip														
20210813964936579	Zip	44201	44201	44201	Zip														
20210813964936580	Zip	35442	35442	35442	Zip														
20210813964936581	Zip	35235	35235	35235	Zip														
20210813964936582	Zip	90094	90094	90094	Zip														
20210813964936583	Zip	27048	27048	27048	Zip														
20210813964936584	Zip	27344	27344	27344	Zip														
20210813964936585	Zip	75844	75844	75844	Zip														
20210813964936586	Zip	45245	45245	45245	Zip														
20210813964936587	Zip	14471	14471	14471	Zip														
20210813964936588	Zip	77022	77022	77022	Zip														
20210813964936589	Zip	74735	74735	74735	Zip														
20210813964936590	Zip	54854	54854	54854	Zip														
20210813964936591	Zip	57201	57201	57201	Zip														
20210813964936592	Zip	55379	55379	55379	Zip														
20210813964936593	Zip	47648	47648	47648	Zip														
20210813964936594	Zip	60131	60131	60131	Zip														
20210813964936595	Zip	61529	61529	61529	Zip														
20210813964936596	Zip	29550	29550	29550	Zip														
20210813964936597	Zip	29575	29575	29575	Zip														
20210813964936598	Zip	98611	98611	98611	Zip														
20210813964936599	Zip	49271	49271	49271	Zip														
20210813964936600	Zip	67118	67118	67118	Zip														
20210813964936601	Zip	33844	33844	33844	Zip														
20210813964936602	Zip	53208	53208	53208	Zip														
20210813964936603	Zip	37110	37110	37110	Zip														
20210813964936604	Zip	28610	28610	28610	Zip														
20210813964936605	Zip	17764	17764	17764	Zip														
20210813964936606	Zip	90062	90062	90062	Zip														
20210813964936607	Zip	76856	76856	76856	Zip														
20210813964936608	Zip	85730	85730	85730	Zip														
20210813964936609	Zip	44125	44125	44125	Zip														
20210813964936610	Zip	78147	78147	78147	Zip														
20210813964936611	Zip	76119	76119	76119	Zip														
20210813964936612	Zip	30805	30805	30805	Zip														
20210813964936613	Zip	80446	80446	80446	Zip														
20210813964936614	Zip	74878	74878	74878	Zip														
20210813964936615	Zip	33141	33141	33141	Zip														
20210813964936616	Zip	95521	95521	95521	Zip														
20210813964936617	Zip	41005	41005	41005	Zip														
20210813964936618	Zip	29210	29210	29210	Zip														
20210813964936619	Zip	92581	92581	92581	Zip														
20210813964936620	Zip	6877	6877	6877	Zip														
20210813964936621	Zip	48612	48612	48612	Zip														
20210813964936622	Zip	14580	14580	14580	Zip														
20210813964936623	Zip	4096	4096	4096	Zip														
20210813964936624	Zip	23405	23405	23405	Zip														
20210813964936625	Zip	45005	45005	45005	Zip														
20210813964936626	Zip	66085	66085	66085	Zip														
20210813964936627	Zip	29306	29306	29306	Zip														
20210813964936628	Zip	61542	61542	61542	Zip														
20210813964936629	Zip	50459	50459	50459	Zip														
20210813964936630	Zip	36455	36455	36455	Zip														
20210813964936631	Zip	33437	33437	33437	Zip														
20210813964936632	Zip	44123	44123	44123	Zip														
20210813964936633	Zip	25314	25314	25314	Zip														
20210813964936634	Zip	91763	91763	91763	Zip														
20210813964936635	Zip	70665	70665	70665	Zip														
20210813964936636	Zip	97443	97443	97443	Zip														
20210813964936637	Zip	95120	95120	95120	Zip														
20210813964936638	Zip	66043	66043	66043	Zip														
20210813964936639	Zip	15646	15646	15646	Zip														
20210813964936640	Zip	47334	47334	47334	Zip														
20210813964936641	Zip	48111	48111	48111	Zip														
20210813964936642	Zip	30008	30008	30008	Zip														
20210813964936643	Zip	33511	33511	33511	Zip														
20210813964936644	Zip	95452	95452	95452	Zip														
20210813964936645	Zip	85718	85718	85718	Zip														
20210813964936646	Zip	37350	37350	37350	Zip														
20210813964936647	Zip	85608	85608	85608	Zip														
20210813964936648	Zip	60586	60586	60586	Zip														
20210813964936649	Zip	42724	42724	42724	Zip														
20210813964936650	Zip	28340	28340	28340	Zip														
20210813964936651	Zip	14706	14706	14706	Zip														
20210813964936652	Zip	75125	75125	75125	Zip														
20210813964936653	Zip	33183	33183	33183	Zip														
20210813964936654	Zip	75077	75077	75077	Zip														
20210813964936655	Zip	45420	45420	45420	Zip														
20210813964936656	Zip	72943	72943	72943	Zip														
20210813964936657	Zip	96789	96789	96789	Zip														
20210813964936658	Zip	15228	15228	15228	Zip														
20210813964936659	Zip	19605	19605	19605	Zip														
20210813964936660	Zip	23435	23435	23435	Zip														
20210813964936661	Zip	3062	3062	3062	Zip														
20210813964936662	Zip	55045	55045	55045	Zip														
20210813964936663	Zip	55330	55330	55330	Zip														
20210813964936664	Zip	40440	40440	40440	Zip														
20210813964936665	Zip	5821	5821	5821	Zip														
20210813964936666	Zip	89424	89424	89424	Zip														
20210813964936667	Zip	34472	34472	34472	Zip														
20210813964936668	Zip	54615	54615	54615	Zip														
20210813964936669	Zip	37701	37701	37701	Zip														
20210813964936670	Zip	37128	37128	37128	Zip														
20210813964936671	Zip	49055	49055	49055	Zip														
20210813964936672	Zip	45889	45889	45889	Zip														
20210813964936673	Zip	94129	94129	94129	Zip														
20210813964936674	Zip	41017	41017	41017	Zip														
20210813964936675	Zip	76518	76518	76518	Zip														
20210813964936676	Zip	80903	80903	80903	Zip														
20210813964936677	Zip	91320	91320	91320	Zip														
20210813964936678	Zip	62626	62626	62626	Zip														
20210813964936679	Zip	66436	66436	66436	Zip														
20210813964936680	Zip	48334	48334	48334	Zip														
20210813964936681	Zip	7439	7439	7439	Zip														
20210813964936682	Zip	96022	96022	96022	Zip														
20210813964936683	Zip	38580	38580	38580	Zip														
20210813964936684	Zip	10804	10804	10804	Zip														
20210813964936685	Zip	46075	46075	46075	Zip														
20210813964936686	Zip	36275	36275	36275	Zip														
20210813964936687	Zip	80916	80916	80916	Zip														
20210813964936688	Zip	91201	91201	91201	Zip														
20210813964936689	Zip	13808	13808	13808	Zip														
20210813964936690	Zip	33440	33440	33440	Zip														
20210813964936691	Zip	29003	29003	29003	Zip														
20210813964936692	Zip	99654	99654	99654	Zip														
20210813964936693	Zip	16061	16061	16061	Zip														
20210813964936694	Zip	28273	28273	28273	Zip														
20210813964936695	Zip	76950	76950	76950	Zip														
20210813964936696	Zip	21784	21784	21784	Zip														
20210813964936697	Zip	66411	66411	66411	Zip														
20210813964936698	Zip	71049	71049	71049	Zip														
20210813964936699	Zip	75638	75638	75638	Zip														
20210813964936700	Zip	38119	38119	38119	Zip														
20210813964936701	Zip	80535	80535	80535	Zip														
20210813964936702	Zip	53033	53033	53033	Zip														
20210813964936703	Zip	6513	6513	6513	Zip														
20210813964936704	Zip	28120	28120	28120	Zip														
20210813964936705	Zip	83672	83672	83672	Zip														
20210813964936706	Zip	16504	16504	16504	Zip														
20210813964936707	Zip	20111	20111	20111	Zip														
20210813964936708	Zip	47951	47951	47951	Zip														
20210813964936709	Zip	94560	94560	94560	Zip														
20210813964936710	Zip	15332	15332	15332	Zip														
20210813964936711	Zip	55976	55976	55976	Zip														
20210813964936712	Zip	41774	41774	41774	Zip														
20210813964936713	Zip	33957	33957	33957	Zip														
20210813964936714	Zip	84740	84740	84740	Zip														
20210813964936715	Zip	31807	31807	31807	Zip														
20210813964936716	Zip	98370	98370	98370	Zip														
20210813964936717	Zip	28461	28461	28461	Zip														
20210813964936718	Zip	46256	46256	46256	Zip														
20210813964936719	Zip	21629	21629	21629	Zip														
20210813964936720	Zip	99021	99021	99021	Zip														
20210813964936721	Zip	57039	57039	57039	Zip														
20210813964936722	Zip	63146	63146	63146	Zip														
20210813964936723	Zip	30097	30097	30097	Zip														
20210813964936724	Zip	37743	37743	37743	Zip														
20210813964936725	Zip	71740	71740	71740	Zip														
20210813964936726	Zip	42352	42352	42352	Zip														
20210813964936727	Zip	48768	48768	48768	Zip														
20210813964936728	Zip	15443	15443	15443	Zip														
20210813964936729	Zip	30141	30141	30141	Zip														
20210813964936730	Zip	97005	97005	97005	Zip														
20210813964936731	Zip	78606	78606	78606	Zip														
20210813964936732	Zip	15312	15312	15312	Zip														
20210813964936733	Zip	75773	75773	75773	Zip														
20210813964936734	Zip	68507	68507	68507	Zip														
20210813964936735	Zip	17603	17603	17603	Zip														
20210813964936736	Zip	10950	10950	10950	Zip														
20210813964936737	Zip	78257	78257	78257	Zip														
20210813964936738	Zip	6870	6870	6870	Zip														
20210813964936739	Zip	63017	63017	63017	Zip														
20210813964936740	Zip	33155	33155	33155	Zip														
20210813964936741	Zip	97055	97055	97055	Zip														
20210813964936742	Zip	22043	22043	22043	Zip														
20210813964936743	Zip	8830	8830	8830	Zip														
20210813964936744	Zip	26354	26354	26354	Zip														
20210813964936745	Zip	80104	80104	80104	Zip														
20210813964936746	Zip	72201	72201	72201	Zip														
20210813964936747	Zip	44667	44667	44667	Zip														
20210813964936748	Zip	77957	77957	77957	Zip														
20210813964936749	Zip	98245	98245	98245	Zip														
20210813964936750	Zip	77859	77859	77859	Zip														
20210813964936751	Zip	35175	35175	35175	Zip														
20210813964936752	Zip	60160	60160	60160	Zip														
20210813964936753	Zip	15012	15012	15012	Zip														
20210813964936754	Zip	5446	5446	5446	Zip														
20210813964936755	Zip	81006	81006	81006	Zip														
20210813964936756	Zip	98199	98199	98199	Zip														
20210813964936757	Zip	61107	61107	61107	Zip														
20210813964936758	Zip	19403	19403	19403	Zip														
20210813964936759	Zip	67502	67502	67502	Zip														
20210813964936760	Zip	56441	56441	56441	Zip														
20210813964936761	Zip	60563	60563	60563	Zip														
20210813964936762	Zip	25140	25140	25140	Zip														
20210813964936763	Zip	44021	44021	44021	Zip														
20210813964936764	Zip	85131	85131	85131	Zip														
20210813964936765	Zip	98403	98403	98403	Zip														
20210813964936766	Zip	30457	30457	30457	Zip														
20210813964936767	Zip	34688	34688	34688	Zip														
20210813964936768	Zip	2052	2052	2052	Zip														
20210813964936769	Zip	64505	64505	64505	Zip														
20210813964936770	Zip	36401	36401	36401	Zip														
20210813964936771	Zip	49274	49274	49274	Zip														
20210813964936772	Zip	48507	48507	48507	Zip														
20210813964936773	Zip	52349	52349	52349	Zip														
20210813964936774	Zip	39645	39645	39645	Zip														
20210813964936775	Zip	94952	94952	94952	Zip														
20210813964936776	Zip	38011	38011	38011	Zip														
20210813964936777	Zip	23513	23513	23513	Zip														
20210813964936778	Zip	34608	34608	34608	Zip														
20210813964936779	Zip	66512	66512	66512	Zip														
20210813964936780	Zip	55807	55807	55807	Zip														
20210813964936781	Zip	61876	61876	61876	Zip														
20210813964936782	Zip	48306	48306	48306	Zip														
20210813964936783	Zip	84020	84020	84020	Zip														
20210813964936784	Zip	16415	16415	16415	Zip														
20210813964936785	Zip	27932	27932	27932	Zip														
20210813964936786	Zip	75969	75969	75969	Zip														
20210813964936787	Zip	23605	23605	23605	Zip														
20210813964936788	Zip	33172	33172	33172	Zip														
20210813964936789	Zip	68642	68642	68642	Zip														
20210813964936790	Zip	60070	60070	60070	Zip														
20210813964936791	Zip	35763	35763	35763	Zip														
20210813964936792	Zip	8088	8088	8088	Zip														
20210813964936793	Zip	11225	11225	11225	Zip														
20210813964936794	Zip	29940	29940	29940	Zip														
20210813964936795	Zip	15137	15137	15137	Zip														
20210813964936796	Zip	90048	90048	90048	Zip														
20210813964936797	Zip	14005	14005	14005	Zip														
20210813964936798	Zip	36610	36610	36610	Zip														
20210813964936799	Zip	75757	75757	75757	Zip														
20210813964936800	Zip	10460	10460	10460	Zip														
20210813964936801	Zip	33950	33950	33950	Zip														
20210813964936802	Zip	30501	30501	30501	Zip														
20210813964936803	Zip	44618	44618	44618	Zip														
20210813964936804	Zip	76266	76266	76266	Zip														
20210813964936805	Zip	91367	91367	91367	Zip														
20210813964936806	Zip	33025	33025	33025	Zip														
20210813964936807	Zip	45679	45679	45679	Zip														
20210813964936808	Zip	28145	28145	28145	Zip														
20210813964936809	Zip	25504	25504	25504	Zip														
20210813964936810	Zip	2721	2721	2721	Zip														
20210813964936811	Zip	49099	49099	49099	Zip														
20210813964936812	Zip	60501	60501	60501	Zip														
20210813964936813	Zip	1952	1952	1952	Zip														
20210813964936814	Zip	29511	29511	29511	Zip														
20210813964936815	Zip	46368	46368	46368	Zip														
20210813964936816	Zip	70563	70563	70563	Zip														
20210813964936817	Zip	14606	14606	14606	Zip														
20210813964936818	Zip	97630	97630	97630	Zip														
20210813964936819	Zip	44641	44641	44641	Zip														
20210813964936820	Zip	85297	85297	85297	Zip														
20210813964936821	Zip	75063	75063	75063	Zip														
20210813964936822	Zip	25045	25045	25045	Zip														
20210813964936823	Zip	83464	83464	83464	Zip														
20210813964936824	Zip	61104	61104	61104	Zip														
20210813964936825	Zip	33146	33146	33146	Zip														
20210813964936826	Zip	64150	64150	64150	Zip														
20210813964936827	Zip	30040	30040	30040	Zip														
20210813964936828	Zip	37722	37722	37722	Zip														
20210813964936829	Zip	33308	33308	33308	Zip														
20210813964936830	Zip	44827	44827	44827	Zip														
20210813964936831	Zip	63109	63109	63109	Zip														
20210813964936832	Zip	94603	94603	94603	Zip														
20210813964936833	Zip	64093	64093	64093	Zip														
20210813964936834	Zip	8036	8036	8036	Zip														
20210813964936835	Zip	61109	61109	61109	Zip														
20210813964936836	Zip	97635	97635	97635	Zip														
20210813964936837	Zip	7642	7642	7642	Zip														
20210813964936838	Zip	70821	70821	70821	Zip														
20210813964936839	Zip	53012	53012	53012	Zip														
20210813964936840	Zip	46208	46208	46208	Zip														
20210813964936841	Zip	28584	28584	28584	Zip														
20210813964936842	Zip	37152	37152	37152	Zip														
20210813964936843	Zip	77656	77656	77656	Zip														
20210813964936844	Zip	10461	10461	10461	Zip														
20210813964936845	Zip	55718	55718	55718	Zip														
20210813964936846	Zip	16830	16830	16830	Zip														
20210813964936847	Zip	31803	31803	31803	Zip														
20210813964936848	Zip	91403	91403	91403	Zip														
20210813964936849	Zip	48642	48642	48642	Zip														
20210813964936850	Zip	60633	60633	60633	Zip														
20210813964936851	Zip	45693	45693	45693	Zip														
20210813964936852	Zip	32112	32112	32112	Zip														
20210813964936853	Zip	71232	71232	71232	Zip														
20210813964936854	Zip	33056	33056	33056	Zip														
20210813964936855	Zip	75554	75554	75554	Zip														
20210813964936856	Zip	49084	49084	49084	Zip														
20210813964936857	Zip	5077	5077	5077	Zip														
20210813964936858	Zip	74848	74848	74848	Zip														
20210813964936859	Zip	17842	17842	17842	Zip														
20210813964936860	Zip	94541	94541	94541	Zip														
20210813964936861	Zip	39110	39110	39110	Zip														
20210813964936862	Zip	11749	11749	11749	Zip														
20210813964936863	Zip	19021	19021	19021	Zip														
20210813964936864	Zip	68144	68144	68144	Zip														
20210813964936865	Zip	35594	35594	35594	Zip														
20210813964936866	Zip	27505	27505	27505	Zip														
20210813964936867	Zip	97212	97212	97212	Zip														
20210813964936868	Zip	37922	37922	37922	Zip														
20210813964936869	Zip	55060	55060	55060	Zip														
20210813964936870	Zip	92672	92672	92672	Zip														
20210813964936871	Zip	70817	70817	70817	Zip														
20210813964936872	Zip	50322	50322	50322	Zip														
20210813964936873	Zip	25958	25958	25958	Zip														
20210813964936874	Zip	63351	63351	63351	Zip														
20210813964936875	Zip	45417	45417	45417	Zip														
20210813964936876	Zip	33579	33579	33579	Zip														
20210813964936877	Zip	61820	61820	61820	Zip														
20210813964936878	Zip	36869	36869	36869	Zip														
20210813964936879	Zip	32141	32141	32141	Zip														
20210813964936880	Zip	45879	45879	45879	Zip														
20210813964936881	Zip	72126	72126	72126	Zip														
20210813964936882	Zip	29369	29369	29369	Zip														
20210813964936883	Zip	13753	13753	13753	Zip														
20210813964936884	Zip	35976	35976	35976	Zip														
20210813964936885	Zip	54667	54667	54667	Zip														
20210813964936886	Zip	48879	48879	48879	Zip														
20210813964936887	Zip	52001	52001	52001	Zip														
20210813964936888	Zip	77020	77020	77020	Zip														
20210813964936889	Zip	71351	71351	71351	Zip														
20210813964936890	Zip	39180	39180	39180	Zip														
20210813964936891	Zip	60544	60544	60544	Zip														
20210813964936892	Zip	3242	3242	3242	Zip														
20210813964936893	Zip	6820	6820	6820	Zip														
20210813964936894	Zip	53115	53115	53115	Zip														
20210813964936895	Zip	28088	28088	28088	Zip														
20210813964936896	Zip	44146	44146	44146	Zip														
20210813964936897	Zip	27845	27845	27845	Zip														
20210813964936898	Zip	2129	2129	2129	Zip														
20210813964936899	Zip	13326	13326	13326	Zip														
20210813964936900	Zip	27253	27253	27253	Zip														
20210813964936901	Zip	40311	40311	40311	Zip														
20210813964936902	Zip	70739	70739	70739	Zip														
20210813964936903	Zip	91731	91731	91731	Zip														
20210813964936904	Zip	8210	8210	8210	Zip														
20210813964936905	Zip	48066	48066	48066	Zip														
20210813964936906	Zip	19444	19444	19444	Zip														
20210813964936907	Zip	48065	48065	48065	Zip														
20210813964936908	Zip	14171	14171	14171	Zip														
20210813964936909	Zip	37419	37419	37419	Zip														
20210813964936910	Zip	40511	40511	40511	Zip														
20210813964936911	Zip	91106	91106	91106	Zip														
20210813964936912	Zip	62001	62001	62001	Zip														
20210813964936913	Zip	45056	45056	45056	Zip														
20210813964936914	Zip	1588	1588	1588	Zip														
20210813964936915	Zip	64130	64130	64130	Zip														
20210813964936916	Zip	56431	56431	56431	Zip														
20210813964936917	Zip	18914	18914	18914	Zip														
20210813964936918	Zip	28101	28101	28101	Zip														
20210813964936919	Zip	6855	6855	6855	Zip														
20210813964936920	Zip	19013	19013	19013	Zip														
20210813964936921	Zip	97051	97051	97051	Zip														
20210813964936922	Zip	11772	11772	11772	Zip														
20210813964936923	Zip	14212	14212	14212	Zip														
20210813964936924	Zip	43952	43952	43952	Zip														
20210813964936925	Zip	35019	35019	35019	Zip														
20210813964936926	Zip	47834	47834	47834	Zip														
20210813964936927	Zip	40215	40215	40215	Zip														
20210813964936928	Zip	52033	52033	52033	Zip														
20210813964936929	Zip	26147	26147	26147	Zip														
20210813964936930	Zip	19968	19968	19968	Zip														
20210813964936931	Zip	8203	8203	8203	Zip														
20210813964936932	Zip	14892	14892	14892	Zip														
20210813964936933	Zip	47987	47987	47987	Zip														
20210813964936934	Zip	16508	16508	16508	Zip														
20210813964936935	Zip	85342	85342	85342	Zip														
20210813964936936	Zip	15147	15147	15147	Zip														
20210813964936937	Zip	20755	20755	20755	Zip														
20210813964936938	Zip	56081	56081	56081	Zip														
20210813964936939	Zip	22604	22604	22604	Zip														
20210813964936940	Zip	33325	33325	33325	Zip														
20210813964936941	Zip	63740	63740	63740	Zip														
20210813964936942	Zip	48416	48416	48416	Zip														
20210813964936943	Zip	46126	46126	46126	Zip														
20210813964936944	Zip	45150	45150	45150	Zip														
20210813964936945	Zip	31639	31639	31639	Zip														
20210813964936946	Zip	79357	79357	79357	Zip														
20210813964936947	Zip	93250	93250	93250	Zip														
20210813964936948	Zip	76528	76528	76528	Zip														
20210813964936949	Zip	60954	60954	60954	Zip														
20210813964936950	Zip	68022	68022	68022	Zip														
20210813964936951	Zip	17319	17319	17319	Zip														
20210813964936952	Zip	70726	70726	70726	Zip														
20210813964936953	Zip	17042	17042	17042	Zip														
20210813964936954	Zip	68743	68743	68743	Zip														
20210813964936955	Zip	60176	60176	60176	Zip														
20210813964936956	Zip	8723	8723	8723	Zip														
20210813964936957	Zip	54448	54448	54448	Zip														
20210813964936958	Zip	72120	72120	72120	Zip														
20210813964936959	Zip	77479	77479	77479	Zip														
20210813964936960	Zip	33914	33914	33914	Zip														
20210813964936961	Zip	4989	4989	4989	Zip														
20210813964936962	Zip	16641	16641	16641	Zip														
20210813964936963	Zip	57276	57276	57276	Zip														
20210813964936964	Zip	33461	33461	33461	Zip														
20210813964936965	Zip	6076	6076	6076	Zip														
20210813964936966	Zip	78676	78676	78676	Zip														
20210813964936967	Zip	51041	51041	51041	Zip														
20210813964936968	Zip	95355	95355	95355	Zip														
20210813964936969	Zip	18964	18964	18964	Zip														
20210813964936970	Zip	15084	15084	15084	Zip														
20210813964936971	Zip	80305	80305	80305	Zip														
20210813964936972	Zip	64501	64501	64501	Zip														
20210813964936973	Zip	92376	92376	92376	Zip														
20210813964936974	Zip	60630	60630	60630	Zip														
20210813964936975	Zip	6810	6810	6810	Zip														
20210813964936976	Zip	32809	32809	32809	Zip														
20210813964936977	Zip	54901	54901	54901	Zip														
20210813964936978	Zip	20736	20736	20736	Zip														
20210813964936979	Zip	11766	11766	11766	Zip														
20210813964936980	Zip	58733	58733	58733	Zip														
20210813964936981	Zip	48912	48912	48912	Zip														
20210813964936982	Zip	89423	89423	89423	Zip														
20210813964936983	Zip	14467	14467	14467	Zip														
20210813964936984	Zip	32696	32696	32696	Zip														
20210813964936985	Zip	23664	23664	23664	Zip														
20210813964936986	Zip	3054	3054	3054	Zip														
20210813964936987	Zip	55408	55408	55408	Zip														
20210813964936988	Zip	18018	18018	18018	Zip														
20210813964936989	Zip	68760	68760	68760	Zip														
20210813964936990	Zip	20747	20747	20747	Zip														
20210813964936991	Zip	27023	27023	27023	Zip														
20210813964936992	Zip	44512	44512	44512	Zip														
20210813964936993	Zip	71937	71937	71937	Zip														
20210813964936994	Zip	20901	20901	20901	Zip														
20210813964936995	Zip	19601	19601	19601	Zip														
20210813964936996	Zip	46936	46936	46936	Zip														
20210813964936997	Zip	94547	94547	94547	Zip														
20210813964936998	Zip	78628	78628	78628	Zip														
20210813964936999	Zip	29728	29728	29728	Zip														
20210813964937000	Zip	94591	94591	94591	Zip														
20210813964937001	Zip	6518	6518	6518	Zip														
20210813964937002	Zip	23602	23602	23602	Zip														
20210813964937003	Zip	16947	16947	16947	Zip														
20210813964937004	Zip	70558	70558	70558	Zip														
20210813964937005	Zip	12170	12170	12170	Zip														
20210813964937006	Zip	16866	16866	16866	Zip														
20210813964937007	Zip	26250	26250	26250	Zip														
20210813964937008	Zip	8060	8060	8060	Zip														
20210813964937009	Zip	35117	35117	35117	Zip														
20210813964937010	Zip	72562	72562	72562	Zip														
20210813964937011	Zip	10457	10457	10457	Zip														
20210813964937012	Zip	34996	34996	34996	Zip														
20210813964937013	Zip	76063	76063	76063	Zip														
20210813964937014	Zip	30253	30253	30253	Zip														
20210813964937015	Zip	22405	22405	22405	Zip														
20210813964937016	Zip	12122	12122	12122	Zip														
20210813964937017	Zip	75081	75081	75081	Zip														
20210813964937018	Zip	56167	56167	56167	Zip														
20210813964937019	Zip	33707	33707	33707	Zip														
20210813964937020	Zip	30442	30442	30442	Zip														
20210813964937021	Zip	11103	11103	11103	Zip														
20210813964937022	Zip	39169	39169	39169	Zip														
20210813964937023	Zip	7076	7076	7076	Zip														
20210813964937024	Zip	60451	60451	60451	Zip														
20210813964937025	Zip	26230	26230	26230	Zip														
20210813964937026	Zip	12919	12919	12919	Zip														
20210813964937027	Zip	78738	78738	78738	Zip														
20210813964937028	Zip	46807	46807	46807	Zip														
20210813964937029	Zip	11105	11105	11105	Zip														
20210813964937030	Zip	44111	44111	44111	Zip														
20210813964937031	Zip	70447	70447	70447	Zip														
20210813964937032	Zip	13669	13669	13669	Zip														
20210813964937033	Zip	21053	21053	21053	Zip														
20210813964937034	Zip	65682	65682	65682	Zip														
20210813964937035	Zip	33441	33441	33441	Zip														
20210813964937036	Zip	11550	11550	11550	Zip														
20210813964937037	Zip	23970	23970	23970	Zip														
20210813964937038	Zip	15136	15136	15136	Zip														
20210813964937039	Zip	64128	64128	64128	Zip														
20210813964937040	Zip	17074	17074	17074	Zip														
20210813964937041	Zip	38127	38127	38127	Zip														
20210813964937042	Zip	46406	46406	46406	Zip														
20210813964937043	Zip	91103	91103	91103	Zip														
20210813964937044	Zip	79009	79009	79009	Zip														
20210813964937045	Zip	30125	30125	30125	Zip														
20210813964937046	Zip	48442	48442	48442	Zip														
20210813964937047	Zip	90255	90255	90255	Zip														
20210813964937048	Zip	49010	49010	49010	Zip														
20210813964937049	Zip	19067	19067	19067	Zip														
20210813964937050	Zip	62814	62814	62814	Zip														
20210813964937051	Zip	18439	18439	18439	Zip														
20210813964937052	Zip	52567	52567	52567	Zip														
20210813964937053	Zip	11417	11417	11417	Zip														
20210813964937054	Zip	86432	86432	86432	Zip														
20210813964937055	Zip	28704	28704	28704	Zip														
20210813964937056	Zip	22701	22701	22701	Zip														
20210813964937057	Zip	33936	33936	33936	Zip														
20210813964937058	Zip	44278	44278	44278	Zip														
20210813964937059	Zip	72751	72751	72751	Zip														
20210813964937060	Zip	33023	33023	33023	Zip														
20210813964937061	Zip	50021	50021	50021	Zip														
20210813964937062	Zip	59230	59230	59230	Zip														
20210813964937063	Zip	48809	48809	48809	Zip														
20210813964937064	Zip	32053	32053	32053	Zip														
20210813964937065	Zip	47117	47117	47117	Zip														
20210813964937066	Zip	85334	85334	85334	Zip														
20210813964937067	Zip	45371	45371	45371	Zip														
20210813964937068	Zip	75241	75241	75241	Zip														
20210813964937069	Zip	56469	56469	56469	Zip														
20210813964937070	Zip	76118	76118	76118	Zip														
20210813964937071	Zip	45211	45211	45211	Zip														
20210813964937072	Zip	70056	70056	70056	Zip														
20210813964937073	Zip	75044	75044	75044	Zip														
20210813964937074	Zip	45044	45044	45044	Zip														
20210813964937075	Zip	70047	70047	70047	Zip														
20210813964937076	Zip	29646	29646	29646	Zip														
20210813964937077	Zip	40828	40828	40828	Zip														
20210813964937078	Zip	31333	31333	31333	Zip														
20210813964937079	Zip	29576	29576	29576	Zip														
20210813964937080	Zip	48837	48837	48837	Zip														
20210813964937081	Zip	6089	6089	6089	Zip														
20210813964937082	Zip	74818	74818	74818	Zip														
20210813964937083	Zip	13118	13118	13118	Zip														
20210813964937084	Zip	52159	52159	52159	Zip														
20210813964937085	Zip	32433	32433	32433	Zip														
20210813964937086	Zip	27542	27542	27542	Zip														
20210813964937087	Zip	62016	62016	62016	Zip														
20210813964937088	Zip	11777	11777	11777	Zip														
20210813964937089	Zip	48473	48473	48473	Zip														
20210813964937090	Zip	93720	93720	93720	Zip														
20210813964937091	Zip	77040	77040	77040	Zip														
20210813964937092	Zip	21620	21620	21620	Zip														
20210813964937093	Zip	17331	17331	17331	Zip														
20210813964937094	Zip	42441	42441	42441	Zip														
20210813964937095	Zip	89460	89460	89460	Zip														
20210813964937096	Zip	77373	77373	77373	Zip														
20210813964937097	Zip	67356	67356	67356	Zip														
20210813964937098	Zip	94903	94903	94903	Zip														
20210813964937099	Zip	30904	30904	30904	Zip														
20210813964937100	Zip	29544	29544	29544	Zip														
20210813964937101	Zip	14072	14072	14072	Zip														
20210813964937102	Zip	4294	4294	4294	Zip														
20210813964937103	Zip	35576	35576	35576	Zip														
20210813964937104	Zip	99403	99403	99403	Zip														
20210813964937105	Zip	89141	89141	89141	Zip														
20210813964937106	Zip	60073	60073	60073	Zip														
20210813964937107	Zip	93514	93514	93514	Zip														
20210813964937108	Zip	34205	34205	34205	Zip														
20210813964937109	Zip	71108	71108	71108	Zip														
20210813964937110	Zip	57577	57577	57577	Zip														
20210813964937111	Zip	38769	38769	38769	Zip														
20210813964937112	Zip	74301	74301	74301	Zip														
20210813964937113	Zip	90270	90270	90270	Zip														
20210813964937114	Zip	60401	60401	60401	Zip														
20210813964937115	Zip	39828	39828	39828	Zip														
20210813964937116	Zip	85344	85344	85344	Zip														
20210813964937117	Zip	92502	92502	92502	Zip														
20210813964937118	Zip	60616	60616	60616	Zip														
20210813964937119	Zip	88020	88020	88020	Zip														
20210813964937120	Zip	49103	49103	49103	Zip														
20210813964937121	Zip	79329	79329	79329	Zip														
20210813964937122	Zip	11762	11762	11762	Zip														
20210813964937123	Zip	83646	83646	83646	Zip														
20210813964937124	Zip	38230	38230	38230	Zip														
20210813964937125	Zip	2053	2053	2053	Zip														
20210813964937126	Zip	75573	75573	75573	Zip														
20210813964937127	Zip	21234	21234	21234	Zip														
20210813964937128	Zip	44661	44661	44661	Zip														
20210813964937129	Zip	77979	77979	77979	Zip														
20210813964937130	Zip	95472	95472	95472	Zip														
20210813964937131	Zip	19730	19730	19730	Zip														
20210813964937132	Zip	78802	78802	78802	Zip														
20210813964937133	Zip	78114	78114	78114	Zip														
20210813964937134	Zip	31093	31093	31093	Zip														
20210813964937135	Zip	40504	40504	40504	Zip														
20210813964937136	Zip	56554	56554	56554	Zip														
20210813964937137	Zip	38117	38117	38117	Zip														
20210813964937138	Zip	44817	44817	44817	Zip														
20210813964937139	Zip	14221	14221	14221	Zip														
20210813964937140	Zip	66853	66853	66853	Zip														
20210813964937141	Zip	36276	36276	36276	Zip														
20210813964937142	Zip	34207	34207	34207	Zip														
20210813964937143	Zip	7871	7871	7871	Zip														
20210813964937144	Zip	78576	78576	78576	Zip														
20210813964937145	Zip	62674	62674	62674	Zip														
20210813964937146	Zip	94931	94931	94931	Zip														
20210813964937147	Zip	86312	86312	86312	Zip														
20210813964937148	Zip	85622	85622	85622	Zip														
20210813964937149	Zip	29455	29455	29455	Zip														
20210813964937150	Zip	77632	77632	77632	Zip														
20210813964937151	Zip	31716	31716	31716	Zip														
20210813964937152	Zip	49228	49228	49228	Zip														
20210813964937153	Zip	30817	30817	30817	Zip														
20210813964937154	Zip	30025	30025	30025	Zip														
20210813964937155	Zip	92562	92562	92562	Zip														
20210813964937156	Zip	91604	91604	91604	Zip														
20210813964937157	Zip	27356	27356	27356	Zip														
20210813964937158	Zip	78411	78411	78411	Zip														
20210813964937159	Zip	95640	95640	95640	Zip														
20210813964937160	Zip	1520	1520	1520	Zip														
20210813964937161	Zip	4011	4011	4011	Zip														
20210813964937162	Zip	33534	33534	33534	Zip														
20210813964937163	Zip	48393	48393	48393	Zip														
20210813964937164	Zip	23451	23451	23451	Zip														
20210813964937165	Zip	44140	44140	44140	Zip														
20210813964937166	Zip	86043	86043	86043	Zip														
20210813964937167	Zip	22901	22901	22901	Zip														
20210813964937168	Zip	8742	8742	8742	Zip														
20210813964937169	Zip	93240	93240	93240	Zip														
20210813964937170	Zip	19151	19151	19151	Zip														
20210813964937171	Zip	43469	43469	43469	Zip														
20210813964937172	Zip	93433	93433	93433	Zip														
20210813964937173	Zip	86314	86314	86314	Zip														
20210813964937174	Zip	62226	62226	62226	Zip														
20210813964937175	Zip	73127	73127	73127	Zip														
20210813964937176	Zip	11751	11751	11751	Zip														
20210813964937177	Zip	34231	34231	34231	Zip														
20210813964937178	Zip	33607	33607	33607	Zip														
20210813964937179	Zip	8904	8904	8904	Zip														
20210813964937180	Zip	92026	92026	92026	Zip														
20210813964937181	Zip	34785	34785	34785	Zip														
20210813964937182	Zip	90001	90001	90001	Zip														
20210813964937183	Zip	79382	79382	79382	Zip														
20210813964937184	Zip	44319	44319	44319	Zip														
20210813964937185	Zip	38672	38672	38672	Zip														
20210813964937186	Zip	73120	73120	73120	Zip														
20210813964937187	Zip	32824	32824	32824	Zip														
20210813964937188	Zip	32966	32966	32966	Zip														
20210813964937189	Zip	62454	62454	62454	Zip														
20210813964937190	Zip	33133	33133	33133	Zip														
20210813964937191	Zip	46319	46319	46319	Zip														
20210813964937192	Zip	47421	47421	47421	Zip														
20210813964937193	Zip	40258	40258	40258	Zip														
20210813964937194	Zip	3079	3079	3079	Zip														
20210813964937195	Zip	33150	33150	33150	Zip														
20210813964937196	Zip	87002	87002	87002	Zip														
20210813964937197	Zip	23229	23229	23229	Zip														
20210813964937198	Zip	97227	97227	97227	Zip														
20210813964937199	Zip	6335	6335	6335	Zip														
20210813964937200	Zip	55117	55117	55117	Zip														
20210813964937201	Zip	33704	33704	33704	Zip														
20210813964937202	Zip	39440	39440	39440	Zip														
20210813964937203	Zip	10039	10039	10039	Zip														
20210813964937204	Zip	7446	7446	7446	Zip														
20210813964937205	Zip	39476	39476	39476	Zip														
20210813964937206	Zip	28128	28128	28128	Zip														
20210813964937207	Zip	2019	2019	2019	Zip														
20210813964937208	Zip	95112	95112	95112	Zip														
20210813964937209	Zip	94539	94539	94539	Zip														
20210813964937210	Zip	27534	27534	27534	Zip														
20210813964937211	Zip	39211	39211	39211	Zip														
20210813964937212	Zip	44118	44118	44118	Zip														
20210813964937213	Zip	7652	7652	7652	Zip														
20210813964937214	Zip	27106	27106	27106	Zip														
20210813964937215	Zip	63133	63133	63133	Zip														
20210813964937216	Zip	35904	35904	35904	Zip														
20210813964937217	Zip	99114	99114	99114	Zip														
20210813964937218	Zip	48023	48023	48023	Zip														
20210813964937219	Zip	30467	30467	30467	Zip														
20210813964937220	Zip	13219	13219	13219	Zip														
20210813964937221	Zip	99115	99115	99115	Zip														
20210813964937222	Zip	33948	33948	33948	Zip														
20210813964937223	Zip	19958	19958	19958	Zip														
20210813964937224	Zip	57078	57078	57078	Zip														
20210813964937225	Zip	7626	7626	7626	Zip														
20210813964937226	Zip	11433	11433	11433	Zip														
20210813964937227	Zip	79107	79107	79107	Zip														
20210813964937228	Zip	96797	96797	96797	Zip														
20210813964937229	Zip	11368	11368	11368	Zip														
20210813964937230	Zip	29302	29302	29302	Zip														
20210813964937231	Zip	7032	7032	7032	Zip														
20210813964937232	Zip	37403	37403	37403	Zip														
20210813964937233	Zip	43236	43236	43236	Zip														
20210813964937234	Zip	49305	49305	49305	Zip														
20210813964937235	Zip	27051	27051	27051	Zip														
20210813964937236	Zip	78757	78757	78757	Zip														
20210813964937237	Zip	24588	24588	24588	Zip														
20210813964937238	Zip	20906	20906	20906	Zip														
20210813964937239	Zip	73053	73053	73053	Zip														
20210813964937240	Zip	28697	28697	28697	Zip														
20210813964937241	Zip	33498	33498	33498	Zip														
20210813964937242	Zip	51601	51601	51601	Zip														
20210813964937243	Zip	41274	41274	41274	Zip														
20210813964937244	Zip	8341	8341	8341	Zip														
20210813964937245	Zip	7079	7079	7079	Zip														
20210813964937246	Zip	93306	93306	93306	Zip														
20210813964937247	Zip	89425	89425	89425	Zip														
20210813964937248	Zip	60564	60564	60564	Zip														
20210813964937249	Zip	64062	64062	64062	Zip														
20210813964937250	Zip	11732	11732	11732	Zip														
20210813964937251	Zip	95503	95503	95503	Zip														
20210813964937252	Zip	32707	32707	32707	Zip														
20210813964937253	Zip	34478	34478	34478	Zip														
20210813964937254	Zip	18062	18062	18062	Zip														
20210813964937255	Zip	99016	99016	99016	Zip														
20210813964937256	Zip	95694	95694	95694	Zip														
20210813964937257	Zip	40229	40229	40229	Zip														
20210813964937258	Zip	63501	63501	63501	Zip														
20210813964937259	Zip	85353	85353	85353	Zip														
20210813964937260	Zip	13206	13206	13206	Zip														
20210813964937261	Zip	91773	91773	91773	Zip														
20210813964937262	Zip	73115	73115	73115	Zip														
20210813964937263	Zip	1906	1906	1906	Zip														
20210813964937264	Zip	53565	53565	53565	Zip														
20210813964937265	Zip	8551	8551	8551	Zip														
20210813964937266	Zip	13407	13407	13407	Zip														
20210813964937267	Zip	3264	3264	3264	Zip														
20210813964937268	Zip	64105	64105	64105	Zip														
20210813964937269	Zip	38343	38343	38343	Zip														
20210813964937270	Zip	33478	33478	33478	Zip														
20210813964937271	Zip	39069	39069	39069	Zip														
20210813964937272	Zip	95111	95111	95111	Zip														
20210813964937273	Zip	64057	64057	64057	Zip														
20210813964937274	Zip	92373	92373	92373	Zip														
20210813964937275	Zip	37083	37083	37083	Zip														
20210813964937276	Zip	47041	47041	47041	Zip														
20210813964937277	Zip	8034	8034	8034	Zip														
20210813964937278	Zip	83854	83854	83854	Zip														
20210813964937279	Zip	32209	32209	32209	Zip														
20210813964937280	Zip	75203	75203	75203	Zip														
20210813964937281	Zip	8638	8638	8638	Zip														
20210813964937282	Zip	72521	72521	72521	Zip														
20210813964937283	Zip	84501	84501	84501	Zip														
20210813964937284	Zip	77331	77331	77331	Zip														
20210813964937285	Zip	48888	48888	48888	Zip														
20210813964937286	Zip	62002	62002	62002	Zip														
20210813964937287	Zip	84058	84058	84058	Zip														
20210813964937288	Zip	30152	30152	30152	Zip														
20210813964937289	Zip	53129	53129	53129	Zip														
20210813964937290	Zip	48706	48706	48706	Zip														
20210813964937291	Zip	16870	16870	16870	Zip														
20210813964937292	Zip	60007	60007	60007	Zip														
20210813964937293	Zip	71354	71354	71354	Zip														
20210813964937294	Zip	84075	84075	84075	Zip														
20210813964937295	Zip	13642	13642	13642	Zip														
20210813964937296	Zip	10044	10044	10044	Zip														
20210813964937297	Zip	78633	78633	78633	Zip														
20210813964937298	Zip	76252	76252	76252	Zip														
20210813964937299	Zip	2863	2863	2863	Zip														
20210813964937300	Zip	28390	28390	28390	Zip														
20210813964937301	Zip	2026	2026	2026	Zip														
20210813964937302	Zip	23875	23875	23875	Zip														
20210813964937303	Zip	18017	18017	18017	Zip														
20210813964937304	Zip	60453	60453	60453	Zip														
20210813964937305	Zip	31620	31620	31620	Zip														
20210813964937306	Zip	85041	85041	85041	Zip														
20210813964937307	Zip	80921	80921	80921	Zip														
20210813964937308	Zip	31092	31092	31092	Zip														
20210813964937309	Zip	90035	90035	90035	Zip														
20210813964937310	Zip	91601	91601	91601	Zip														
20210813964937311	Zip	60042	60042	60042	Zip														
20210813964937312	Zip	10011	10011	10011	Zip														
20210813964937313	Zip	92122	92122	92122	Zip														
20210813964937314	Zip	24312	24312	24312	Zip														
