ID	CLASS	CODE	NAME	LEVEL	SYN1	SYN2	SYN3	SYN4	SYN5	SYN6	SYN7	SYN8	SYN9
7651	Computation	MarketShare	Market Share	static									
7652	Computation	Growth	Growth	static									
7653	Computation	Average	Average	static	avg								
7654	Computation	Contribution	Contribution	static									
7655	Computation	Penetration	Penetration	static									
7656	Computation	Productivity	Productivity	static									
