ID	CLASS	CODE	NAME	DESC	LEVEL	SYN1	SYN2	SYN3	SYN4	SYN5	SYN6	SYN7	SYN8	SYN9	SYN10	SYN11	SYN12
25001	Intent	rolling	Rolling	Rolling	Intent												
25002	Intent	referenceline	referenceline	referenceline	Intent												
