ID	CLASS	CODE	NAME	LEVEL	SYN1	SYN2	SYN3	SYN4	SYN5	SYN6	SYN7	SYN8	SYN9	SYN10
202	IntentObject	dashboard	dashboard	object	my dashboard	dash								
203	IntentObject	alert	alert	object	alerts	watches	flashes							
205	IntentObject	report	report	object	reporting	spreadsheet	data							
207	IntentObject	link	link	object	url	grid								
208	IntentObject	pie	pie	object	pie chart	circle chart	chart a pie	pie graph	pie chart	piechart				
209	IntentObject	bar	bar chart	object	chart bar	chart a bar	bar graph	barchart						
210	IntentObject	line	line chart	object	series chart	trend	chart a line	line graph						
211	IntentObject	stack	stack chart	object	mix	distribution	stack	stacked bar	stacked column					
212	IntentObject	spider	spider	object	spider chart	radar chart	radar	polar chart	web chart	spider chart				
213	IntentObject	100 stack column	100 stack column	object	100% stacked column	100 % stacked column chart	100 stacked column	100 percent stacked column chart	fullstack	100 stacked column chart	100 stack column chart			
214	IntentObject	treemap	treemap	object	tree map	tree map chart	treemap chart	treemap diagram						
215	IntentObject	chart	Chart	object	chart	graph								
216	IntentObject	map	map	object										
217	IntentObject	column	column chart	object	columnar chart	column chart	column							
218	IntentObject	pareto	Pareto Chart	object	pareto	pareto graph	pareto chart	pareto diagram						
219	IntentObject	table	Table	object	list									
220	IntentObject	bubble	Bubble	object	bubble chart									
221	IntentObject	donut	donut	object	donut chart	donut graph	chart a donut							
222	IntentObject	radial	radial	object	radial bar	radial chart	circular bar	circular chart	radial bal chart	circular bar chart	radial graph	circular graph		
223	IntentObject	variwide	variwide	object	variwide chart	variwide column chart	variwide column							
224	IntentObject	variablepie	variablepie	object	variable pie	variablepie chart	variable pie chart	variablepie grapgh	variable pie graph					
225	IntentObject	stack_bar	Stack Bar Chart	object	horizontal stack bar									
226	IntentObject	100 stack radial	100 stack radial	object
227	IntentObject	scatter	scatter chart	object	scatter chart	scatter
228	IntentObject	organization	organization	object organization chart