ID	CLASS	CODE	NAME	DESC	LEVEL	SYN1	SYN2	SYN3	SYN4	SYN5	SYN6	SYN7	SYN8	SYN9	SYN10	SYN11	SYN12	SYN13	SYN14
20210811380705223	additional low dec target	Non - Low Dec Target	Non - Low Dec Target	Non - Low Dec Target	additional low dec target														
20210811380705224	additional low dec target	Low Dec Target	Low Dec Target	Low Dec Target	additional low dec target														
20210811380705225	additional low dec target	Not Applicable	Not Applicable	Not Applicable	additional low dec target														
