ID	CLASS	CODE	NAME	DESC	LEVEL	SYN1	SYN2	SYN3	SYN4	SYN5	SYN6	SYN7	SYN8	SYN9	SYN10	SYN11	SYN12	SYN13	SYN14
20210811500706223	customer subtype	General Public Clinic	General Public Clinic	General Public Clinic	customer subtype														
20210811500706224	customer subtype	Cardio Clinic	Cardio Clinic	Cardio Clinic	customer subtype														
20210811500706225	customer subtype	Cardiology School	Cardiology School	Cardiology School	customer subtype														
20210811500706226	customer subtype	HIV School	HIV School	HIV School	customer subtype														
20210811500706227	customer subtype	Military Hospital	Military Hospital	Military Hospital	customer subtype														
20210811500706228	customer subtype	Medical Doctor	Medical Doctor	Medical Doctor	customer subtype														
20210811500706229	customer subtype	Public Hospital	Public Hospital	Public Hospital	customer subtype														
20210811500706230	customer subtype	Doctor Of Osteopathy	Doctor Of Osteopathy	Doctor Of Osteopathy	customer subtype														
20210811500706231	customer subtype	Nurse Practitioner	Nurse Practitioner	Nurse Practitioner	customer subtype														
20210811500706232	customer subtype	Physician Assistant	Physician Assistant	Physician Assistant	customer subtype														
20210811500706233	customer subtype	Nurse	Nurse	Nurse	customer subtype														
