ID	CLASS	CODE	NAME	DESC	LEVEL	SYN1	SYN2	SYN3	SYN4	SYN5	SYN6	SYN7	SYN8	SYN9	SYN10	SYN11	SYN12	SYN13	SYN14
20210811550706223	district	Central California	Central California	Central California	district														
20210811550706224	district	Detroit	Detroit	Detroit	district														
20210811550706225	district	Washington	Washington	Washington	district														
20210811550706226	district	Arizona	Arizona	Arizona	district														
20210811550706227	district	South Jersey	South Jersey	South Jersey	district														
20210811550706228	district	Green Bay	Green Bay	Green Bay	district														
20210811550706229	district	Eastern	Eastern	Eastern	district														
20210811550706230	district	Manhattan	Manhattan	Manhattan	district														
20210811550706231	district	Seattle	Seattle	Seattle	district														
20210811550706232	district	Chicago	Chicago	Chicago	district														
20210811550706233	district	Hawaii	Hawaii	Hawaii	district														
20210811550706234	district	Grand Rapids	Grand Rapids	Grand Rapids	district														
20210811550706235	district	Lincoln	Lincoln	Lincoln	district														
20210811550706236	district	Central Texas	Central Texas	Central Texas	district														
20210811550706237	district	Baltimore	Baltimore	Baltimore	district														
20210811550706238	district	Atlanta	Atlanta	Atlanta	district														
20210811550706239	district	Kansas	Kansas	Kansas	district														
20210811550706240	district	Iowa North	Iowa North	Iowa North	district														
20210811550706241	district	Cleveland	Cleveland	Cleveland	district														
20210811550706242	district	Houston	Houston	Houston	district														
20210811550706243	district	North Jersey	North Jersey	North Jersey	district														
20210811550706244	district	Upstate	Upstate	Upstate	district														
20210811550706245	district	Raleigh	Raleigh	Raleigh	district														
20210811550706246	district	South Carolina	South Carolina	South Carolina	district														
20210811550706247	district	Pittsburgh	Pittsburgh	Pittsburgh	district														
20210811550706248	district	Dallas	Dallas	Dallas	district														
20210811550706249	district	Hot Springs	Hot Springs	Hot Springs	district														
20210811550706250	district	SC	SC	SC	district														
20210811550706251	district	Boston	Boston	Boston	district														
20210811550706252	district	Wisconsin	Wisconsin	Wisconsin	district														
20210811550706253	district	Southern Texas	Southern Texas	Southern Texas	district														
20210811550706254	district	Indianapolis	Indianapolis	Indianapolis	district														
20210811550706255	district	San Diego	San Diego	San Diego	district														
20210811550706256	district	Cincinnati	Cincinnati	Cincinnati	district														
20210811550706257	district	Charlotte	Charlotte	Charlotte	district														
20210811550706258	district	Louisiana	Louisiana	Louisiana	district														
20210811550706259	district	Philadelphia	Philadelphia	Philadelphia	district														
20210811550706260	district	Louisville	Louisville	Louisville	district														
20210811550706261	district	Kentucky	Kentucky	Kentucky	district														
20210811550706262	district	Alabama	Alabama	Alabama	district														
20210811550706263	district	Los Angeles	Los Angeles	Los Angeles	district														
20210811550706264	district	Tallahassee	Tallahassee	Tallahassee	district														
20210811550706265	district	Southern Virginia	Southern Virginia	Southern Virginia	district														
20210811550706266	district	Western	Western	Western	district														
20210811550706267	district	Virginia	Virginia	Virginia	district														
20210811550706268	district	Brooklyn	Brooklyn	Brooklyn	district														
20210811550706269	district	South Florida	South Florida	South Florida	district														
20210811550706270	district	South Ohio	South Ohio	South Ohio	district														
20210811550706271	district	Southern California	Southern California	Southern California	district														
20210811550706272	district	Tampa	Tampa	Tampa	district														
20210811550706273	district	Orlando	Orlando	Orlando	district														
20210811550706274	district	St. Louis	St. Louis	St. Louis	district														
20210811550706275	district	Southern New England	Southern New England	Southern New England	district														
20210811550706276	district	Ok_North Texas	Ok_North Texas	Ok_North Texas	district														
20210811550706277	district	Springfield	Springfield	Springfield	district														
20210811550706278	district	Tennessee	Tennessee	Tennessee	district														
20210811550706279	district	Northern New England	Northern New England	Northern New England	district														
20210811550706280	district	Milwaukee	Milwaukee	Milwaukee	district														
20210811550706281	district	Iowa	Iowa	Iowa	district														
20210811550706282	district	Central	Central	Central	district														
20210811550706283	district	Rocky Mountain	Rocky Mountain	Rocky Mountain	district														
20210811550706284	district	Iowa_North	Iowa_North	Iowa_North	district														
20210811550706285	district	Delaware	Delaware	Delaware	district														
20210811550706286	district	Minneapolis	Minneapolis	Minneapolis	district														
20210811550706287	district	Minnesota	Minnesota	Minnesota	district														
20210811550706288	district	Northern California	Northern California	Northern California	district														
20210811550706289	district	Phoenix	Phoenix	Phoenix	district														
20210811550706290	district	Charleston	Charleston	Charleston	district														
20210811550706291	district	Western New York	Western New York	Western New York	district														
20210811550706292	district	Nashville	Nashville	Nashville	district														
20210811550706293	district	New York	New York	New York	district														
20210811550706294	district	Redwood Falls	Redwood Falls	Redwood Falls	district														
20210811550706295	district	Northern Texas	Northern Texas	Northern Texas	district														
20210811550706296	district	Hudson Valley	Hudson Valley	Hudson Valley	district														
