ID	CLASS	CODE	NAME	DESC	LEVEL	SYN1	SYN2	SYN3	SYN4	SYN5	SYN6	SYN7	SYN8	SYN9	SYN10	SYN11	SYN12	SYN13	SYN14
20210811560706223	duplicate flag	YES	YES	YES	duplicate flag														
20210811560706224	duplicate flag	NO	NO	NO	duplicate flag														
