ID	CLASS	CODE	NAME	DESC	LEVEL	SYN1	SYN2	SYN3	SYN4	SYN5	SYN6	SYN7	SYN8	SYN9	SYN10	SYN11	SYN12	SYN13	SYN14
20210811650706223	market decile group	Medium Decile	Medium Decile	Medium Decile	market decile group														
20210811650706224	market decile group	High Decile	High Decile	High Decile	market decile group														
20210811650706225	market decile group	Low decile	Low decile	Low decile	market decile group														
