ID	CLASS	CODE	NAME	DESC	LEVEL	Parent	SYN1	SYN2	SYN3	SYN4	SYN5	SYN6	SYN7	SYN8	SYN9	SYN10	SYN11	SYN12	SYN13	SYN14
1025	Metrics	equivalent units	Equivalent Units	Equivalent Units	Base															
1037	Metrics	nrx	NRx	NRx	Base		new prescriptions													
1038	Metrics	nrx units	NRx Units	NRx Units	Base															
1042	Metrics	pdot	PDOT	PDOT	Base															
1069	Metrics	trx	TRx	Number of prescriptions sold	Base		Sales	Volume	Total Prescriptions	Sale										
