ID	CLASS	CODE	NAME	DESC	LEVEL	SYN1	SYN2	SYN3	SYN4	SYN5	SYN6	SYN7	SYN8	SYN9	SYN10	SYN11	SYN12	SYN13	SYN14
20210811670706223	not called flag	Called	Called	Called	not called flag														
20210811670706224	not called flag	Not Called	Not Called	Not Called	not called flag														
