ID	CLASS	CODE	NAME	DESC	LEVEL	SYN1	SYN2	SYN3	SYN4	SYN5	SYN6	SYN7	SYN8	SYN9	SYN10	SYN11	SYN12	SYN13	SYN14
20210811840707223	secondary specialty name	Cardiac Electrophysiology	Cardiac Electrophysiology	Cardiac Electrophysiology	secondary specialty name														
20210811840707224	secondary specialty name	Not Applicable	Not Applicable	Not Applicable	secondary specialty name														
20210811840707225	secondary specialty name	Cardiovascular Diseases	Cardiovascular Diseases	Cardiovascular Diseases	secondary specialty name														
20210811840707226	secondary specialty name	Not Available	Not Available	Not Available	secondary specialty name														
20210811840707227	secondary specialty name	Rheumatology	Rheumatology	Rheumatology	secondary specialty name														
20210811840707228	secondary specialty name	Advanced Nurse	Advanced Nurse	Advanced Nurse	secondary specialty name														
20210811840707229	secondary specialty name	Internal Medicine - Geriatric Medicine	Internal Medicine - Geriatric Medicine	Internal Medicine - Geriatric Medicine	secondary specialty name														
20210811840707230	secondary specialty name	Interventional Cardiology	Interventional Cardiology	Interventional Cardiology	secondary specialty name														
20210811840707231	secondary specialty name	General Practice	General Practice	General Practice	secondary specialty name														
20210811840707232	secondary specialty name	Internal Medicine - Family Practice	Internal Medicine - Family Practice	Internal Medicine - Family Practice	secondary specialty name														
20210811840707233	secondary specialty name	Diabetes	Diabetes	Diabetes	secondary specialty name														
20210811840707234	secondary specialty name	Osteo Manipulative Medicine	Osteo Manipulative Medicine	Osteo Manipulative Medicine	secondary specialty name														
20210811840707235	secondary specialty name	Nuclear Cardiology	Nuclear Cardiology	Nuclear Cardiology	secondary specialty name														
20210811840707236	secondary specialty name	Pediatrics	Pediatrics	Pediatrics	secondary specialty name														
20210811840707237	secondary specialty name	Physical Medicine And Rehab	Physical Medicine And Rehab	Physical Medicine And Rehab	secondary specialty name														
20210811840707238	secondary specialty name	Pediatric Radiology	Pediatric Radiology	Pediatric Radiology	secondary specialty name														
20210811840707239	secondary specialty name	Hematology/Oncology	Hematology/Oncology	Hematology/Oncology	secondary specialty name														
20210811840707240	secondary specialty name	HospPalliative Med-Obstetrics  Gyn	HospPalliative Med-Obstetrics  Gyn	HospPalliative Med-Obstetrics  Gyn	secondary specialty name														
20210811840707241	secondary specialty name	Family Practice - Sports Medicine	Family Practice - Sports Medicine	Family Practice - Sports Medicine	secondary specialty name														
20210811840707242	secondary specialty name	Obstetrics/Gynecology	Obstetrics/Gynecology	Obstetrics/Gynecology	secondary specialty name														
20210811840707243	secondary specialty name	Adolescent Medicine - Im	Adolescent Medicine - Im	Adolescent Medicine - Im	secondary specialty name														
20210811840707244	secondary specialty name	Anesthesiology	Anesthesiology	Anesthesiology	secondary specialty name														
20210811840707245	secondary specialty name	Nurse Midwife	Nurse Midwife	Nurse Midwife	secondary specialty name														
20210811840707246	secondary specialty name	Emergency Medicine - Medical Toxicology	Emergency Medicine - Medical Toxicology	Emergency Medicine - Medical Toxicology	secondary specialty name														
20210811840707247	secondary specialty name	Clinical Nurse Specialist	Clinical Nurse Specialist	Clinical Nurse Specialist	secondary specialty name														
20210811840707248	secondary specialty name	Unspecified	Unspecified	Unspecified	secondary specialty name														
20210811840707249	secondary specialty name	Family Practice - Geriatric Medicine	Family Practice - Geriatric Medicine	Family Practice - Geriatric Medicine	secondary specialty name														
20210811840707250	secondary specialty name	Family Medicine	Family Medicine	Family Medicine	secondary specialty name														
20210811840707251	secondary specialty name	Critical Care Medicine - Im	Critical Care Medicine - Im	Critical Care Medicine - Im	secondary specialty name														
20210811840707252	secondary specialty name	Internal Medicine	Internal Medicine	Internal Medicine	secondary specialty name														
20210811840707253	secondary specialty name	Anatomic/Clinical Pathology	Anatomic/Clinical Pathology	Anatomic/Clinical Pathology	secondary specialty name														
20210811840707254	secondary specialty name	Registered Nurse	Registered Nurse	Registered Nurse	secondary specialty name														
20210811840707255	secondary specialty name	Endocrinology	Endocrinology	Endocrinology	secondary specialty name														
20210811840707256	secondary specialty name	Head And Neck Surgery	Head And Neck Surgery	Head And Neck Surgery	secondary specialty name														
20210811840707257	secondary specialty name	Vascular Surgery	Vascular Surgery	Vascular Surgery	secondary specialty name														
20210811840707258	secondary specialty name	Vascular Medicine	Vascular Medicine	Vascular Medicine	secondary specialty name														
20210811840707259	secondary specialty name	Hospitalist	Hospitalist	Hospitalist	secondary specialty name														
20210811840707260	secondary specialty name	Orthopedic Surgery	Orthopedic Surgery	Orthopedic Surgery	secondary specialty name														
20210811840707261	secondary specialty name	General Surgery	General Surgery	General Surgery	secondary specialty name														
20210811840707262	secondary specialty name	Emergency Medicine	Emergency Medicine	Emergency Medicine	secondary specialty name														
20210811840707263	secondary specialty name	Oncology	Oncology	Oncology	secondary specialty name														
20210811840707264	secondary specialty name	Certified Nurse Anesthetist	Certified Nurse Anesthetist	Certified Nurse Anesthetist	secondary specialty name														
20210811840707265	secondary specialty name	Internal Medicine - Pediatrics	Internal Medicine - Pediatrics	Internal Medicine - Pediatrics	secondary specialty name														
20210811840707266	secondary specialty name	Nuclear Medicine	Nuclear Medicine	Nuclear Medicine	secondary specialty name														
20210811840707267	secondary specialty name	Nephrology	Nephrology	Nephrology	secondary specialty name														
20210811840707268	secondary specialty name	Pulmonary Disease	Pulmonary Disease	Pulmonary Disease	secondary specialty name														
20210811840707269	secondary specialty name	Legal Medicine	Legal Medicine	Legal Medicine	secondary specialty name														
20210811840707270	secondary specialty name	Radiology	Radiology	Radiology	secondary specialty name														
20210811840707271	secondary specialty name	Palliative Medicine	Palliative Medicine	Palliative Medicine	secondary specialty name														
20210811840707272	secondary specialty name	Other Specialty	Other Specialty	Other Specialty	secondary specialty name														
20210811840707273	secondary specialty name	Sleep Medicine	Sleep Medicine	Sleep Medicine	secondary specialty name														
20210811840707274	secondary specialty name	Cardiovascular Surgery	Cardiovascular Surgery	Cardiovascular Surgery	secondary specialty name														
20210811840707275	secondary specialty name	Public Health And General Preventive Med	Public Health And General Preventive Med	Public Health And General Preventive Med	secondary specialty name														
20210811840707276	secondary specialty name	Allergy	Allergy	Allergy	secondary specialty name														
20210811840707277	secondary specialty name	Hematology - Im	Hematology - Im	Hematology - Im	secondary specialty name														
20210811840707278	secondary specialty name	Proctology	Proctology	Proctology	secondary specialty name														
20210811840707279	secondary specialty name	Pain Mgmt, Physical Med & Rehab	Pain Mgmt, Physical Med & Rehab	Pain Mgmt, Physical Med & Rehab	secondary specialty name														
20210811840707280	secondary specialty name	Occupational Medicine	Occupational Medicine	Occupational Medicine	secondary specialty name														
20210811840707281	secondary specialty name	Advance Heart Failure And Transplant Cardiology	Advance Heart Failure And Transplant Cardiology	Advance Heart Failure And Transplant Cardiology	secondary specialty name														
20210811840707282	secondary specialty name	General Preventive Medicine	General Preventive Medicine	General Preventive Medicine	secondary specialty name														
20210811840707283	secondary specialty name	Adolescent Medicine	Adolescent Medicine	Adolescent Medicine	secondary specialty name														
