ID	CLASS	CODE	NAME	DESC	LEVEL	SYN1	SYN2	SYN3	SYN4	SYN5	SYN6	SYN7	SYN8	SYN9	SYN10	SYN11	SYN12	SYN13	SYN14
20210811860707223	state	California	California	California	state														
20210811860707224	state	Alabama	Alabama	Alabama	state														
20210811860707225	state	Pennsylvania	Pennsylvania	Pennsylvania	state														
20210811860707226	state	Maine	Maine	Maine	state														
20210811860707227	state	Virginia	Virginia	Virginia	state														
20210811860707228	state	New York	New York	New York	state														
20210811860707229	state	Tennessee	Tennessee	Tennessee	state														
20210811860707230	state	Indiana	Indiana	Indiana	state														
20210811860707231	state	Connecticut	Connecticut	Connecticut	state														
20210811860707232	state	Georgia	Georgia	Georgia	state														
20210811860707233	state	West Virginia	West Virginia	West Virginia	state														
20210811860707234	state	Texas	Texas	Texas	state														
20210811860707235	state	South Dakota	South Dakota	South Dakota	state														
20210811860707236	state	New Hampshire	New Hampshire	New Hampshire	state														
20210811860707237	state	New Mexico	New Mexico	New Mexico	state														
20210811860707238	state	Iowa	Iowa	Iowa	state														
20210811860707239	state	Minnesota	Minnesota	Minnesota	state														
20210811860707240	state	Vermont	Vermont	Vermont	state														
20210811860707241	state	Alaska	Alaska	Alaska	state														
20210811860707242	state	Kentucky	Kentucky	Kentucky	state														
20210811860707243	state	Utah	Utah	Utah	state														
20210811860707244	state	Mississippi	Mississippi	Mississippi	state														
20210811860707245	state	Delaware	Delaware	Delaware	state														
20210811860707246	state	Missouri	Missouri	Missouri	state														
20210811860707247	state	Illinois	Illinois	Illinois	state														
20210811860707248	state	South Carolina	South Carolina	South Carolina	state														
20210811860707249	state	North Dakota	North Dakota	North Dakota	state														
20210811860707250	state	Florida	Florida	Florida	state														
20210811860707251	state	Wisconsin	Wisconsin	Wisconsin	state														
20210811860707252	state	Ohio	Ohio	Ohio	state														
20210811860707253	state	Washington	Washington	Washington	state														
20210811860707254	state	Colorado	Colorado	Colorado	state														
20210811860707255	state	New Jersey	New Jersey	New Jersey	state														
20210811860707256	state	Michigan	Michigan	Michigan	state														
20210811860707257	state	Rhode Island	Rhode Island	Rhode Island	state														
20210811860707258	state	Massachusetts	Massachusetts	Massachusetts	state														
20210811860707259	state	Nebraska	Nebraska	Nebraska	state														
20210811860707260	state	Oklahoma	Oklahoma	Oklahoma	state														
20210811860707261	state	Montana	Montana	Montana	state														
20210811860707262	state	Arkansas	Arkansas	Arkansas	state														
20210811860707263	state	North Carolina	North Carolina	North Carolina	state														
20210811860707264	state	Maryland	Maryland	Maryland	state														
20210811860707265	state	Arizona	Arizona	Arizona	state														
20210811860707266	state	Hawaii	Hawaii	Hawaii	state														
20210811860707267	state	Oregon	Oregon	Oregon	state														
20210811860707268	state	Nevada	Nevada	Nevada	state														
20210811860707269	state	Kansas	Kansas	Kansas	state														
20210811860707270	state	Louisiana	Louisiana	Louisiana	state														
20210811860707271	state	Idaho	Idaho	Idaho	state														
20210811860707272	state	District of Columbia	District of Columbia	District of Columbia	state														
