ID	CLASS	CODE	NAME	DESC	LEVEL	SYN1	SYN2	SYN3	SYN4	SYN5	SYN6	SYN7	SYN8	SYN9	SYN10	SYN11	SYN12	SYN13	SYN14
20210811910707223	territory name	Sacramento	Sacramento	Sacramento	territory name														
20210811910707224	territory name	Lexington	Lexington	Lexington	territory name														
20210811910707225	territory name	Birmingham	Birmingham	Birmingham	territory name														
20210811910707226	territory name	Stockton	Stockton	Stockton	territory name														
20210811910707227	territory name	Atlantic City	Atlantic City	Atlantic City	territory name														
20210811910707228	territory name	Tallahassee	Tallahassee	Tallahassee	territory name														
20210811910707229	territory name	Great Neck	Great Neck	Great Neck	territory name														
20210811910707230	territory name	Chambersburg	Chambersburg	Chambersburg	territory name														
20210811910707231	territory name	Mobile	Mobile	Mobile	territory name														
20210811910707232	territory name	Alaska	Alaska	Alaska	territory name														
20210811910707233	territory name	Tampa	Tampa	Tampa	territory name														
20210811910707234	territory name	Ocala	Ocala	Ocala	territory name														
20210811910707235	territory name	New Haven	New Haven	New Haven	territory name														
20210811910707236	territory name	Omaha	Omaha	Omaha	territory name														
20210811910707237	territory name	Orlando	Orlando	Orlando	territory name														
20210811910707238	territory name	El Paso	El Paso	El Paso	territory name														
20210811910707239	territory name	Springfield	Springfield	Springfield	territory name														
20210811910707240	territory name	Marietta	Marietta	Marietta	territory name														
20210811910707241	territory name	Des Moines	Des Moines	Des Moines	territory name														
20210811910707242	territory name	West Chester	West Chester	West Chester	territory name														
20210811910707243	territory name	Knoxville	Knoxville	Knoxville	territory name														
20210811910707244	territory name	Miami	Miami	Miami	territory name														
20210811910707245	territory name	Albuquerque	Albuquerque	Albuquerque	territory name														
20210811910707246	territory name	Manchester	Manchester	Manchester	territory name														
20210811910707247	territory name	Milwaukee	Milwaukee	Milwaukee	territory name														
20210811910707248	territory name	Winston-Salem	Winston-Salem	Winston-Salem	territory name														
20210811910707249	territory name	Paterson	Paterson	Paterson	territory name														
20210811910707250	territory name	Buffalo	Buffalo	Buffalo	territory name														
20210811910707251	territory name	Port St. Lucie	Port St. Lucie	Port St. Lucie	territory name														
20210811910707252	territory name	Albany	Albany	Albany	territory name														
20210811910707253	territory name	Tulsa	Tulsa	Tulsa	territory name														
20210811910707254	territory name	Newport Beach	Newport Beach	Newport Beach	territory name														
20210811910707255	territory name	Syracuse	Syracuse	Syracuse	territory name														
20210811910707256	territory name	Everett	Everett	Everett	territory name														
20210811910707257	territory name	Fort Lauderdale	Fort Lauderdale	Fort Lauderdale	territory name														
20210811910707258	territory name	Peoria	Peoria	Peoria	territory name														
20210811910707259	territory name	Little Rock	Little Rock	Little Rock	territory name														
20210811910707260	territory name	Scranton	Scranton	Scranton	territory name														
20210811910707261	territory name	Wilmington	Wilmington	Wilmington	territory name														
20210811910707262	territory name	Toledo	Toledo	Toledo	territory name														
20210811910707263	territory name	Jersey City	Jersey City	Jersey City	territory name														
20210811910707264	territory name	Fort Worth	Fort Worth	Fort Worth	territory name														
20210811910707265	territory name	Boca Raton	Boca Raton	Boca Raton	territory name														
20210811910707266	territory name	Waukesha	Waukesha	Waukesha	territory name														
20210811910707267	territory name	Reno	Reno	Reno	territory name														
20210811910707268	territory name	Dayton	Dayton	Dayton	territory name														
20210811910707269	territory name	Daytona Beach	Daytona Beach	Daytona Beach	territory name														
20210811910707270	territory name	Fayetteville	Fayetteville	Fayetteville	territory name														
20210811910707271	territory name	Brooklyn	Brooklyn	Brooklyn	territory name														
20210811910707272	territory name	Las Vegas North	Las Vegas North	Las Vegas North	territory name														
20210811910707273	territory name	Munster	Munster	Munster	territory name														
20210811910707274	territory name	Delaware	Delaware	Delaware	territory name														
20210811910707275	territory name	Los Angeles	Los Angeles	Los Angeles	territory name														
20210811910707276	territory name	Richmond	Richmond	Richmond	territory name														
20210811910707277	territory name	Blacksburg	Blacksburg	Blacksburg	territory name														
20210811910707278	territory name	Waterloo	Waterloo	Waterloo	territory name														
20210811910707279	territory name	Houston East	Houston East	Houston East	territory name														
20210811910707280	territory name	Buffalo North	Buffalo North	Buffalo North	territory name														
20210811910707281	territory name	Poughkeepsie	Poughkeepsie	Poughkeepsie	territory name														
20210811910707282	territory name	Buffalo South	Buffalo South	Buffalo South	territory name														
20210811910707283	territory name	Hempstead	Hempstead	Hempstead	territory name														
20210811910707284	territory name	Middletown	Middletown	Middletown	territory name														
20210811910707285	territory name	Charleston	Charleston	Charleston	territory name														
20210811910707286	territory name	Wausau	Wausau	Wausau	territory name														
20210811910707287	territory name	Frederick	Frederick	Frederick	territory name														
20210811910707288	territory name	San Francisco	San Francisco	San Francisco	territory name														
20210811910707289	territory name	Bowling Green	Bowling Green	Bowling Green	territory name														
20210811910707290	territory name	Montgomery	Montgomery	Montgomery	territory name														
20210811910707291	territory name	Utah	Utah	Utah	territory name														
20210811910707292	territory name	Pikeville	Pikeville	Pikeville	territory name														
20210811910707293	territory name	Port Huron	Port Huron	Port Huron	territory name														
20210811910707294	territory name	Nashville North	Nashville North	Nashville North	territory name														
20210811910707295	territory name	Lees Summit	Lees Summit	Lees Summit	territory name														
20210811910707296	territory name	Phoenix	Phoenix	Phoenix	territory name														
20210811910707297	territory name	Minneapolis North	Minneapolis North	Minneapolis North	territory name														
20210811910707298	territory name	Indianapolis East	Indianapolis East	Indianapolis East	territory name														
20210811910707299	territory name	Mcallen	Mcallen	Mcallen	territory name														
20210811910707300	territory name	Bradenton	Bradenton	Bradenton	territory name														
20210811910707301	territory name	San Bernardino	San Bernardino	San Bernardino	territory name														
20210811910707302	territory name	Padukah	Padukah	Padukah	territory name														
20210811910707303	territory name	Lafayette	Lafayette	Lafayette	territory name														
20210811910707304	territory name	Boston South	Boston South	Boston South	territory name														
20210811910707305	territory name	Shreveport	Shreveport	Shreveport	territory name														
20210811910707306	territory name	Huntington	Huntington	Huntington	territory name														
20210811910707307	territory name	Cleveland East	Cleveland East	Cleveland East	territory name														
20210811910707308	territory name	Minneapolis West	Minneapolis West	Minneapolis West	territory name														
20210811910707309	territory name	Carbondale	Carbondale	Carbondale	territory name														
20210811910707310	territory name	Wichita	Wichita	Wichita	territory name														
20210811910707311	territory name	Colorado Springs	Colorado Springs	Colorado Springs	territory name														
20210811910707312	territory name	Jonesboro	Jonesboro	Jonesboro	territory name														
20210811910707313	territory name	Worcester	Worcester	Worcester	territory name														
20210811910707314	territory name	Hollywood	Hollywood	Hollywood	territory name														
20210811910707315	territory name	South Dakota	South Dakota	South Dakota	territory name														
20210811910707316	territory name	Cincinnati East	Cincinnati East	Cincinnati East	territory name														
20210811910707317	territory name	Sugar Land	Sugar Land	Sugar Land	territory name														
20210811910707318	territory name	Gulfport	Gulfport	Gulfport	territory name														
20210811910707319	territory name	Waterbury	Waterbury	Waterbury	territory name														
20210811910707320	territory name	Abilene	Abilene	Abilene	territory name														
20210811910707321	territory name	Boise	Boise	Boise	territory name														
20210811910707322	territory name	Eugene	Eugene	Eugene	territory name														
20210811910707323	territory name	Corpus Christi	Corpus Christi	Corpus Christi	territory name														
20210811910707324	territory name	Palm Springs	Palm Springs	Palm Springs	territory name														
20210811910707325	territory name	Greensboro	Greensboro	Greensboro	territory name														
20210811910707326	territory name	Abington	Abington	Abington	territory name														
20210811910707327	territory name	Boston Metrowest	Boston Metrowest	Boston Metrowest	territory name														
20210811910707328	territory name	Olathe	Olathe	Olathe	territory name														
20210811910707329	territory name	West Bend	West Bend	West Bend	territory name														
20210811910707330	territory name	Oak Lawn	Oak Lawn	Oak Lawn	territory name														
20210811910707331	territory name	Birmingham South	Birmingham South	Birmingham South	territory name														
20210811910707332	territory name	Fresno	Fresno	Fresno	territory name														
20210811910707333	territory name	Burbank	Burbank	Burbank	territory name														
20210811910707334	territory name	Detroit	Detroit	Detroit	territory name														
20210811910707335	territory name	Annapolis	Annapolis	Annapolis	territory name														
20210811910707336	territory name	Scottsdale	Scottsdale	Scottsdale	territory name														
20210811910707337	territory name	Roanoke	Roanoke	Roanoke	territory name														
20210811910707338	territory name	Evansville	Evansville	Evansville	territory name														
20210811910707339	territory name	Pittsburgh East	Pittsburgh East	Pittsburgh East	territory name														
20210811910707340	territory name	Richmond W	Richmond W	Richmond W	territory name														
20210811910707341	territory name	Waukegan	Waukegan	Waukegan	territory name														
20210811910707342	territory name	Miami South	Miami South	Miami South	territory name														
20210811910707343	territory name	Columbus North	Columbus North	Columbus North	territory name														
20210811910707344	territory name	Chattanooga	Chattanooga	Chattanooga	territory name														
20210811910707345	territory name	Riverside	Riverside	Riverside	territory name														
20210811910707346	territory name	Newark	Newark	Newark	territory name														
20210811910707347	territory name	Flushing	Flushing	Flushing	territory name														
20210811910707348	territory name	Chicago North	Chicago North	Chicago North	territory name														
20210811910707349	territory name	Spokane	Spokane	Spokane	territory name														
20210811910707350	territory name	Portland	Portland	Portland	territory name														
20210811910707351	territory name	Hawaii	Hawaii	Hawaii	territory name														
20210811910707352	territory name	Kalamazoo	Kalamazoo	Kalamazoo	territory name														
20210811910707353	territory name	Chesterfield	Chesterfield	Chesterfield	territory name														
20210811910707354	territory name	Saint Petersburg	Saint Petersburg	Saint Petersburg	territory name														
20210811910707355	territory name	Rhode Island	Rhode Island	Rhode Island	territory name														
20210811910707356	territory name	Evanston	Evanston	Evanston	territory name														
20210811910707357	territory name	Erie	Erie	Erie	territory name														
20210811910707358	territory name	Bismarck	Bismarck	Bismarck	territory name														
20210811910707359	territory name	Oklahoma City	Oklahoma City	Oklahoma City	territory name														
20210811910707360	territory name	Columbia	Columbia	Columbia	territory name														
20210811910707361	territory name	Champaign	Champaign	Champaign	territory name														
20210811910707362	territory name	Huntsville	Huntsville	Huntsville	territory name														
20210811910707363	territory name	Atlanta	Atlanta	Atlanta	territory name														
20210811910707364	territory name	Clermont	Clermont	Clermont	territory name														
20210811910707365	territory name	Virginia Beach	Virginia Beach	Virginia Beach	territory name														
20210811910707366	territory name	Ann Arbor	Ann Arbor	Ann Arbor	territory name														
20210811910707367	territory name	Red Bank	Red Bank	Red Bank	territory name														
20210811910707368	territory name	Chicago	Chicago	Chicago	territory name														
20210811910707369	territory name	Traverse City	Traverse City	Traverse City	territory name														
20210811910707370	territory name	Sarasota	Sarasota	Sarasota	territory name														
20210811910707371	territory name	Redding	Redding	Redding	territory name														
20210811910707372	territory name	Akron	Akron	Akron	territory name														
20210811910707373	territory name	Houston North	Houston North	Houston North	territory name														
20210811910707374	territory name	Madison	Madison	Madison	territory name														
20210811910707375	territory name	Altoona	Altoona	Altoona	territory name														
20210811910707376	territory name	Greenville	Greenville	Greenville	territory name														
20210811910707377	territory name	Lancaster	Lancaster	Lancaster	territory name														
20210811910707378	territory name	Staten Island	Staten Island	Staten Island	territory name														
20210811910707379	territory name	Denver South	Denver South	Denver South	territory name														
20210811910707380	territory name	Rochester	Rochester	Rochester	territory name														
20210811910707381	territory name	New Castle	New Castle	New Castle	territory name														
20210811910707382	territory name	Green Bay	Green Bay	Green Bay	territory name														
20210811910707383	territory name	Kansas City West	Kansas City West	Kansas City West	territory name														
20210811910707384	territory name	Plano	Plano	Plano	territory name														
20210811910707385	territory name	Santa Cruz	Santa Cruz	Santa Cruz	territory name														
20210811910707386	territory name	Lincoln	Lincoln	Lincoln	territory name														
20210811910707387	territory name	Dallas	Dallas	Dallas	territory name														
20210811910707388	territory name	Bangor	Bangor	Bangor	territory name														
20210811910707389	territory name	Jackson	Jackson	Jackson	territory name														
20210811910707390	territory name	Boston	Boston	Boston	territory name														
20210811910707391	territory name	Minneapolis S	Minneapolis S	Minneapolis S	territory name														
20210811910707392	territory name	Fairfax	Fairfax	Fairfax	territory name														
20210811910707393	territory name	Sandy Springs	Sandy Springs	Sandy Springs	territory name														
20210811910707394	territory name	Scarsdale	Scarsdale	Scarsdale	territory name														
20210811910707395	territory name	San Antonio East	San Antonio East	San Antonio East	territory name														
20210811910707396	territory name	Fort Myers	Fort Myers	Fort Myers	territory name														
20210811910707397	territory name	Pittsburgh South	Pittsburgh South	Pittsburgh South	territory name														
20210811910707398	territory name	Harrisburg	Harrisburg	Harrisburg	territory name														
20210811910707399	territory name	Minneapolis East	Minneapolis East	Minneapolis East	territory name														
20210811910707400	territory name	Sioux Falls	Sioux Falls	Sioux Falls	territory name														
20210811910707401	territory name	Asheville	Asheville	Asheville	territory name														
20210811910707402	territory name	San Antonio West	San Antonio West	San Antonio West	territory name														
20210811910707403	territory name	Kansas City	Kansas City	Kansas City	territory name														
20210811910707404	territory name	Orange	Orange	Orange	territory name														
20210811910707405	territory name	Grand Rapids	Grand Rapids	Grand Rapids	territory name														
20210811910707406	territory name	St Louis Metro East	St Louis Metro East	St Louis Metro East	territory name														
20210811910707407	territory name	Pasadena	Pasadena	Pasadena	territory name														
20210811910707408	territory name	Columbus South	Columbus South	Columbus South	territory name														
20210811910707409	territory name	Cedar Rapids	Cedar Rapids	Cedar Rapids	territory name														
20210811910707410	territory name	Baton Rouge	Baton Rouge	Baton Rouge	territory name														
20210811910707411	territory name	Raleigh	Raleigh	Raleigh	territory name														
20210811910707412	territory name	Wheeling	Wheeling	Wheeling	territory name														
20210811910707413	territory name	Cleveland West	Cleveland West	Cleveland West	territory name														
20210811910707414	territory name	Hartford	Hartford	Hartford	territory name														
20210811910707415	territory name	Fort Wayne	Fort Wayne	Fort Wayne	territory name														
20210811910707416	territory name	Mesa	Mesa	Mesa	territory name														
20210811910707417	territory name	Covina	Covina	Covina	territory name														
20210811910707418	territory name	Washington	Washington	Washington	territory name														
20210811910707419	territory name	Binghamton	Binghamton	Binghamton	territory name														
20210811910707420	territory name	North Dakota	North Dakota	North Dakota	territory name														
20210811910707421	territory name	Santa Monica	Santa Monica	Santa Monica	territory name														
20210811910707422	territory name	Nashville South	Nashville South	Nashville South	territory name														
20210811910707423	territory name	Tyler	Tyler	Tyler	territory name														
20210811910707424	territory name	Houston	Houston	Houston	territory name														
20210811910707425	territory name	Titusville	Titusville	Titusville	territory name														
20210811910707426	territory name	Manhattan North	Manhattan North	Manhattan North	territory name														
20210811910707427	territory name	Torrance	Torrance	Torrance	territory name														
20210811910707428	territory name	Joliet	Joliet	Joliet	territory name														
20210811910707429	territory name	Augusta	Augusta	Augusta	territory name														
20210811910707430	territory name	Bakersfield	Bakersfield	Bakersfield	territory name														
20210811910707431	territory name	Amarillo	Amarillo	Amarillo	territory name														
20210811910707432	territory name	Lansing	Lansing	Lansing	territory name														
20210811910707433	territory name	Memphis	Memphis	Memphis	territory name														
20210811910707434	territory name	Johnson City	Johnson City	Johnson City	territory name														
20210811910707435	territory name	Davenport	Davenport	Davenport	territory name														
20210811910707436	territory name	Philadelphia	Philadelphia	Philadelphia	territory name														
20210811910707437	territory name	Duluth	Duluth	Duluth	territory name														
20210811910707438	territory name	East Brunswick	East Brunswick	East Brunswick	territory name														
20210811910707439	territory name	New Orleans	New Orleans	New Orleans	territory name														
20210811910707440	territory name	Charlottesville	Charlottesville	Charlottesville	territory name														
20210811910707441	territory name	Louisville	Louisville	Louisville	territory name														
20210811910707442	territory name	Tucson	Tucson	Tucson	territory name														
20210811910707443	territory name	Burlington	Burlington	Burlington	territory name														
20210811910707444	territory name	Montana	Montana	Montana	territory name														
20210811910707445	territory name	Langhorne	Langhorne	Langhorne	territory name														
20210811910707446	territory name	Columbus	Columbus	Columbus	territory name														
20210811910707447	territory name	Bremerton	Bremerton	Bremerton	territory name														
20210811910707448	territory name	Houston Northwest	Houston Northwest	Houston Northwest	territory name														
20210811910707449	territory name	Jacksonville	Jacksonville	Jacksonville	territory name														
20210811910707450	territory name	Savannah	Savannah	Savannah	territory name														
20210811910707451	territory name	Ventura	Ventura	Ventura	territory name														
20210811910707452	territory name	Charlotte	Charlotte	Charlotte	territory name														
20210811910707453	territory name	Baltimore	Baltimore	Baltimore	territory name														
20210811910707454	territory name	Saint Louis	Saint Louis	Saint Louis	territory name														
20210811910707455	territory name	Rockford	Rockford	Rockford	territory name														
20210811910707456	territory name	Allentown	Allentown	Allentown	territory name														
20210811910707457	territory name	Austin	Austin	Austin	territory name														
20210811910707458	territory name	Cincinnati	Cincinnati	Cincinnati	territory name														
20210811910707459	territory name	Camden	Camden	Camden	territory name														
20210811910707460	territory name	Las Vegas South	Las Vegas South	Las Vegas South	territory name														
20210811910707461	territory name	Salem	Salem	Salem	territory name														
20210811910707462	territory name	Spartanburg	Spartanburg	Spartanburg	territory name														
20210811910707463	territory name	Seattle Central	Seattle Central	Seattle Central	territory name														
20210811910707464	territory name	Youngstown	Youngstown	Youngstown	territory name														
20210811910707465	territory name	State College	State College	State College	territory name														
20210811910707466	territory name	Carmel	Carmel	Carmel	territory name														
20210811910707467	territory name	Sandusky	Sandusky	Sandusky	territory name														
20210811910707468	territory name	Indianapolis West	Indianapolis West	Indianapolis West	territory name														
20210811910707469	territory name	Manhattan South	Manhattan South	Manhattan South	territory name														
20210811910707470	territory name	Tupelo	Tupelo	Tupelo	territory name														
20210811910707471	territory name	Denton	Denton	Denton	territory name														
20210811910707472	territory name	Gainesville	Gainesville	Gainesville	territory name														
20210811910707473	territory name	Morristown	Morristown	Morristown	territory name														
20210811910707474	territory name	San Diego	San Diego	San Diego	territory name														
20210811910707475	territory name	Louisville West	Louisville West	Louisville West	territory name														
20210811910707476	territory name	Medford	Medford	Medford	territory name														
20210811910707477	territory name	Hyannis	Hyannis	Hyannis	territory name														
20210811910707478	territory name	Denver North	Denver North	Denver North	territory name														
