{
    "preprocessing": [
        {
            "column": [
                "Access Category"
            ],
            "type": "generic",
            "datasource": [
                "sales"
            ]
        },
        {
            "column": [
                "Account Type"
            ],
            "type": "generic",
            "datasource": [
                "sales"
            ]
        },
        {
            "column": [
                "ACTVFLG"
            ],
            "type": "generic",
            "datasource": [
                "sales"
            ]
        },
        {
            "column": [
                "Additional Low Dec Target"
            ],
            "type": "generic",
            "datasource": [
                "sales"
            ]
        },
        {
            "column": [
                "Administration Mode"
            ],
            "type": "generic",
            "datasource": [
                "sales"
            ]
        },
        {
            "column": [
                "Area Name"
            ],
            "type": "generic",
            "datasource": [
                "sales"
            ]
        },
        {
            "column": [
                "City"
            ],
            "type": "generic",
            "datasource": [
                "sales"
            ]
        },
        {
            "column": [
                "Company",
                "Company ID"
            ],
            "type": "generic",
            "datasource": [
                "sales"
            ]
        },
        {
            "column": [
                "Competitor Flag"
            ],
            "type": "generic",
            "datasource": [
                "sales"
            ]
        },
        {
            "column": [
                "COTCD Description",
                "COTCD"
            ],
            "type": "generic",
            "datasource": [
                "sales"
            ]
        },
        {
            "column": [
                "Country"
            ],
            "type": "generic",
            "datasource": [
                "sales"
            ]
        },
        {
            "column": [
                "Customer email"
            ],
            "type": "generic",
            "datasource": [
                "sales"
            ]
        },
        {
            "column": [
                "Customer GPO"
            ],
            "type": "generic",
            "datasource": [
                "sales"
            ]
        },
        {
            "column": [
                "Customer ID"
            ],
            "type": "generic",
            "datasource": [
                "sales"
            ]
        },
        {
            "column": [
                "Customer Name"
            ],
            "type": "generic",
            "datasource": [
                "sales"
            ]
        },
        {
            "column": [
                "Customer Subtype"
            ],
            "type": "generic",
            "datasource": [
                "sales"
            ]
        },
        {
            "column": [
                "Customer Super Type Code"
            ],
            "type": "generic",
            "datasource": [
                "sales"
            ]
        },
        {
            "column": [
                "Customer System"
            ],
            "type": "generic",
            "datasource": [
                "sales"
            ]
        },
        {
            "column": [
                "Customer Type"
            ],
            "type": "generic",
            "datasource": [
                "sales"
            ]
        },
        {
            "column": [
                "Customer Wholesaler"
            ],
            "type": "generic",
            "datasource": [
                "sales"
            ]
        },
        {
            "column": [
                "District"
            ],
            "type": "generic",
            "datasource": [
                "sales"
            ]
        },
        {
            "column": [
                "Duplicate Flag"
            ],
            "type": "generic",
            "datasource": [
                "sales"
            ]
        },
        {
            "column": [
                "Engage Willingness"
            ],
            "type": "generic",
            "datasource": [
                "sales"
            ]
        },
        {
            "column": [
                "Formulary status"
            ],
            "type": "generic",
            "datasource": [
                "sales"
            ]
        },
        {
            "column": [
                "Franchise"
            ],
            "type": "generic",
            "datasource": [
                "sales"
            ]
        },
        {
            "column": [
                "Gender"
            ],
            "type": "generic",
            "datasource": [
                "sales"
            ]
        },
        {
            "column": [
                "IDN name",
                "Organization IDN"
            ],
            "type": "generic",
            "datasource": [
                "sales"
            ]
        },
        {
            "column": [
                "Key opinion leader flag"
            ],
            "type": "generic",
            "datasource": [
                "sales"
            ]
        },
        {
            "column": [
                "Market"
            ],
            "type": "generic",
            "datasource": [
                "sales"
            ]
        },
        {
            "column": [
                "Market Base"
            ],
            "type": "generic",
            "datasource": [
                "sales"
            ]
        },
        {
            "column": [
                "Market Decile Group"
            ],
            "type": "generic",
            "datasource": [
                "sales"
            ]
        },
        {
            "column": [
                "Never Called Flag"
            ],
            "type": "generic",
            "datasource": [
                "sales"
            ]
        },
        {
            "column": [
                "Not Called Flag"
            ],
            "type": "generic",
            "datasource": [
                "sales"
            ]
        },
        {
            "column": [
                "Payer Name",
                "Payer ID"
            ],
            "type": "generic",
            "datasource": [
                "sales"
            ]
        },
        {
            "column": [
                "Payment Type"
            ],
            "type": "generic",
            "datasource": [
                "sales"
            ]
        },
        {
            "column": [
                "PBM"
            ],
            "type": "generic",
            "datasource": [
                "sales"
            ]
        },
        {
            "column": [
                "PDRP Flag",
                "Customer Name"
            ],
            "type": "attribute",
            "datasource": [
                "sales"
            ]
        },
        {
            "column": [
                "Plan Name",
                "Plan ID"
            ],
            "type": "generic",
            "datasource": [
                "sales"
            ]
        },
        {
            "column": [
                "Preferred Mode of Engagement"
            ],
            "type": "generic",
            "datasource": [
                "sales"
            ]
        },
        {
            "column": [
                "Primary Specialty Code"
            ],
            "type": "generic",
            "datasource": [
                "sales"
            ]
        },
        {
            "column": [
                "Primary Specialty Group Name",
                "Primary Specialty Group Code"
            ],
            "type": "generic",
            "datasource": [
                "sales"
            ]
        },
        {
            "column": [
                "Primary Specialty Name",
                "Customer Name"
            ],
            "type": "attribute",
            "datasource": [
                "sales"
            ]
        },
        {
            "column": [
                "Product Decile Group"
            ],
            "type": "generic",
            "datasource": [
                "sales"
            ]
        },
        {
            "column": [
                "Product Group"
            ],
            "type": "generic",
            "datasource": [
                "sales"
            ]
        },
        {
            "column": [
                "Product Name"
            ],
            "type": "generic",
            "datasource": [
                "sales"
            ]
        },
        {
            "column": [
                "Product Strength"
            ],
            "type": "generic",
            "datasource": [
                "sales"
            ]
        },
        {
            "column": [
                "Region"
            ],
            "type": "generic",
            "datasource": [
                "sales"
            ]
        },
        {
            "column": [
                "Region Company Code"
            ],
            "type": "generic",
            "datasource": [
                "sales"
            ]
        },
        {
            "column": [
                "Region Selling Division"
            ],
            "type": "generic",
            "datasource": [
                "sales"
            ]
        },
        {
            "column": [
                "Secondary Specialty Name",
                "Secondary Specialty Code"
            ],
            "type": "generic",
            "datasource": [
                "sales"
            ]
        },
        {
            "column": [
                "Speaker Flag"
            ],
            "type": "generic",
            "datasource": [
                "sales"
            ]
        },
        {
            "column": [
                "State"
            ],
            "type": "generic",
            "datasource": [
                "sales"
            ]
        },
        {
            "column": [
                "Sub Product"
            ],
            "type": "generic",
            "datasource": [
                "sales"
            ]
        },
        {
            "column": [
                "Surveyed Flag"
            ],
            "type": "generic",
            "datasource": [
                "sales"
            ]
        },
        {
            "column": [
                "Target Status",
                "Customer Name"
            ],
            "type": "attribute",
            "datasource": [
                "sales"
            ]
        },
        {
            "column": [
                "Territory Manager"
            ],
            "type": "generic",
            "datasource": [
                "sales"
            ]
        },
        {
            "column": [
                "Territory Name"
            ],
            "type": "generic",
            "datasource": [
                "sales"
            ]
        },
        {
            "column": [
                "Therapeutic Area"
            ],
            "type": "generic",
            "datasource": [
                "sales"
            ]
        },
        {
            "column": [
                "Therapeutic Class"
            ],
            "type": "generic",
            "datasource": [
                "sales"
            ]
        },
        {
            "column": [
                "Treatment Type"
            ],
            "type": "generic",
            "datasource": [
                "sales"
            ]
        },
        {
            "column": [
                "Zip"
            ],
            "type": "generic",
            "datasource": [
                "sales"
            ]
        }
    ],
    "files": [
        {
            "file_name": "Access Category",
            "db_id": "1001",
            "dimensions": [
                "Access Category"
            ]
        },
        {
            "file_name": "Account Type",
            "db_id": "1002",
            "dimensions": [
                "Account Type"
            ]
        },
        {
            "file_name": "ACTVFLG",
            "db_id": "1005",
            "dimensions": [
                "ACTVFLG"
            ]
        },
        {
            "file_name": "Additional Low Dec Target",
            "db_id": "1006",
            "dimensions": [
                "Additional Low Dec Target"
            ]
        },
        {
            "file_name": "Administration Mode",
            "db_id": "1008",
            "dimensions": [
                "Administration Mode"
            ]
        },
        {
            "file_name": "Area Name",
            "db_id": "1013",
            "dimensions": [
                "Area Name"
            ]
        },
        {
            "file_name": "City",
            "db_id": "1033",
            "dimensions": [
                "City"
            ]
        },
        {
            "file_name": "Company",
            "db_id": "1038",
            "dimensions": [
                "Company"
            ]
        },
        {
            "file_name": "Competitor Flag",
            "db_id": "1040",
            "dimensions": [
                "Competitor Flag"
            ]
        },
        {
            "file_name": "COTCD Description",
            "db_id": "1047",
            "dimensions": [
                "COTCD Description"
            ]
        },
        {
            "file_name": "Country",
            "db_id": "1049",
            "dimensions": [
                "Country"
            ]
        },
        {
            "file_name": "Customer email",
            "db_id": "1057",
            "dimensions": [
                "Customer email"
            ]
        },
        {
            "file_name": "Customer GPO",
            "db_id": "1058",
            "dimensions": [
                "Customer GPO"
            ]
        },
        {
            "file_name": "Customer ID",
            "db_id": "1059",
            "dimensions": [
                "Customer ID"
            ]
        },
        {
            "file_name": "Customer Name",
            "db_id": "1060",
            "dimensions": [
                "Customer Name"
            ]
        },
        {
            "file_name": "Customer Subtype",
            "db_id": "1062",
            "dimensions": [
                "Customer Subtype"
            ]
        },
        {
            "file_name": "Customer Super Type Code",
            "db_id": "1064",
            "dimensions": [
                "Customer Super Type Code"
            ]
        },
        {
            "file_name": "Customer System",
            "db_id": "1065",
            "dimensions": [
                "Customer System"
            ]
        },
        {
            "file_name": "Customer Type",
            "db_id": "1066",
            "dimensions": [
                "Customer Type"
            ]
        },
        {
            "file_name": "Customer Wholesaler",
            "db_id": "1068",
            "dimensions": [
                "Customer Wholesaler"
            ]
        },
        {
            "file_name": "District",
            "db_id": "1073",
            "dimensions": [
                "District"
            ]
        },
        {
            "file_name": "Duplicate Flag",
            "db_id": "1075",
            "dimensions": [
                "Duplicate Flag"
            ]
        },
        {
            "file_name": "Engage Willingness",
            "db_id": "1081",
            "dimensions": [
                "Engage Willingness"
            ]
        },
        {
            "file_name": "Formulary status",
            "db_id": "1091",
            "dimensions": [
                "Formulary status"
            ]
        },
        {
            "file_name": "Franchise",
            "db_id": "1092",
            "dimensions": [
                "Franchise"
            ]
        },
        {
            "file_name": "Gender",
            "db_id": "1094",
            "dimensions": [
                "Gender"
            ]
        },
        {
            "file_name": "IDN name",
            "db_id": "1104",
            "dimensions": [
                "IDN name"
            ]
        },
        {
            "file_name": "Key opinion leader flag",
            "db_id": "1108",
            "dimensions": [
                "Key opinion leader flag"
            ]
        },
        {
            "file_name": "Market",
            "db_id": "1112",
            "dimensions": [
                "Market"
            ]
        },
        {
            "file_name": "Market Base",
            "db_id": "1113",
            "dimensions": [
                "Market Base"
            ]
        },
        {
            "file_name": "Market Decile Group",
            "db_id": "1115",
            "dimensions": [
                "Market Decile Group"
            ]
        },
        {
            "file_name": "Never Called Flag",
            "db_id": "1123",
            "dimensions": [
                "Never Called Flag"
            ]
        },
        {
            "file_name": "Not Called Flag",
            "db_id": "1124",
            "dimensions": [
                "Not Called Flag"
            ]
        },
        {
            "file_name": "Payer Name",
            "db_id": "1132",
            "dimensions": [
                "Payer Name"
            ]
        },
        {
            "file_name": "Payment Type",
            "db_id": "1133",
            "dimensions": [
                "Payment Type"
            ]
        },
        {
            "file_name": "PBM",
            "db_id": "1134",
            "dimensions": [
                "PBM"
            ]
        },
        {
            "file_name": "PDRP Flag",
            "db_id": "1136",
            "dimensions": [
                "PDRP Flag"
            ]
        },
        {
            "file_name": "Plan Name",
            "db_id": "1138",
            "dimensions": [
                "Plan Name"
            ]
        },
        {
            "file_name": "Preferred Mode of Engagement",
            "db_id": "1139",
            "dimensions": [
                "Preferred Mode of Engagement"
            ]
        },
        {
            "file_name": "Primary Specialty Code",
            "db_id": "1140",
            "dimensions": [
                "Primary Specialty Code"
            ]
        },
        {
            "file_name": "Primary Specialty Group Name",
            "db_id": "1142",
            "dimensions": [
                "Primary Specialty Group Name"
            ]
        },
        {
            "file_name": "Primary Specialty Name",
            "db_id": "1143",
            "dimensions": [
                "Primary Specialty Name"
            ]
        },
        {
            "file_name": "Product Decile Group",
            "db_id": "1145",
            "dimensions": [
                "Product Decile Group"
            ]
        },
        {
            "file_name": "Product Group",
            "db_id": "1146",
            "dimensions": [
                "Product Group"
            ]
        },
        {
            "file_name": "Product Name",
            "db_id": "1148",
            "dimensions": [
                "Product Name"
            ]
        },
        {
            "file_name": "Product Strength",
            "db_id": "1149",
            "dimensions": [
                "Product Strength"
            ]
        },
        {
            "file_name": "Region",
            "db_id": "1159",
            "dimensions": [
                "Region"
            ]
        },
        {
            "file_name": "Region Company Code",
            "db_id": "1161",
            "dimensions": [
                "Region Company Code"
            ]
        },
        {
            "file_name": "Region Selling Division",
            "db_id": "1162",
            "dimensions": [
                "Region Selling Division"
            ]
        },
        {
            "file_name": "Secondary Specialty Name",
            "db_id": "1171",
            "dimensions": [
                "Secondary Specialty Name"
            ]
        },
        {
            "file_name": "Speaker Flag",
            "db_id": "1181",
            "dimensions": [
                "Speaker Flag"
            ]
        },
        {
            "file_name": "State",
            "db_id": "1184",
            "dimensions": [
                "State"
            ]
        },
        {
            "file_name": "Sub Product",
            "db_id": "1187",
            "dimensions": [
                "Sub Product"
            ]
        },
        {
            "file_name": "Surveyed Flag",
            "db_id": "1192",
            "dimensions": [
                "Surveyed Flag"
            ]
        },
        {
            "file_name": "Target Status",
            "db_id": "1194",
            "dimensions": [
                "Target Status"
            ]
        },
        {
            "file_name": "Territory Manager",
            "db_id": "1199",
            "dimensions": [
                "Territory Manager"
            ]
        },
        {
            "file_name": "Territory Name",
            "db_id": "1200",
            "dimensions": [
                "Territory Name"
            ]
        },
        {
            "file_name": "Therapeutic Area",
            "db_id": "1201",
            "dimensions": [
                "Therapeutic Area"
            ]
        },
        {
            "file_name": "Therapeutic Class",
            "db_id": "1202",
            "dimensions": [
                "Therapeutic Class"
            ]
        },
        {
            "file_name": "Treatment Type",
            "db_id": "1205",
            "dimensions": [
                "Treatment Type"
            ]
        },
        {
            "file_name": "Zip",
            "db_id": "1212",
            "dimensions": [
                "Zip"
            ]
        },
        {
            "file_name": "Attribute",
            "db_id": "1220",
            "dimensions": [
                {
                    "child": "Customer Category",
                    "parent": "Customer Name"
                },
                {
                    "child": "Customer rating",
                    "parent": "Customer Name"
                },
                {
                    "child": "PDRP Flag",
                    "parent": "Customer Name"
                },
                {
                    "child": "Primary Specialty Name",
                    "parent": "Customer Name"
                },
                {
                    "child": "Target Status",
                    "parent": "Customer Name"
                }
            ]
        }
    ]
}